info face="Kingthings Petrock" size=-118 bold=0 italic=0 charset="" stretchH=100 smooth=1 aa=1 padding=2,2,2,2 spacing=1,1
common lineHeight=132 base=107 scaleW=1024 scaleH=1024
char id=32   x=1011  y=0     width=7     height=5     xoffset=-3    yoffset=129   xadvance=22    page=0
char id=33   x=708   y=320   width=22    height=96    xoffset=0     yoffset=21    xadvance=22    page=0
char id=34   x=918   y=880   width=44    height=33    xoffset=-2    yoffset=25    xadvance=40    page=0
char id=35   x=0     y=871   width=61    height=73    xoffset=-1    yoffset=33    xadvance=58    page=0
char id=36   x=56    y=0     width=60    height=133   xoffset=-2    yoffset=1     xadvance=57    page=0
char id=37   x=174   y=346   width=69    height=101   xoffset=-1    yoffset=19    xadvance=66    page=0
char id=38   x=716   y=505   width=71    height=82    xoffset=-1    yoffset=28    xadvance=70    page=0
char id=39   x=333   y=982   width=25    height=32    xoffset=-2    yoffset=25    xadvance=21    page=0
char id=40   x=325   y=0     width=30    height=121   xoffset=-1    yoffset=9     xadvance=26    page=0
char id=41   x=170   y=0     width=28    height=122   xoffset=-1    yoffset=8     xadvance=26    page=0
char id=42   x=223   y=987   width=34    height=33    xoffset=-1    yoffset=26    xadvance=32    page=0
char id=43   x=223   y=935   width=52    height=51    xoffset=0     yoffset=44    xadvance=52    page=0
char id=44   x=359   y=980   width=25    height=32    xoffset=-2    yoffset=87    xadvance=21    page=0
char id=45   x=545   y=983   width=49    height=16    xoffset=0     yoffset=62    xadvance=49    page=0
char id=46   x=710   y=941   width=24    height=23    xoffset=-2    yoffset=87    xadvance=20    page=0
char id=47   x=394   y=0     width=37    height=115   xoffset=-3    yoffset=12    xadvance=32    page=0
char id=48   x=111   y=706   width=54    height=82    xoffset=-2    yoffset=28    xadvance=52    page=0
char id=49   x=690   y=676   width=28    height=82    xoffset=-2    yoffset=28    xadvance=26    page=0
char id=50   x=59    y=789   width=56    height=81    xoffset=-1    yoffset=28    xadvance=53    page=0
char id=51   x=0     y=789   width=58    height=81    xoffset=-1    yoffset=29    xadvance=56    page=0
char id=52   x=59    y=450   width=62    height=87    xoffset=-1    yoffset=27    xadvance=60    page=0
char id=53   x=715   y=589   width=57    height=82    xoffset=-1    yoffset=28    xadvance=54    page=0
char id=54   x=56    y=706   width=54    height=82    xoffset=-1    yoffset=28    xadvance=51    page=0
char id=55   x=535   y=516   width=51    height=83    xoffset=-3    yoffset=28    xadvance=47    page=0
char id=56   x=587   y=509   width=50    height=83    xoffset=-1    yoffset=27    xadvance=48    page=0
char id=57   x=166   y=705   width=52    height=82    xoffset=-1    yoffset=28    xadvance=51    page=0
char id=58   x=530   y=912   width=26    height=46    xoffset=-2    yoffset=64    xadvance=21    page=0
char id=59   x=197   y=935   width=25    height=55    xoffset=-2    yoffset=64    xadvance=21    page=0
char id=60   x=317   y=930   width=40    height=51    xoffset=-1    yoffset=43    xadvance=38    page=0
char id=61   x=437   y=962   width=50    height=28    xoffset=0     yoffset=55    xadvance=50    page=0
char id=62   x=276   y=930   width=40    height=51    xoffset=-1    yoffset=43    xadvance=38    page=0
char id=63   x=429   y=516   width=53    height=83    xoffset=-3    yoffset=27    xadvance=49    page=0
char id=64   x=446   y=773   width=76    height=79    xoffset=-1    yoffset=36    xadvance=74    page=0
char id=65   x=939   y=406   width=70    height=83    xoffset=-1    yoffset=27    xadvance=65    page=0
char id=66   x=944   y=576   width=55    height=82    xoffset=-1    yoffset=28    xadvance=53    page=0
char id=67   x=773   y=588   width=56    height=82    xoffset=-1    yoffset=28    xadvance=53    page=0
char id=68   x=134   y=537   width=61    height=83    xoffset=-1    yoffset=27    xadvance=59    page=0
char id=69   x=313   y=524   width=57    height=83    xoffset=-1    yoffset=27    xadvance=54    page=0
char id=70   x=219   y=704   width=52    height=82    xoffset=-2    yoffset=28    xadvance=45    page=0
char id=71   x=71    y=538   width=62    height=83    xoffset=-2    yoffset=27    xadvance=59    page=0
char id=72   x=904   y=659   width=61    height=81    xoffset=-1    yoffset=28    xadvance=58    page=0
char id=73   x=719   y=672   width=27    height=82    xoffset=-1    yoffset=28    xadvance=26    page=0
char id=74   x=887   y=576   width=56    height=82    xoffset=-2    yoffset=28    xadvance=53    page=0
char id=75   x=925   y=493   width=62    height=82    xoffset=-2    yoffset=28    xadvance=57    page=0
char id=76   x=171   y=788   width=54    height=81    xoffset=-2    yoffset=29    xadvance=49    page=0
char id=77   x=747   y=672   width=91    height=81    xoffset=-1    yoffset=29    xadvance=89    page=0
char id=78   x=839   y=662   width=64    height=81    xoffset=-2    yoffset=28    xadvance=60    page=0
char id=79   x=657   y=593   width=57    height=82    xoffset=-1    yoffset=28    xadvance=55    page=0
char id=80   x=675   y=420   width=56    height=84    xoffset=-1    yoffset=28    xadvance=54    page=0
char id=81   x=807   y=317   width=72    height=91    xoffset=-1    yoffset=28    xadvance=66    page=0
char id=82   x=0     y=623   width=62    height=82    xoffset=-1    yoffset=28    xadvance=58    page=0
char id=83   x=0     y=706   width=55    height=82    xoffset=-2    yoffset=28    xadvance=51    page=0
char id=84   x=63    y=623   width=61    height=82    xoffset=-2    yoffset=28    xadvance=53    page=0
char id=85   x=125   y=622   width=61    height=82    xoffset=0     yoffset=28    xadvance=59    page=0
char id=86   x=584   y=423   width=62    height=85    xoffset=-2    yoffset=25    xadvance=60    page=0
char id=87   x=339   y=436   width=87    height=86    xoffset=-3    yoffset=24    xadvance=82    page=0
char id=88   x=788   y=496   width=69    height=82    xoffset=-3    yoffset=28    xadvance=65    page=0
char id=89   x=941   y=316   width=58    height=89    xoffset=-2    yoffset=21    xadvance=55    page=0
char id=90   x=966   y=659   width=56    height=81    xoffset=-2    yoffset=28    xadvance=52    page=0
char id=91   x=289   y=0     width=35    height=121   xoffset=1     yoffset=10    xadvance=30    page=0
char id=92   x=356   y=0     width=37    height=115   xoffset=-2    yoffset=12    xadvance=30    page=0
char id=93   x=253   y=0     width=35    height=121   xoffset=-3    yoffset=10    xadvance=33    page=0
char id=94   x=650   y=955   width=33    height=23    xoffset=-1    yoffset=5     xadvance=30    page=0
char id=95   x=775   y=962   width=76    height=12    xoffset=-10   yoffset=120   xadvance=56    page=0
char id=96   x=803   y=934   width=28    height=22    xoffset=-3    yoffset=4     xadvance=23    page=0
char id=97   x=657   y=839   width=58    height=58    xoffset=-2    yoffset=52    xadvance=54    page=0
char id=98   x=239   y=448   width=54    height=87    xoffset=-1    yoffset=23    xadvance=54    page=0
char id=99   x=0     y=945   width=49    height=57    xoffset=-2    yoffset=53    xadvance=45    page=0
char id=100  x=181   y=448   width=57    height=87    xoffset=-1    yoffset=23    xadvance=54    page=0
char id=101  x=100   y=937   width=48    height=57    xoffset=-2    yoffset=53    xadvance=44    page=0
char id=102  x=294   y=436   width=44    height=87    xoffset=-1    yoffset=23    xadvance=36    page=0
char id=103  x=646   y=322   width=61    height=97    xoffset=-4    yoffset=31    xadvance=56    page=0
char id=104  x=484   y=429   width=54    height=86    xoffset=-1    yoffset=24    xadvance=52    page=0
char id=105  x=368   y=786   width=27    height=81    xoffset=-2    yoffset=29    xadvance=24    page=0
char id=106  x=475   y=327   width=29    height=101   xoffset=-5    yoffset=29    xadvance=25    page=0
char id=107  x=122   y=449   width=58    height=87    xoffset=0     yoffset=23    xadvance=53    page=0
char id=108  x=647   y=420   width=27    height=85    xoffset=-1    yoffset=25    xadvance=24    page=0
char id=109  x=400   y=855   width=88    height=58    xoffset=-1    yoffset=52    xadvance=85    page=0
char id=110  x=716   y=837   width=57    height=58    xoffset=-1    yoffset=52    xadvance=54    page=0
char id=111  x=832   y=832   width=51    height=58    xoffset=-1    yoffset=52    xadvance=48    page=0
char id=112  x=116   y=789   width=54    height=81    xoffset=-1    yoffset=53    xadvance=52    page=0
char id=113  x=880   y=213   width=60    height=102   xoffset=0     yoffset=29    xadvance=57    page=0
char id=114  x=149   y=937   width=47    height=57    xoffset=-1    yoffset=52    xadvance=40    page=0
char id=115  x=884   y=821   width=48    height=58    xoffset=-1    yoffset=52    xadvance=45    page=0
char id=116  x=324   y=786   width=43    height=81    xoffset=-3    yoffset=29    xadvance=39    page=0
char id=117  x=774   y=833   width=57    height=58    xoffset=-1    yoffset=52    xadvance=54    page=0
char id=118  x=337   y=868   width=62    height=59    xoffset=-4    yoffset=51    xadvance=56    page=0
char id=119  x=250   y=869   width=86    height=60    xoffset=-2    yoffset=50    xadvance=83    page=0
char id=120  x=960   y=818   width=60    height=57    xoffset=-1    yoffset=53    xadvance=58    page=0
char id=121  x=523   y=773   width=53    height=79    xoffset=-5    yoffset=52    xadvance=49    page=0
char id=122  x=50    y=945   width=49    height=57    xoffset=-2    yoffset=53    xadvance=45    page=0
char id=123  x=226   y=0     width=26    height=122   xoffset=-2    yoffset=9     xadvance=21    page=0
char id=124  x=0     y=0     width=27    height=134   xoffset=-4    yoffset=-1    xadvance=20    page=0
char id=125  x=199   y=0     width=26    height=122   xoffset=-2    yoffset=9     xadvance=23    page=0
char id=126  x=832   y=934   width=54    height=19    xoffset=2     yoffset=34    xadvance=58    page=0
char id=161  x=997   y=213   width=23    height=96    xoffset=1     yoffset=21    xadvance=26    page=0
char id=162  x=515   y=0     width=48    height=112   xoffset=1     yoffset=22    xadvance=50    page=0
char id=163  x=187   y=621   width=58    height=82    xoffset=-1    yoffset=28    xadvance=56    page=0
char id=165  x=0     y=450   width=58    height=88    xoffset=-1    yoffset=22    xadvance=56    page=0
char id=166  x=28    y=0     width=27    height=134   xoffset=-5    yoffset=-1    xadvance=19    page=0
char id=168  x=608   y=956   width=41    height=23    xoffset=1     yoffset=5     xadvance=41    page=0
char id=169  x=603   y=912   width=43    height=43    xoffset=0     yoffset=24    xadvance=43    page=0
char id=170  x=389   y=928   width=46    height=48    xoffset=0     yoffset=18    xadvance=46    page=0
char id=171  x=104   y=871   width=41    height=65    xoffset=-3    yoffset=44    xadvance=37    page=0
char id=173  x=675   y=979   width=49    height=15    xoffset=1     yoffset=62    xadvance=50    page=0
char id=174  x=647   y=912   width=43    height=42    xoffset=-1    yoffset=24    xadvance=41    page=0
char id=175  x=595   y=983   width=79    height=15    xoffset=-3    yoffset=5     xadvance=76    page=0
char id=176  x=691   y=898   width=35    height=42    xoffset=0     yoffset=25    xadvance=35    page=0
char id=177  x=172   y=870   width=51    height=64    xoffset=0     yoffset=32    xadvance=52    page=0
char id=178  x=727   y=896   width=32    height=42    xoffset=-2    yoffset=25    xadvance=28    page=0
char id=179  x=358   y=928   width=30    height=51    xoffset=-2    yoffset=25    xadvance=25    page=0
char id=180  x=488   y=961   width=25    height=27    xoffset=0     yoffset=2     xadvance=24    page=0
char id=182  x=432   y=0     width=82    height=112   xoffset=-2    yoffset=21    xadvance=79    page=0
char id=183  x=1000  y=573   width=23    height=23    xoffset=2     yoffset=54    xadvance=27    page=0
char id=184  x=1000  y=310   width=21    height=28    xoffset=-1    yoffset=104   xadvance=19    page=0
char id=185  x=760   y=896   width=25    height=42    xoffset=-2    yoffset=25    xadvance=21    page=0
char id=186  x=436   y=914   width=41    height=47    xoffset=-1    yoffset=18    xadvance=39    page=0
char id=187  x=62    y=871   width=41    height=65    xoffset=-3    yoffset=44    xadvance=37    page=0
char id=188  x=505   y=327   width=60    height=100   xoffset=-2    yoffset=20    xadvance=57    page=0
char id=189  x=244   y=334   width=58    height=101   xoffset=-2    yoffset=19    xadvance=55    page=0
char id=190  x=100   y=347   width=73    height=101   xoffset=-1    yoffset=19    xadvance=71    page=0
char id=191  x=427   y=429   width=56    height=86    xoffset=-1    yoffset=25    xadvance=51    page=0
char id=192  x=173   y=123   width=71    height=105   xoffset=-2    yoffset=5     xadvance=68    page=0
char id=193  x=245   y=123   width=71    height=105   xoffset=-2    yoffset=5     xadvance=68    page=0
char id=194  x=730   y=0     width=70    height=106   xoffset=-1    yoffset=4     xadvance=68    page=0
char id=195  x=691   y=216   width=71    height=103   xoffset=-2    yoffset=7     xadvance=68    page=0
char id=196  x=131   y=241   width=71    height=104   xoffset=-1    yoffset=6     xadvance=68    page=0
char id=197  x=317   y=122   width=70    height=105   xoffset=-1    yoffset=5     xadvance=67    page=0
char id=198  x=732   y=412   width=107   height=83    xoffset=-1    yoffset=27    xadvance=106   page=0
char id=199  x=507   y=219   width=55    height=104   xoffset=-1    yoffset=28    xadvance=52    page=0
char id=200  x=0     y=135   width=57    height=106   xoffset=-1    yoffset=4     xadvance=54    page=0
char id=201  x=58    y=134   width=57    height=106   xoffset=-1    yoffset=4     xadvance=54    page=0
char id=202  x=933   y=107   width=57    height=105   xoffset=-1    yoffset=5     xadvance=55    page=0
char id=203  x=875   y=107   width=57    height=105   xoffset=-1    yoffset=5     xadvance=55    page=0
char id=204  x=991   y=107   width=29    height=105   xoffset=-1    yoffset=5     xadvance=25    page=0
char id=205  x=982   y=0     width=28    height=106   xoffset=-1    yoffset=4     xadvance=26    page=0
char id=206  x=97    y=241   width=33    height=105   xoffset=-3    yoffset=5     xadvance=28    page=0
char id=207  x=55    y=242   width=41    height=105   xoffset=-8    yoffset=5     xadvance=25    page=0
char id=208  x=0     y=539   width=70    height=83    xoffset=-10   yoffset=27    xadvance=58    page=0
char id=209  x=815   y=213   width=64    height=102   xoffset=-2    yoffset=7     xadvance=62    page=0
char id=210  x=816   y=107   width=58    height=105   xoffset=-2    yoffset=5     xadvance=55    page=0
char id=211  x=923   y=0     width=58    height=106   xoffset=-2    yoffset=4     xadvance=55    page=0
char id=212  x=332   y=228   width=58    height=104   xoffset=-2    yoffset=6     xadvance=55    page=0
char id=213  x=391   y=222   width=58    height=104   xoffset=-2    yoffset=6     xadvance=54    page=0
char id=214  x=757   y=107   width=58    height=105   xoffset=-1    yoffset=5     xadvance=55    page=0
char id=215  x=557   y=912   width=45    height=44    xoffset=1     yoffset=47    xadvance=45    page=0
char id=216  x=566   y=324   width=79    height=98    xoffset=-9    yoffset=24    xadvance=56    page=0
char id=217  x=575   y=112   width=61    height=105   xoffset=-2    yoffset=5     xadvance=57    page=0
char id=218  x=801   y=0     width=61    height=106   xoffset=0     yoffset=4     xadvance=58    page=0
char id=219  x=451   y=113   width=61    height=105   xoffset=-2    yoffset=5     xadvance=57    page=0
char id=220  x=513   y=113   width=61    height=105   xoffset=-1    yoffset=5     xadvance=57    page=0
char id=221  x=863   y=0     width=59    height=106   xoffset=-3    yoffset=4     xadvance=55    page=0
char id=222  x=388   y=116   width=62    height=105   xoffset=-1    yoffset=17    xadvance=61    page=0
char id=223  x=697   y=109   width=59    height=105   xoffset=-3    yoffset=27    xadvance=55    page=0
char id=224  x=423   y=607   width=58    height=82    xoffset=-2    yoffset=28    xadvance=55    page=0
char id=225  x=196   y=536   width=58    height=83    xoffset=-1    yoffset=27    xadvance=55    page=0
char id=226  x=364   y=608   width=58    height=82    xoffset=-2    yoffset=28    xadvance=54    page=0
char id=227  x=735   y=755   width=58    height=77    xoffset=-1    yoffset=33    xadvance=55    page=0
char id=228  x=246   y=620   width=58    height=82    xoffset=-2    yoffset=28    xadvance=54    page=0
char id=229  x=305   y=620   width=58    height=82    xoffset=-2    yoffset=28    xadvance=54    page=0
char id=230  x=489   y=853   width=85    height=58    xoffset=-1    yoffset=52    xadvance=83    page=0
char id=231  x=577   y=766   width=49    height=79    xoffset=-2    yoffset=53    xadvance=45    page=0
char id=232  x=526   y=683   width=48    height=82    xoffset=-2    yoffset=28    xadvance=44    page=0
char id=233  x=638   y=509   width=48    height=83    xoffset=-2    yoffset=27    xadvance=44    page=0
char id=234  x=575   y=683   width=48    height=82    xoffset=-2    yoffset=28    xadvance=44    page=0
char id=235  x=477   y=690   width=48    height=82    xoffset=-2    yoffset=28    xadvance=45    page=0
char id=236  x=661   y=676   width=28    height=82    xoffset=-3    yoffset=28    xadvance=25    page=0
char id=237  x=687   y=505   width=28    height=83    xoffset=-3    yoffset=27    xadvance=25    page=0
char id=238  x=988   y=490   width=32    height=82    xoffset=-3    yoffset=28    xadvance=25    page=0
char id=239  x=624   y=676   width=36    height=82    xoffset=-4    yoffset=28    xadvance=29    page=0
char id=240  x=731   y=320   width=75    height=91    xoffset=-1    yoffset=19    xadvance=61    page=0
char id=241  x=676   y=759   width=58    height=77    xoffset=-1    yoffset=33    xadvance=55    page=0
char id=242  x=376   y=691   width=50    height=82    xoffset=-1    yoffset=28    xadvance=48    page=0
char id=243  x=483   y=516   width=51    height=83    xoffset=-1    yoffset=27    xadvance=48    page=0
char id=244  x=272   y=703   width=51    height=82    xoffset=-1    yoffset=28    xadvance=48    page=0
char id=245  x=794   y=754   width=51    height=77    xoffset=-1    yoffset=33    xadvance=48    page=0
char id=246  x=324   y=703   width=51    height=82    xoffset=-1    yoffset=28    xadvance=48    page=0
char id=247  x=478   y=914   width=51    height=46    xoffset=0     yoffset=46    xadvance=53    page=0
char id=248  x=880   y=316   width=60    height=89    xoffset=-3    yoffset=35    xadvance=49    page=0
char id=249  x=830   y=579   width=56    height=82    xoffset=-4    yoffset=28    xadvance=48    page=0
char id=250  x=255   y=536   width=57    height=83    xoffset=-4    yoffset=27    xadvance=48    page=0
char id=251  x=541   y=600   width=57    height=82    xoffset=-4    yoffset=28    xadvance=48    page=0
char id=252  x=599   y=593   width=57    height=82    xoffset=-4    yoffset=28    xadvance=47    page=0
char id=253  x=563   y=219   width=51    height=104   xoffset=-4    yoffset=27    xadvance=46    page=0
char id=254  x=564   y=0     width=53    height=111   xoffset=-1    yoffset=23    xadvance=53    page=0
char id=255  x=763   y=213   width=51    height=103   xoffset=-4    yoffset=28    xadvance=46    page=0
char id=260  x=615   y=218   width=75    height=103   xoffset=-2    yoffset=27    xadvance=67    page=0
char id=261  x=846   y=744   width=61    height=76    xoffset=-1    yoffset=52    xadvance=55    page=0
char id=262  x=116   y=134   width=56    height=106   xoffset=-1    yoffset=4     xadvance=53    page=0
char id=263  x=627   y=759   width=48    height=79    xoffset=-2    yoffset=31    xadvance=45    page=0
char id=280  x=303   y=334   width=57    height=101   xoffset=-1    yoffset=27    xadvance=55    page=0
char id=281  x=957   y=741   width=48    height=76    xoffset=-1    yoffset=53    xadvance=44    page=0
char id=305  x=933   y=818   width=26    height=58    xoffset=0     yoffset=52    xadvance=24    page=0
char id=310  x=268   y=229   width=63    height=104   xoffset=-2    yoffset=28    xadvance=57    page=0
char id=311  x=618   y=0     width=57    height=109   xoffset=0     yoffset=23    xadvance=51    page=0
char id=321  x=482   y=600   width=58    height=82    xoffset=-1    yoffset=28    xadvance=53    page=0
char id=322  x=539   y=428   width=44    height=86    xoffset=-5    yoffset=24    xadvance=36    page=0
char id=323  x=203   y=229   width=64    height=104   xoffset=-2    yoffset=5     xadvance=61    page=0
char id=324  x=371   y=523   width=57    height=83    xoffset=-1    yoffset=27    xadvance=55    page=0
char id=338  x=840   y=409   width=98    height=83    xoffset=-1    yoffset=27    xadvance=96    page=0
char id=339  x=575   y=853   width=81    height=58    xoffset=-1    yoffset=52    xadvance=78    page=0
char id=346  x=0     y=242   width=54    height=105   xoffset=-1    yoffset=4     xadvance=52    page=0
char id=347  x=275   y=786   width=48    height=81    xoffset=-1    yoffset=29    xadvance=45    page=0
char id=352  x=941   y=213   width=55    height=102   xoffset=-1    yoffset=7     xadvance=51    page=0
char id=353  x=226   y=787   width=48    height=81    xoffset=-1    yoffset=29    xadvance=45    page=0
char id=376  x=637   y=110   width=59    height=105   xoffset=-3    yoffset=5     xadvance=54    page=0
char id=377  x=450   y=222   width=56    height=104   xoffset=-2    yoffset=5     xadvance=54    page=0
char id=378  x=427   y=690   width=49    height=82    xoffset=-2    yoffset=28    xadvance=46    page=0
char id=379  x=361   y=333   width=56    height=101   xoffset=-2    yoffset=8     xadvance=52    page=0
char id=380  x=908   y=741   width=48    height=76    xoffset=-2    yoffset=34    xadvance=45    page=0
char id=381  x=418   y=327   width=56    height=101   xoffset=-2    yoffset=8     xadvance=52    page=0
char id=382  x=396   y=774   width=49    height=80    xoffset=-2    yoffset=30    xadvance=45    page=0
char id=710  x=769   y=939   width=33    height=22    xoffset=-1    yoffset=5     xadvance=30    page=0
char id=711  x=735   y=939   width=33    height=22    xoffset=-1    yoffset=38    xadvance=30    page=0
char id=729  x=1000  y=597   width=22    height=23    xoffset=-1    yoffset=3     xadvance=20    page=0
char id=730  x=514   y=961   width=27    height=24    xoffset=-1    yoffset=1     xadvance=25    page=0
char id=731  x=684   y=955   width=25    height=23    xoffset=-1    yoffset=105   xadvance=24    page=0
char id=732  x=887   y=929   width=35    height=19    xoffset=-1    yoffset=6     xadvance=33    page=0
char id=8208 x=495   y=989   width=49    height=16    xoffset=0     yoffset=62    xadvance=49    page=0
char id=8211 x=437   y=991   width=57    height=16    xoffset=-1    yoffset=61    xadvance=55    page=0
char id=8212 x=923   y=914   width=86    height=16    xoffset=-1    yoffset=62    xadvance=84    page=0
char id=8216 x=411   y=977   width=25    height=32    xoffset=-2    yoffset=25    xadvance=21    page=0
char id=8217 x=385   y=980   width=25    height=32    xoffset=-2    yoffset=25    xadvance=21    page=0
char id=8220 x=289   y=982   width=43    height=32    xoffset=-2    yoffset=25    xadvance=38    page=0
char id=8221 x=963   y=876   width=42    height=33    xoffset=-2    yoffset=25    xadvance=38    page=0
char id=8224 x=676   y=0     width=53    height=108   xoffset=-2    yoffset=24    xadvance=49    page=0
char id=8225 x=117   y=0     width=52    height=133   xoffset=-2    yoffset=0     xadvance=49    page=0
char id=8226 x=258   y=987   width=30    height=33    xoffset=-3    yoffset=62    xadvance=24    page=0
char id=8230 x=542   y=959   width=65    height=23    xoffset=-2    yoffset=88    xadvance=61    page=0
char id=8240 x=0     y=348   width=99    height=101   xoffset=2     yoffset=19    xadvance=101   page=0
char id=8249 x=224   y=870   width=25    height=64    xoffset=-2    yoffset=45    xadvance=21    page=0
char id=8250 x=146   y=871   width=25    height=65    xoffset=-3    yoffset=44    xadvance=24    page=0
char id=8364 x=858   y=493   width=66    height=82    xoffset=-2    yoffset=28    xadvance=63    page=0
char id=8482 x=786   y=892   width=73    height=41    xoffset=-1    yoffset=25    xadvance=70    page=0
char id=8722 x=725   y=965   width=49    height=15    xoffset=1     yoffset=62    xadvance=50    page=0
char id=8776 x=860   y=891   width=57    height=37    xoffset=0     yoffset=51    xadvance=58    page=0
kernings count=4
kerning first=80  second=97  amount=-3  
kerning first=80  second=101 amount=-4  
kerning first=80  second=111 amount=-3  
kerning first=84  second=104 amount=8   
