strategic_region = {
	id = 142
	name = "REGION_142" #Haafingar
	provinces = {
		157 179 355 393 444 532 621 642 874 968 1011 1162 1325 1349 1572 1586 1672 1993 2515 2556 2707 2729 2756 2965 2987 3060 3075 3079 3109 3204 3309 3318 3660 3675 3684 3944 4047 4113 4277 4476 4527 4559 4585 4660 4816 4875 5077 5130 5241 5344 5371 5396 5401 5728 5774 5951 6016 6148 6303 6315 6372 6529 6587 6693 6799 6806 6838 6896 6921 6940 6946 6947 6948 6949 6954 6960 6966 6970 6973 6980 6984 6991 7010 7017 7019 7026 7077 7094 9669 9670 9671 9672 9673 9674 9676 9677 9679 9681 9682 9683 9684 9686 9687 9688 9689 9690 9691 9693 9694 9695 9700 9701 9702 9704 9705 9706 9707 9708 9712 9713 9716 9717 9718 9720 9723 9724 9726 9732 9735 9740 9741 9742 9743 9747 9748 9750 9751 9752 9759 9762 9764 9778 9779 9783 9784 9802 9816 9832 9834 9851 9860 9861 9862 9863 9865 9866 9867 9868 9872 9876 9881 9911 9920 9938 10005 10012 10016 10022 
	}
	weather = {
		period={
			between={ 0.0 30.0 }
			temperature={ -15.0 -6.0 }
			temperature_day_night={ 12.0 -12.0 }
			no_phenomenon=0.600
			rain_light=0.050
			rain_heavy=0.010
			snow=0.280
			blizzard=0.100
			arctic_water=0.000
			mud=0.300
			sandstorm=0.000
			min_snow_level=0.100
		}
		period={
			between={ 0.1 27.1 }
			temperature={ -20.0 -6.0 }
			temperature_day_night={ 12.0 -12.0 }
			no_phenomenon=0.650
			rain_light=0.020
			rain_heavy=0.010
			snow=0.250
			blizzard=0.120
			arctic_water=0.000
			mud=0.300
			sandstorm=0.000
			min_snow_level=0.100
		}
		period={
			between={ 0.2 30.2 }
			temperature={ -15.0 -2.0 }
			temperature_day_night={ 10.0 -10.0 }
			no_phenomenon=0.700
			rain_light=0.080
			rain_heavy=0.020
			snow=0.150
			blizzard=0.050
			arctic_water=0.000
			mud=0.300
			sandstorm=0.000
			min_snow_level=0.050
		}
		period={
			between={ 0.3 29.3 }
			temperature={ -5.0 10.0 }
			temperature_day_night={ 10.0 -10.0 }
			no_phenomenon=0.750
			rain_light=0.120
			rain_heavy=0.060
			snow=0.030
			blizzard=0.000
			arctic_water=0.000
			mud=0.300
			sandstorm=0.000
			min_snow_level=0.000
		}
		period={
			between={ 0.4 30.4 }
			temperature={ 4.0 15.0 }
			temperature_day_night={ 10.0 -10.0 }
			no_phenomenon=0.800
			rain_light=0.150
			rain_heavy=0.050
			snow=0.000
			blizzard=0.000
			arctic_water=0.000
			mud=0.300
			sandstorm=0.000
			min_snow_level=0.000
		}
		period={
			between={ 0.5 29.5 }
			temperature={ 11.0 22.0 }
			temperature_day_night={ 10.0 -10.0 }
			no_phenomenon=0.800
			rain_light=0.150
			rain_heavy=0.050
			snow=0.000
			blizzard=0.000
			arctic_water=0.000
			mud=0.300
			sandstorm=0.000
			min_snow_level=0.000
		}
		period={
			between={ 0.6 30.6 }
			temperature={ 15.0 26.0 }
			temperature_day_night={ 10.0 -10.0 }
			no_phenomenon=0.750
			rain_light=0.150
			rain_heavy=0.050
			snow=0.000
			blizzard=0.000
			arctic_water=0.000
			mud=0.300
			sandstorm=0.000
			min_snow_level=0.000
		}
		period={
			between={ 0.7 30.7 }
			temperature={ 13.0 23.0 }
			temperature_day_night={ 10.0 -10.0 }
			no_phenomenon=0.700
			rain_light=0.200
			rain_heavy=0.050
			snow=0.000
			blizzard=0.000
			arctic_water=0.000
			mud=0.300
			sandstorm=0.000
			min_snow_level=0.000
		}
		period={
			between={ 0.8 29.8 }
			temperature={ 7.0 16.0 }
			temperature_day_night={ 10.0 -10.0 }
			no_phenomenon=0.700
			rain_light=0.250
			rain_heavy=0.070
			snow=0.000
			blizzard=0.000
			arctic_water=0.000
			mud=0.300
			sandstorm=0.000
			min_snow_level=0.000
		}
		period={
			between={ 0.9 30.9 }
			temperature={ 3.0 8.0 }
			temperature_day_night={ 10.0 -10.0 }
			no_phenomenon=0.650
			rain_light=0.200
			rain_heavy=0.050
			snow=0.050
			blizzard=0.000
			arctic_water=0.000
			mud=0.300
			sandstorm=0.000
			min_snow_level=0.000
		}
		period={
			between={ 0.10 29.10 }
			temperature={ -14.0 1.0 }
			temperature_day_night={ 10.0 -10.0 }
			no_phenomenon=0.400
			rain_light=0.080
			rain_heavy=0.050
			snow=0.400
			blizzard=0.050
			arctic_water=0.000
			mud=0.300
			sandstorm=0.000
			min_snow_level=0.000
		}
		period={
			between={ 0.11 30.11 }
			temperature={ -18.0 -5.0 }
			temperature_day_night={ 10.0 -10.0 }
			no_phenomenon=0.500
			rain_light=0.050
			rain_heavy=0.050
			snow=0.400
			blizzard=0.050
			arctic_water=0.000
			mud=0.300
			sandstorm=0.000
			min_snow_level=0.050
		}
		period={
			between={ 4.11 21.11 }
			temperature={ -10.0 35.0 }
			temperature_day_night={ 2.0 -2.0 }
			no_phenomenon=1.500
			rain_light=0.250
			rain_heavy=0.100
			snow=0.000
			blizzard=0.000
			arctic_water=0.000
			mud=0.000
			sandstorm=0.000
			min_snow_level=0.000
		}
	}
}