strategic_region = {
	id = 150
	name = "REGION_150" #Upper Yorgrim
	provinces = {
		70 86 280 283 593 678 786 946 1019 1371 1390 1454 1657 1844 2654 2723 2983 3489 4279 4457 4779 5391 5828 5958 6113 6232 6560 6721 6795 6859 6873 7119 7120 7125 7142 7145 7146 7148 7153 7168 7185 7207 7211 9858 10049 10051 10055 10056 10062 10858 10893 10929 10934 10967 10978 10985 10994 11045 11066 11087 11101 11104 11112 11147 11153 11179 11227 11233 11239 11295 11351 14559 14563 
	}
	weather = {
		period={
			between={ 0.0 30.0 }
			temperature={ -12.0 5.0 }
			temperature_day_night={ 6.0 -7.0 }
			no_phenomenon=0.500
			rain_light=0.100
			rain_heavy=0.020
			snow=0.200
			blizzard=0.120
			arctic_water=0.000
			mud=0.600
			sandstorm=0.000
			min_snow_level=0.000
		}
		period={
			between={ 0.1 27.1 }
			temperature={ -14.0 3.0 }
			temperature_day_night={ 6.0 -7.0 }
			no_phenomenon=0.450
			rain_light=0.100
			rain_heavy=0.020
			snow=0.200
			blizzard=0.050
			arctic_water=0.000
			mud=0.600
			sandstorm=0.000
			min_snow_level=0.000
		}
		period={
			between={ 0.2 30.2 }
			temperature={ -5.0 8.0 }
			temperature_day_night={ 5.0 -5.0 }
			no_phenomenon=0.450
			rain_light=0.200
			rain_heavy=0.050
			snow=0.200
			blizzard=0.000
			arctic_water=0.000
			mud=0.600
			sandstorm=0.000
			min_snow_level=0.000
		}
		period={
			between={ 0.3 29.3 }
			temperature={ 0.0 13.0 }
			temperature_day_night={ 6.0 -6.0 }
			no_phenomenon=0.520
			rain_light=0.300
			rain_heavy=0.100
			snow=0.000
			blizzard=0.000
			arctic_water=0.000
			mud=0.600
			sandstorm=0.000
			min_snow_level=0.000
		}
		period={
			between={ 0.4 30.4 }
			temperature={ 5.0 19.0 }
			temperature_day_night={ 7.0 -7.0 }
			no_phenomenon=0.500
			rain_light=0.300
			rain_heavy=0.100
			snow=0.000
			blizzard=0.000
			arctic_water=0.000
			mud=0.600
			sandstorm=0.000
			min_snow_level=0.000
		}
		period={
			between={ 0.5 29.5 }
			temperature={ 8.0 22.0 }
			temperature_day_night={ 6.0 -6.0 }
			no_phenomenon=0.480
			rain_light=0.300
			rain_heavy=0.100
			snow=0.000
			blizzard=0.000
			arctic_water=0.000
			mud=0.600
			sandstorm=0.000
			min_snow_level=0.000
		}
		period={
			between={ 0.6 30.6 }
			temperature={ 14.0 24.0 }
			temperature_day_night={ 7.0 -7.0 }
			no_phenomenon=0.480
			rain_light=0.300
			rain_heavy=0.100
			snow=0.000
			blizzard=0.000
			arctic_water=0.000
			mud=0.600
			sandstorm=0.000
			min_snow_level=0.000
		}
		period={
			between={ 0.7 30.7 }
			temperature={ 10.0 24.0 }
			temperature_day_night={ 7.0 -7.0 }
			no_phenomenon=0.470
			rain_light=0.300
			rain_heavy=0.100
			snow=0.000
			blizzard=0.000
			arctic_water=0.000
			mud=0.600
			sandstorm=0.000
			min_snow_level=0.000
		}
		period={
			between={ 0.8 29.8 }
			temperature={ 5.0 19.0 }
			temperature_day_night={ 6.0 -6.0 }
			no_phenomenon=0.470
			rain_light=0.350
			rain_heavy=0.150
			snow=0.000
			blizzard=0.000
			arctic_water=0.000
			mud=0.600
			sandstorm=0.000
			min_snow_level=0.000
		}
		period={
			between={ 0.9 30.9 }
			temperature={ 2.0 13.0 }
			temperature_day_night={ 5.0 -5.0 }
			no_phenomenon=0.450
			rain_light=0.400
			rain_heavy=0.150
			snow=0.050
			blizzard=0.000
			arctic_water=0.000
			mud=0.600
			sandstorm=0.000
			min_snow_level=0.000
		}
		period={
			between={ 0.10 29.10 }
			temperature={ -5.0 7.0 }
			temperature_day_night={ 5.0 -5.0 }
			no_phenomenon=0.350
			rain_light=0.200
			rain_heavy=0.050
			snow=0.200
			blizzard=0.000
			arctic_water=0.000
			mud=0.600
			sandstorm=0.000
			min_snow_level=0.000
		}
		period={
			between={ 0.11 30.11 }
			temperature={ -10.0 7.0 }
			temperature_day_night={ 5.0 -5.0 }
			no_phenomenon=0.350
			rain_light=0.150
			rain_heavy=0.040
			snow=0.100
			blizzard=0.120
			arctic_water=0.000
			mud=0.600
			sandstorm=0.000
			min_snow_level=0.000
		}
		period={
			between={ 4.11 21.11 }
			temperature={ -10.0 35.0 }
			temperature_day_night={ 2.0 -2.0 }
			no_phenomenon=1.500
			rain_light=0.250
			rain_heavy=0.100
			snow=0.000
			blizzard=0.000
			arctic_water=0.000
			mud=0.000
			sandstorm=0.000
			min_snow_level=0.000
		}
	}
}