strategic_region = {
	id=2
	name = "REGION_2" #Padomaic Ocean
	provinces = {
		12075 12076 12077 12083 12089 12091 12092 12093 12099 12103 12104 12105 12112 12113 12115 12116 12117 12120 12121 12122 12127 12134 12135 12136 12139 12143 12145 12149 12150 12151 12152 12153 12155 12157 12158 12163 12169 12170 12171 12172 12174 12175 12176 12178 12181 12183 12185 12186 12187 12192 12195 12198 12199 12201 12202 12204 12210 12212 12215 12219 12222 12223 12226 12228 12230 12232 12233 12238 12239 12242 12243 12244 12245 12249 12255 12257 12258 12263 12264 12266 12269 12271 12272 12278 12279 12280 12283 12284 12285 12287 12288 12295 12296 12297 12298 12312 12314 12315 12317 12320 12322 12323 12324 12326 12329 12332 12340 12341 12343 12346 12349 12351 12354 12358 12359 12361 12363 12364 12366 12368 12373 12374 12375 12378 12382 12383 12384 12386 12387 12388 12390 12392 12403 12404 12407 12410 12412 12414 12415 12423 12424 12425 12431 12443 12446 12452 12456 12458 12459 12460 12466 12467 12468 12472 12476 12478 12485 12490 12493 12494 12495 12496 12498 12499 12501 12504 12513 12518 12528 12534 12536 12542 12544 12551 12552 12554 12555 12556 12562 12564 12565 12567 12568 12570 12573 12575 12576 12580 12585 12587 12596 12602 12605 12608 12613 12622 12623 12625 12629 12634 12636 12637 12643 12646 12647 12651 12653 12654 12657 12658 12659 12668 12670 12671 12672 12674 12675 12679 12681 12682 12688 12689 12692 12696 12704 12705 12706 12712 12715 12716 12718 12719 12723 12728 12735 12737 12738 12741 12746 12747 12748 12757 12760 12766 12771 12772 12775 12776 12777 12779 12781 12782 12784 12785 12787 12790 12794 12795 12796 12800 12804 12805 12811 12813 12815 12818 12820 12821 12824 12825 12829 12830 12831 12832 12837 12840 12843 12844 12845 12846 12848 12859 12864 12869 12877 12889 12892 12893 12897 12899 12902 12904 12909 12911 12915 12917 12921 12922 12927 12928 12929 12930 12934 12935 12941 12945 12950 12951 12952 12953 12955 12956 12960 12961 12965 12971 12972 12976 12978 12979 12985 12992 12993 12994 12995 12996 12998 13001 13004 13008 13009 13010 13011 13015 13016 13017 13021 13024 13029 13033 13034 13038 13040 13041 13042 13044 13045 13049 13053 13054 13056 13057 13058 13061 13063 13064 13065 13066 13069 13082 13083 13086 13089 13092 13094 13096 13097 13102 13106 13108 13109 13111 13120 13122 13126 13132 13136 13139 13147 13152 13155 13159 13160 13179 13182 13184 13187 13189 13191 13192 13193 13195 13198 13200 13201 13205 13207 13208 13209 13212 13217 13220 13221 13225 13226 13228 13235 13237 13243 13244 13246 13247 13248 13255 13256 13258 13261 13268 13269 13271 13272 13274 13275 13276 13282 13283 13287 13289 13295 13310 13316 13317 13319 13322 13325 13328 13330 13334 13335 13336 13340 13342 13348 13353 13361 13369 13375 13376 13377 13384 13387 13388 13389 13396 13397 13399 13400 13401 13402 13405 13408 13411 13422 13424 13427 13429 13432 13433 13434 13435 13443 13445 13452 13453 13459 13462 13463 13479 13482 13487 13490 13491 13495 13496 13500 13501 13505 13506 13507 13508 13512 13514 13515 13519 13520 13521 13523 13524 13526 13536 13548 13552 13554 13555 13556 13570 13572 13579 13581 13584 13590 13594 13597 13598 13600 13608 13609 13611 13614 13616 13618 13621 13624 13634 13639 13642 13647 13649 13659 13664 13666 13669 13676 13678 13679 13681 13684 13689 13690 13694 13698 13699 13702 13705 13708 13710 13712 13717 13718 13731 13733 13744 13745 13749 13750 13753 13755 13756 13767 13772 13773 13776 13778 13781 13784 13791 13795 13797 13798 13810 13814 13816 13821 13823 13825 13828 13833 13837 13844 13851 13852 13863 13869 13870 13875 13878 13879 13884 13885 13886 13890 13891 13893 13916 13917 13918 13919 13920 13921 13924 13928 13931 13936 13943 13944 13946 13954 13956 13962 13966 13968 13972 13973 13976 13980 13983 13985 13990 13997 13998 14005 14013 14021 14023 14030 14035 14037 14040 14046 14047 14052 14058 14060 14068 14072 14083 14088 14089 14092 14096 14098 14106 14108 14112 14115 14116 14118 14124 14125 14127 14129 14137 14138 14140 14145 14147 14150 14151 14152 14154 14159 14164 14170 14172 14184 14188 14190 14191 14194 14197 14198 14199 14200 14205 14207 14209 14215 14217 14225 14228 14233 14243 14244 14245 14246 14247 14248 14249 14251 14252 14255 14275 14277 14279 14280 14284 14287 14297 14301 14309 14314 14316 14317 14318 14319 14321 14322 14329 14330 14331 14334 14338 14339 14340 14344 14346 14347 14350 14351 14355 14357 14359 14364 14365 14367 14369 14372 14373 14377 14378 14382 14385 14386 14387 14391 14394 14401 14406 14413 14420 14425 14428 14429 14431 14432 14433 14435 14436 14438 14439 14447 14449 14452 14453 14455 14463 14466 14470 14471 14476 14480 14481 14486 14489 14490 14492 14500 14504 14507 14510 14515 14519 14521 14522 
	}
	
	naval_terrain = water_shallow_sea
	weather = {
		period = {
			between = { 0.0 30.11 }
			temperature = { 5.0 15.0 }
			temperature_day_night = { -2.0 2.0 }
			no_phenomenon = 1.0
		}
	}
}
