
defined_text = {
	name = GetRulerTitle
	text = {
		trigger = {
			AND = {
				has_idea = government_title_empire
				NOT = { check_variable = { ruler_sex = 2 } }
			}
		}
		localization_key = ruler_title_emperor
	}
	text = {
		trigger = {
			AND = {
				has_idea = government_title_empire
				check_variable = { ruler_sex = 2 }
			}
		}
		localization_key = ruler_title_empress
	}
	text = {
		trigger = {
			AND = {
				has_idea = government_title_high_kingdom
				NOT = { check_variable = { ruler_sex = 2 } }
			}
		}
		localization_key = ruler_title_high_king
	}
	text = {
		trigger = {
			AND = {
				has_idea = government_title_high_kingdom
				check_variable = { ruler_sex = 2 }
			}
		}
		localization_key = ruler_title_high_queen
	}
	text = {
		trigger = {
			AND = {
				has_idea = government_title_kingdom
				NOT = { check_variable = { ruler_sex = 2 } }
			}
		}
		localization_key = ruler_title_king
	}
	text = {
		trigger = {
			AND = {
				has_idea = government_title_kingdom
				check_variable = { ruler_sex = 2 }
			}
		}
		localization_key = ruler_title_queen
	}
	text = {
		trigger = {
			has_idea = government_title_jarldom
		}
		localization_key = ruler_title_jarl
	}
	text = {
		trigger = {
			AND = {
				has_idea = government_title_duchy
				NOT = { check_variable = { ruler_sex = 2 } }
			}
		}
		localization_key = ruler_title_duke
	}
	text = {
		trigger = {
			AND = {
				has_idea = government_title_duchy
				check_variable = { ruler_sex = 2 }
			}
		}
		localization_key = ruler_title_duchess
	}
	text = {
		trigger = {
			AND = {
				has_idea = government_title_march
				NOT = { check_variable = { ruler_sex = 2 } }
			}
		}
		localization_key = ruler_title_marquess
	}
	text = {
		trigger = {
			AND = {
				has_idea = government_title_march
				check_variable = { ruler_sex = 2 }
			}
		}
		localization_key = ruler_title_marchioness
	}
	text = {
		trigger = {
			AND = {
				has_idea = government_title_county
				NOT = { check_variable = { ruler_sex = 2 } }
			}
		}
		localization_key = ruler_title_count
	}
	text = {
		trigger = {
			AND = {
				has_idea = government_title_county
				check_variable = { ruler_sex = 2 }
			}
		}
		localization_key = ruler_title_countess
	}
	text = {
		trigger = {
			AND = {
				has_idea = government_title_barony
				NOT = { check_variable = { ruler_sex = 2 } }
			}
		}
		localization_key = ruler_title_baron
	}
	text = {
		trigger = {
			AND = {
				has_idea = government_title_barony
				check_variable = { ruler_sex = 2 }
			}
		}
		localization_key = ruler_title_baroness
	}
	text = {
		trigger = {
			AND = {
				OR = {
					has_idea = government_title_fiefdom
					has_idea = government_type_vampire_clan
				}
				NOT = { check_variable = { ruler_sex = 2 } }
			}
		}
		localization_key = ruler_title_lord
	}
	text = {
		trigger = {
			AND = {
				OR = {
					has_idea = government_title_fiefdom
					has_idea = government_type_vampire_clan
				}
				check_variable = { ruler_sex = 2 }
			}
		}
		localization_key = ruler_title_lady
	}
	#REPUBLIC
	text = {
		trigger = {
			always = no
		}
		localization_key = ruler_title_potentate
	}
	text = {
		trigger = {
			always = no
		}
		localization_key = ruler_title_high_chancellor
	}
	text = {
		trigger = {
			always = no
		}
		localization_key = ruler_title_chancellor
	}
	text = {
		trigger = {
			has_idea = government_type_east_empire_trading_company
		}
		localization_key = ruler_title_factor_in_chief
	}
	text = {
		trigger = {
			OR = {
				has_idea = government_category_theocracy
				AND = {
					has_idea = government_type_great_house
					NOT = { original_tag = RED }
				}
			}
		}
		localization_key = ruler_title_grandmaster
	}
	text = {
		trigger = {
			original_tag = RED
			has_idea = government_type_great_house
		}
		localization_key = ruler_title_archmaster
	}
	text = {
		trigger = {
			original_tag = TEL
			has_idea = government_type_great_house
		}
		localization_key = ruler_title_archmagister
	}
	#MAGOCRACY
	text = {
		trigger = {
			has_idea = government_category_magocracy
		}
		localization_key = ruler_title_arch_mage
	}
	#THEOCRACY
	#TRIBE
	text = {
		trigger = {
			has_idea = government_type_tribal_chiefdom
			NOT = { check_variable = { ruler_sex = 2 } }
		}
		localization_key = ruler_title_chieftan
	}
	text = {
		trigger = {
			has_idea = government_type_tribal_chiefdom
			check_variable = { ruler_sex = 2 }
		}
		localization_key = ruler_title_chieftess
	}
	text = {
		trigger = {
			has_idea = government_type_ashlander_tribe
			NOT = { check_variable = { ruler_sex = 2 } }
		}
		localization_key = ruler_title_ashkhan
	}
	text = {
		trigger = {
			has_idea = government_type_ashlander_tribe
			check_variable = { ruler_sex = 2 }
		}
		localization_key = ruler_title_wise_woman
	}
	text = {
		trigger = {
			has_idea = government_category_tribe
		}
		localization_key = ruler_title_chief
	}
	text = {
		localization_key = ruler_title_generic
	}
}

defined_text = {
	name = GetRulerTitleList
	text = {
		trigger = {
			check_variable = { ruler_titles_array^num > 0 }
			var:ruler_titles_array^0 = {
				PREV = {
					has_equal_or_greater_government_rank = yes
				}
			}
		}
		localization_key = ruler_title_list_1
	}
	text = {
		trigger = {
			OR = {
				AND = {
					check_variable = { ruler_titles_array^num > 1 }
					var:ruler_titles_array^1 = {
						PREV = {
							has_equal_or_greater_government_rank = yes
						}
					}
				}
				AND = {
					check_variable = { ruler_titles_array^num = 1 }
					var:ruler_titles_array^0 = {
						PREV = {
							has_equal_or_greater_government_rank = no
						}
					}
				}
			}
		}
		localization_key = ruler_title_list_2
	}
	text = {
		trigger = {
			OR = {
				AND = {
					check_variable = { ruler_titles_array^num > 2 }
					var:ruler_titles_array^2 = {
						PREV = {
							has_equal_or_greater_government_rank = yes
						}
					}
				}
				AND = {
					check_variable = { ruler_titles_array^num = 2 }
					var:ruler_titles_array^1 = {
						PREV = {
							has_equal_or_greater_government_rank = no
						}
					}
				}
			}
		}
		localization_key = ruler_title_list_3
	}
	text = {
		trigger = {
			OR = {
				AND = {
					check_variable = { ruler_titles_array^num > 3 }
					var:ruler_titles_array^3 = {
						PREV = {
							has_equal_or_greater_government_rank = yes
						}
					}
				}
				AND = {
					check_variable = { ruler_titles_array^num = 3 }
					var:ruler_titles_array^2 = {
						PREV = {
							has_equal_or_greater_government_rank = no
						}
					}
				}
			}
		}
		localization_key = ruler_title_list_4
	}
	text = {
		trigger = {
			OR = {
				AND = {
					check_variable = { ruler_titles_array^num > 4 }
					var:ruler_titles_array^4 = {
						PREV = {
							has_equal_or_greater_government_rank = yes
						}
					}
				}
				AND = {
					check_variable = { ruler_titles_array^num = 4 }
					var:ruler_titles_array^3 = {
						PREV = {
							has_equal_or_greater_government_rank = no
						}
					}
				}
			}
		}
		localization_key = ruler_title_list_5
	}
	text = {
		trigger = {
			OR = {
				AND = {
					check_variable = { ruler_titles_array^num > 5 }
					var:ruler_titles_array^5 = {
						PREV = {
							has_equal_or_greater_government_rank = yes
						}
					}
				}
				AND = {
					check_variable = { ruler_titles_array^num = 5 }
					var:ruler_titles_array^4 = {
						PREV = {
							has_equal_or_greater_government_rank = no
						}
					}
				}
			}
		}
		localization_key = ruler_title_list_6
	}
	text = {
		trigger = {
			OR = {
				AND = {
					check_variable = { ruler_titles_array^num > 6 }
					var:ruler_titles_array^6 = {
						PREV = {
							has_equal_or_greater_government_rank = yes
						}
					}
				}
				AND = {
					check_variable = { ruler_titles_array^num = 6 }
					var:ruler_titles_array^5 = {
						PREV = {
							has_equal_or_greater_government_rank = no
						}
					}
				}
			}
		}
		localization_key = ruler_title_list_7
	}
	text = {
		trigger = {
			OR = {
				AND = {
					check_variable = { ruler_titles_array^num > 7 }
					var:ruler_titles_array^7 = {
						PREV = {
							has_equal_or_greater_government_rank = yes
						}
					}
				}
				AND = {
					check_variable = { ruler_titles_array^num = 7 }
					var:ruler_titles_array^6 = {
						PREV = {
							has_equal_or_greater_government_rank = no
						}
					}
				}
			}
		}
		localization_key = ruler_title_list_8
	}
	text = {
		trigger = {
			OR = {
				AND = {
					check_variable = { ruler_titles_array^num > 8 }
					var:ruler_titles_array^8 = {
						PREV = {
							has_equal_or_greater_government_rank = yes
						}
					}
				}
				AND = {
					check_variable = { ruler_titles_array^num = 8 }
					var:ruler_titles_array^7 = {
						PREV = {
							has_equal_or_greater_government_rank = no
						}
					}
				}
			}
		}
		localization_key = ruler_title_list_9
	}
	text = {
		trigger = {
			check_variable = { ruler_titles_array^num > 9 }
		}
		localization_key = ruler_title_list_10
	}
	text = {
		localization_key = ruler_title_list_fallback
	}
}

defined_text = {
	name = GetRulerTitleListTitle1
	text = {
		trigger = {
			check_variable = { ruler_titles_array^num > 0 }
		}
		localization_key = ruler_title_1
	}
	text = {
		localization_key = blank
	}
}

defined_text = {
	name = GetRulerTitleListTitle1Rank
	text = {
		trigger = {
			check_variable = { ruler_titles_array^num > 0 }
			var:ruler_titles_array^0 = {
				has_idea = government_title_empire
				NOT = { check_variable = { ruler_sex = 2 } }
			}
		}
		localization_key = ruler_title_emperor
	}
	text = {
		trigger = {
			check_variable = { ruler_titles_array^num > 0 }
			var:ruler_titles_array^0 = {
				has_idea = government_title_empire
				check_variable = { ruler_sex = 2 }
			}
		}
		localization_key = ruler_title_empress
	}
	text = {
		trigger = {
			check_variable = { ruler_titles_array^num > 0 }
			var:ruler_titles_array^0 = {
				has_idea = government_title_high_kingdom
				NOT = { check_variable = { ruler_sex = 2 } }
			}
		}
		localization_key = ruler_title_high_king
	}
	text = {
		trigger = {
			check_variable = { ruler_titles_array^num > 0 }
			var:ruler_titles_array^0 = {
				has_idea = government_title_high_kingdom
				check_variable = { ruler_sex = 2 }
			}
		}
		localization_key = ruler_title_high_queen
	}
	text = {
		trigger = {
			check_variable = { ruler_titles_array^num > 0 }
			var:ruler_titles_array^0 = {
				has_idea = government_title_kingdom
				NOT = { check_variable = { ruler_sex = 2 } }
			}
		}
		localization_key = ruler_title_king
	}
	text = {
		trigger = {
			check_variable = { ruler_titles_array^num > 0 }
			var:ruler_titles_array^0 = {
				has_idea = government_title_kingdom
				check_variable = { ruler_sex = 2 }
			}
		}
		localization_key = ruler_title_queen
	}
	text = {
		trigger = {
			check_variable = { ruler_titles_array^num > 0 }
			var:ruler_titles_array^0 = {
				has_idea = government_title_jarldom
			}
		}
		localization_key = ruler_title_jarl
	}
	text = {
		trigger = {
			check_variable = { ruler_titles_array^num > 0 }
			var:ruler_titles_array^0 = {
				has_idea = government_title_duchy
				NOT = { check_variable = { ruler_sex = 2 } }
			}
		}
		localization_key = ruler_title_duke
	}
	text = {
		trigger = {
			check_variable = { ruler_titles_array^num > 0 }
			var:ruler_titles_array^0 = {
				has_idea = government_title_duchy
				check_variable = { ruler_sex = 2 }
			}
		}
		localization_key = ruler_title_duchess
	}
	text = {
		trigger = {
			check_variable = { ruler_titles_array^num > 0 }
			var:ruler_titles_array^0 = {
				has_idea = government_title_march
				NOT = { check_variable = { ruler_sex = 2 } }
			}
		}
		localization_key = ruler_title_marquess
	}
	text = {
		trigger = {
			check_variable = { ruler_titles_array^num > 0 }
			var:ruler_titles_array^0 = {
				has_idea = government_title_march
				check_variable = { ruler_sex = 2 }
			}
		}
		localization_key = ruler_title_marchioness
	}
	text = {
		trigger = {
			check_variable = { ruler_titles_array^num > 0 }
			var:ruler_titles_array^0 = {
				has_idea = government_title_county
				NOT = { check_variable = { ruler_sex = 2 } }
			}
		}
		localization_key = ruler_title_count
	}
	text = {
		trigger = {
			check_variable = { ruler_titles_array^num > 0 }
			var:ruler_titles_array^0 = {
				has_idea = government_title_county
				check_variable = { ruler_sex = 2 }
			}
		}
		localization_key = ruler_title_countess
	}
	text = {
		trigger = {
			check_variable = { ruler_titles_array^num > 0 }
			var:ruler_titles_array^0 = {
				has_idea = government_title_barony
				NOT = { check_variable = { ruler_sex = 2 } }
			}
		}
		localization_key = ruler_title_baron
	}
	text = {
		trigger = {
			check_variable = { ruler_titles_array^num > 0 }
			var:ruler_titles_array^0 = {
				has_idea = government_title_barony
				check_variable = { ruler_sex = 2 }
			}
		}
		localization_key = ruler_title_baroness
	}
	text = {
		trigger = {
			check_variable = { ruler_titles_array^num > 0 }
			var:ruler_titles_array^0 = {
				has_idea = government_title_fiefdom
				NOT = { check_variable = { ruler_sex = 2 } }
			}
		}
		localization_key = ruler_title_lord
	}
	text = {
		trigger = {
			check_variable = { ruler_titles_array^num > 0 }
			var:ruler_titles_array^0 = {
				has_idea = government_title_fiefdom
				check_variable = { ruler_sex = 2 }
			}
		}
		localization_key = ruler_title_lady
	}
	text = {
		localization_key = ruler_title_generic
	}
}

defined_text = {
	name = GetRulerTitleListTitle2
	text = {
		trigger = {
			check_variable = { ruler_titles_array^num > 1 }
		}
		localization_key = ruler_title_2
	}
	text = {
		localization_key = blank
	}
}

defined_text = {
	name = GetRulerTitleListTitle2Rank
	text = {
		trigger = {
			check_variable = { ruler_titles_array^num > 1 }
			var:ruler_titles_array^1 = {
				has_idea = government_title_empire
				NOT = { check_variable = { ruler_sex = 2 } }
			}
		}
		localization_key = ruler_title_emperor
	}
	text = {
		trigger = {
			check_variable = { ruler_titles_array^num > 1 }
			var:ruler_titles_array^1 = {
				has_idea = government_title_empire
				check_variable = { ruler_sex = 2 }
			}
		}
		localization_key = ruler_title_empress
	}
	text = {
		trigger = {
			check_variable = { ruler_titles_array^num > 1 }
			var:ruler_titles_array^1 = {
				has_idea = government_title_kingdom
				NOT = { check_variable = { ruler_sex = 2 } }
			}
		}
		localization_key = ruler_title_king
	}
	text = {
		trigger = {
			check_variable = { ruler_titles_array^num > 1 }
			var:ruler_titles_array^1 = {
				has_idea = government_title_kingdom
				check_variable = { ruler_sex = 2 }
			}
		}
		localization_key = ruler_title_queen
	}
	text = {
		trigger = {
			check_variable = { ruler_titles_array^num > 1 }
			var:ruler_titles_array^1 = {
				has_idea = government_title_jarldom
			}
		}
		localization_key = ruler_title_jarl
	}
	text = {
		trigger = {
			check_variable = { ruler_titles_array^num > 1 }
			var:ruler_titles_array^1 = {
				has_idea = government_title_high_kingdom
				NOT = { check_variable = { ruler_sex = 2 } }
			}
		}
		localization_key = ruler_title_high_king
	}
	text = {
		trigger = {
			check_variable = { ruler_titles_array^num > 1 }
			var:ruler_titles_array^1 = {
				has_idea = government_title_high_kingdom
				check_variable = { ruler_sex = 2 }
			}
		}
		localization_key = ruler_title_high_queen
	}
	text = {
		trigger = {
			check_variable = { ruler_titles_array^num > 1 }
			var:ruler_titles_array^1 = {
				has_idea = government_title_duchy
				NOT = { check_variable = { ruler_sex = 2 } }
			}
		}
		localization_key = ruler_title_duke
	}
	text = {
		trigger = {
			check_variable = { ruler_titles_array^num > 1 }
			var:ruler_titles_array^1 = {
				has_idea = government_title_duchy
				check_variable = { ruler_sex = 2 }
			}
		}
		localization_key = ruler_title_duchess
	}
	text = {
		trigger = {
			check_variable = { ruler_titles_array^num > 1 }
			var:ruler_titles_array^1 = {
				has_idea = government_title_march
				NOT = { check_variable = { ruler_sex = 2 } }
			}
		}
		localization_key = ruler_title_marquess
	}
	text = {
		trigger = {
			check_variable = { ruler_titles_array^num > 1 }
			var:ruler_titles_array^1 = {
				has_idea = government_title_march
				check_variable = { ruler_sex = 2 }
			}
		}
		localization_key = ruler_title_marchioness
	}
	text = {
		trigger = {
			check_variable = { ruler_titles_array^num > 1 }
			var:ruler_titles_array^1 = {
				has_idea = government_title_county
				NOT = { check_variable = { ruler_sex = 2 } }
			}
		}
		localization_key = ruler_title_count
	}
	text = {
		trigger = {
			check_variable = { ruler_titles_array^num > 1 }
			var:ruler_titles_array^1 = {
				has_idea = government_title_county
				check_variable = { ruler_sex = 2 }
			}
		}
		localization_key = ruler_title_countess
	}
	text = {
		trigger = {
			check_variable = { ruler_titles_array^num > 1 }
			var:ruler_titles_array^1 = {
				has_idea = government_title_barony
				NOT = { check_variable = { ruler_sex = 2 } }
			}
		}
		localization_key = ruler_title_baron
	}
	text = {
		trigger = {
			check_variable = { ruler_titles_array^num > 1 }
			var:ruler_titles_array^1 = {
				has_idea = government_title_barony
				check_variable = { ruler_sex = 2 }
			}
		}
		localization_key = ruler_title_baroness
	}
	text = {
		trigger = {
			check_variable = { ruler_titles_array^num > 1 }
			var:ruler_titles_array^1 = {
				has_idea = government_title_fiefdom
				NOT = { check_variable = { ruler_sex = 2 } }
			}
		}
		localization_key = ruler_title_lord
	}
	text = {
		trigger = {
			check_variable = { ruler_titles_array^num > 1 }
			var:ruler_titles_array^1 = {
				has_idea = government_title_fiefdom
				check_variable = { ruler_sex = 2 }
			}
		}
		localization_key = ruler_title_lady
	}
	text = {
		localization_key = ruler_title_generic
	}
}

defined_text = {
	name = GetRulerTitleListTitle3
	text = {
		trigger = {
			check_variable = { ruler_titles_array^num > 2 }
		}
		localization_key = ruler_title_3
	}
	text = {
		localization_key = blank
	}
}

defined_text = {
	name = GetRulerTitleListTitle3Rank
	text = {
		trigger = {
			check_variable = { ruler_titles_array^num > 2 }
			var:ruler_titles_array^2 = {
				has_idea = government_title_empire
				NOT = { check_variable = { ruler_sex = 2 } }
			}
		}
		localization_key = ruler_title_emperor
	}
	text = {
		trigger = {
			check_variable = { ruler_titles_array^num > 2 }
			var:ruler_titles_array^2 = {
				has_idea = government_title_empire
				check_variable = { ruler_sex = 2 }
			}
		}
		localization_key = ruler_title_empress
	}
	text = {
		trigger = {
			check_variable = { ruler_titles_array^num > 2 }
			var:ruler_titles_array^2 = {
				has_idea = government_title_kingdom
				NOT = { check_variable = { ruler_sex = 2 } }
			}
		}
		localization_key = ruler_title_king
	}
	text = {
		trigger = {
			check_variable = { ruler_titles_array^num > 2 }
			var:ruler_titles_array^2 = {
				has_idea = government_title_kingdom
				check_variable = { ruler_sex = 2 }
			}
		}
		localization_key = ruler_title_queen
	}
	text = {
		trigger = {
			check_variable = { ruler_titles_array^num > 2 }
			var:ruler_titles_array^2 = {
				has_idea = government_title_jarldom
			}
		}
		localization_key = ruler_title_jarl
	}
	text = {
		trigger = {
			check_variable = { ruler_titles_array^num > 2 }
			var:ruler_titles_array^2 = {
				has_idea = government_title_high_kingdom
				NOT = { check_variable = { ruler_sex = 2 } }
			}
		}
		localization_key = ruler_title_high_king
	}
	text = {
		trigger = {
			check_variable = { ruler_titles_array^num > 2 }
			var:ruler_titles_array^2 = {
				has_idea = government_title_high_kingdom
				check_variable = { ruler_sex = 2 }
			}
		}
		localization_key = ruler_title_high_queen
	}
	text = {
		trigger = {
			check_variable = { ruler_titles_array^num > 2 }
			var:ruler_titles_array^2 = {
				has_idea = government_title_duchy
				NOT = { check_variable = { ruler_sex = 2 } }
			}
		}
		localization_key = ruler_title_duke
	}
	text = {
		trigger = {
			check_variable = { ruler_titles_array^num > 2 }
			var:ruler_titles_array^2 = {
				has_idea = government_title_duchy
				check_variable = { ruler_sex = 2 }
			}
		}
		localization_key = ruler_title_duchess
	}
	text = {
		trigger = {
			check_variable = { ruler_titles_array^num > 2 }
			var:ruler_titles_array^2 = {
				has_idea = government_title_march
				NOT = { check_variable = { ruler_sex = 2 } }
			}
		}
		localization_key = ruler_title_marquess
	}
	text = {
		trigger = {
			check_variable = { ruler_titles_array^num > 2 }
			var:ruler_titles_array^2 = {
				has_idea = government_title_march
				check_variable = { ruler_sex = 2 }
			}
		}
		localization_key = ruler_title_marchioness
	}
	text = {
		trigger = {
			check_variable = { ruler_titles_array^num > 2 }
			var:ruler_titles_array^2 = {
				has_idea = government_title_county
				NOT = { check_variable = { ruler_sex = 2 } }
			}
		}
		localization_key = ruler_title_count
	}
	text = {
		trigger = {
			check_variable = { ruler_titles_array^num > 2 }
			var:ruler_titles_array^2 = {
				has_idea = government_title_county
				check_variable = { ruler_sex = 2 }
			}
		}
		localization_key = ruler_title_countess
	}
	text = {
		trigger = {
			check_variable = { ruler_titles_array^num > 2 }
			var:ruler_titles_array^2 = {
				has_idea = government_title_barony
				NOT = { check_variable = { ruler_sex = 2 } }
			}
		}
		localization_key = ruler_title_baron
	}
	text = {
		trigger = {
			check_variable = { ruler_titles_array^num > 2 }
			var:ruler_titles_array^2 = {
				has_idea = government_title_barony
				check_variable = { ruler_sex = 2 }
			}
		}
		localization_key = ruler_title_baroness
	}
	text = {
		trigger = {
			check_variable = { ruler_titles_array^num > 2 }
			var:ruler_titles_array^2 = {
				has_idea = government_title_fiefdom
				NOT = { check_variable = { ruler_sex = 2 } }
			}
		}
		localization_key = ruler_title_lord
	}
	text = {
		trigger = {
			check_variable = { ruler_titles_array^num > 2 }
			var:ruler_titles_array^2 = {
				has_idea = government_title_fiefdom
				check_variable = { ruler_sex = 2 }
			}
		}
		localization_key = ruler_title_lady
	}
	text = {
		localization_key = ruler_title_generic
	}
}

defined_text = {
	name = GetRulerTitleListTitle4
	text = {
		trigger = {
			check_variable = { ruler_titles_array^num > 3 }
		}
		localization_key = ruler_title_4
	}
	text = {
		localization_key = blank
	}
}

defined_text = {
	name = GetRulerTitleListTitle4Rank
	text = {
		trigger = {
			check_variable = { ruler_titles_array^num > 3 }
			var:ruler_titles_array^3 = {
				has_idea = government_title_empire
				NOT = { check_variable = { ruler_sex = 2 } }
			}
		}
		localization_key = ruler_title_emperor
	}
	text = {
		trigger = {
			check_variable = { ruler_titles_array^num > 3 }
			var:ruler_titles_array^3 = {
				has_idea = government_title_empire
				check_variable = { ruler_sex = 2 }
			}
		}
		localization_key = ruler_title_empress
	}
	text = {
		trigger = {
			check_variable = { ruler_titles_array^num > 3 }
			var:ruler_titles_array^3 = {
				has_idea = government_title_kingdom
				NOT = { check_variable = { ruler_sex = 2 } }
			}
		}
		localization_key = ruler_title_king
	}
	text = {
		trigger = {
			check_variable = { ruler_titles_array^num > 3 }
			var:ruler_titles_array^3 = {
				has_idea = government_title_kingdom
				check_variable = { ruler_sex = 2 }
			}
		}
		localization_key = ruler_title_queen
	}
	text = {
		trigger = {
			check_variable = { ruler_titles_array^num > 3 }
			var:ruler_titles_array^3 = {
				has_idea = government_title_jarldom
			}
		}
		localization_key = ruler_title_jarl
	}
	text = {
		trigger = {
			check_variable = { ruler_titles_array^num > 3 }
			var:ruler_titles_array^3 = {
				has_idea = government_title_high_kingdom
				NOT = { check_variable = { ruler_sex = 2 } }
			}
		}
		localization_key = ruler_title_high_king
	}
	text = {
		trigger = {
			check_variable = { ruler_titles_array^num > 3 }
			var:ruler_titles_array^3 = {
				has_idea = government_title_high_kingdom
				check_variable = { ruler_sex = 2 }
			}
		}
		localization_key = ruler_title_high_queen
	}
	text = {
		trigger = {
			check_variable = { ruler_titles_array^num > 3 }
			var:ruler_titles_array^3 = {
				has_idea = government_title_duchy
				NOT = { check_variable = { ruler_sex = 2 } }
			}
		}
		localization_key = ruler_title_duke
	}
	text = {
		trigger = {
			check_variable = { ruler_titles_array^num > 3 }
			var:ruler_titles_array^3 = {
				has_idea = government_title_duchy
				check_variable = { ruler_sex = 2 }
			}
		}
		localization_key = ruler_title_duchess
	}
	text = {
		trigger = {
			check_variable = { ruler_titles_array^num > 3 }
			var:ruler_titles_array^3 = {
				has_idea = government_title_march
				NOT = { check_variable = { ruler_sex = 2 } }
			}
		}
		localization_key = ruler_title_marquess
	}
	text = {
		trigger = {
			check_variable = { ruler_titles_array^num > 3 }
			var:ruler_titles_array^3 = {
				has_idea = government_title_march
				check_variable = { ruler_sex = 2 }
			}
		}
		localization_key = ruler_title_marchioness
	}
	text = {
		trigger = {
			check_variable = { ruler_titles_array^num > 3 }
			var:ruler_titles_array^3 = {
				has_idea = government_title_county
				NOT = { check_variable = { ruler_sex = 2 } }
			}
		}
		localization_key = ruler_title_count
	}
	text = {
		trigger = {
			check_variable = { ruler_titles_array^num > 3 }
			var:ruler_titles_array^3 = {
				has_idea = government_title_county
				check_variable = { ruler_sex = 2 }
			}
		}
		localization_key = ruler_title_countess
	}
	text = {
		trigger = {
			check_variable = { ruler_titles_array^num > 3 }
			var:ruler_titles_array^3 = {
				has_idea = government_title_barony
				NOT = { check_variable = { ruler_sex = 2 } }
			}
		}
		localization_key = ruler_title_baron
	}
	text = {
		trigger = {
			check_variable = { ruler_titles_array^num > 3 }
			var:ruler_titles_array^3 = {
				has_idea = government_title_barony
				check_variable = { ruler_sex = 2 }
			}
		}
		localization_key = ruler_title_baroness
	}
	text = {
		trigger = {
			check_variable = { ruler_titles_array^num > 3 }
			var:ruler_titles_array^3 = {
				has_idea = government_title_fiefdom
				NOT = { check_variable = { ruler_sex = 2 } }
			}
		}
		localization_key = ruler_title_lord
	}
	text = {
		trigger = {
			check_variable = { ruler_titles_array^num > 3 }
			var:ruler_titles_array^3 = {
				has_idea = government_title_fiefdom
				check_variable = { ruler_sex = 2 }
			}
		}
		localization_key = ruler_title_lady
	}
	text = {
		localization_key = ruler_title_generic
	}
}

defined_text = {
	name = GetRulerTitleListTitle5
	text = {
		trigger = {
			check_variable = { ruler_titles_array^num > 4 }
		}
		localization_key = ruler_title_5
	}
	text = {
		localization_key = blank
	}
}

defined_text = {
	name = GetRulerTitleListTitle5Rank
	text = {
		trigger = {
			check_variable = { ruler_titles_array^num > 4 }
			var:ruler_titles_array^4 = {
				has_idea = government_title_empire
				NOT = { check_variable = { ruler_sex = 2 } }
			}
		}
		localization_key = ruler_title_emperor
	}
	text = {
		trigger = {
			check_variable = { ruler_titles_array^num > 4 }
			var:ruler_titles_array^4 = {
				has_idea = government_title_empire
				check_variable = { ruler_sex = 2 }
			}
		}
		localization_key = ruler_title_empress
	}
	text = {
		trigger = {
			check_variable = { ruler_titles_array^num > 4 }
			var:ruler_titles_array^4 = {
				has_idea = government_title_kingdom
				NOT = { check_variable = { ruler_sex = 2 } }
			}
		}
		localization_key = ruler_title_king
	}
	text = {
		trigger = {
			check_variable = { ruler_titles_array^num > 4 }
			var:ruler_titles_array^4 = {
				has_idea = government_title_kingdom
				check_variable = { ruler_sex = 2 }
			}
		}
		localization_key = ruler_title_queen
	}
	text = {
		trigger = {
			check_variable = { ruler_titles_array^num > 4 }
			var:ruler_titles_array^4 = {
				has_idea = government_title_jarldom
			}
		}
		localization_key = ruler_title_jarl
	}
	text = {
		trigger = {
			check_variable = { ruler_titles_array^num > 4 }
			var:ruler_titles_array^4 = {
				has_idea = government_title_high_kingdom
				NOT = { check_variable = { ruler_sex = 2 } }
			}
		}
		localization_key = ruler_title_high_king
	}
	text = {
		trigger = {
			check_variable = { ruler_titles_array^num > 4 }
			var:ruler_titles_array^4 = {
				has_idea = government_title_high_kingdom
				check_variable = { ruler_sex = 2 }
			}
		}
		localization_key = ruler_title_high_queen
	}
	text = {
		trigger = {
			check_variable = { ruler_titles_array^num > 4 }
			var:ruler_titles_array^4 = {
				has_idea = government_title_duchy
				NOT = { check_variable = { ruler_sex = 2 } }
			}
		}
		localization_key = ruler_title_duke
	}
	text = {
		trigger = {
			check_variable = { ruler_titles_array^num > 4 }
			var:ruler_titles_array^4 = {
				has_idea = government_title_duchy
				check_variable = { ruler_sex = 2 }
			}
		}
		localization_key = ruler_title_duchess
	}
	text = {
		trigger = {
			check_variable = { ruler_titles_array^num > 4 }
			var:ruler_titles_array^4 = {
				has_idea = government_title_march
				NOT = { check_variable = { ruler_sex = 2 } }
			}
		}
		localization_key = ruler_title_marquess
	}
	text = {
		trigger = {
			check_variable = { ruler_titles_array^num > 4 }
			var:ruler_titles_array^4 = {
				has_idea = government_title_march
				check_variable = { ruler_sex = 2 }
			}
		}
		localization_key = ruler_title_marchioness
	}
	text = {
		trigger = {
			check_variable = { ruler_titles_array^num > 4 }
			var:ruler_titles_array^4 = {
				has_idea = government_title_county
				NOT = { check_variable = { ruler_sex = 2 } }
			}
		}
		localization_key = ruler_title_count
	}
	text = {
		trigger = {
			check_variable = { ruler_titles_array^num > 4 }
			var:ruler_titles_array^4 = {
				has_idea = government_title_county
				check_variable = { ruler_sex = 2 }
			}
		}
		localization_key = ruler_title_countess
	}
	text = {
		trigger = {
			check_variable = { ruler_titles_array^num > 4 }
			var:ruler_titles_array^4 = {
				has_idea = government_title_barony
				NOT = { check_variable = { ruler_sex = 2 } }
			}
		}
		localization_key = ruler_title_baron
	}
	text = {
		trigger = {
			check_variable = { ruler_titles_array^num > 4 }
			var:ruler_titles_array^4 = {
				has_idea = government_title_barony
				check_variable = { ruler_sex = 2 }
			}
		}
		localization_key = ruler_title_baroness
	}
	text = {
		trigger = {
			check_variable = { ruler_titles_array^num > 4 }
			var:ruler_titles_array^4 = {
				has_idea = government_title_fiefdom
				NOT = { check_variable = { ruler_sex = 2 } }
			}
		}
		localization_key = ruler_title_lord
	}
	text = {
		trigger = {
			check_variable = { ruler_titles_array^num > 4 }
			var:ruler_titles_array^4 = {
				has_idea = government_title_fiefdom
				check_variable = { ruler_sex = 2 }
			}
		}
		localization_key = ruler_title_lady
	}
	text = {
		localization_key = ruler_title_generic
	}
}

defined_text = {
	name = GetRulerTitleListTitle6
	text = {
		trigger = {
			check_variable = { ruler_titles_array^num > 5 }
		}
		localization_key = ruler_title_6
	}
	text = {
		localization_key = blank
	}
}

defined_text = {
	name = GetRulerTitleListTitle6Rank
	text = {
		trigger = {
			check_variable = { ruler_titles_array^num > 5 }
			var:ruler_titles_array^5 = {
				has_idea = government_title_empire
				NOT = { check_variable = { ruler_sex = 2 } }
			}
		}
		localization_key = ruler_title_emperor
	}
	text = {
		trigger = {
			check_variable = { ruler_titles_array^num > 5 }
			var:ruler_titles_array^5 = {
				has_idea = government_title_empire
				check_variable = { ruler_sex = 2 }
			}
		}
		localization_key = ruler_title_empress
	}
	text = {
		trigger = {
			check_variable = { ruler_titles_array^num > 5 }
			var:ruler_titles_array^5 = {
				has_idea = government_title_kingdom
				NOT = { check_variable = { ruler_sex = 2 } }
			}
		}
		localization_key = ruler_title_king
	}
	text = {
		trigger = {
			check_variable = { ruler_titles_array^num > 5 }
			var:ruler_titles_array^5 = {
				has_idea = government_title_kingdom
				check_variable = { ruler_sex = 2 }
			}
		}
		localization_key = ruler_title_queen
	}
	text = {
		trigger = {
			check_variable = { ruler_titles_array^num > 5 }
			var:ruler_titles_array^5 = {
				has_idea = government_title_jarldom
			}
		}
		localization_key = ruler_title_jarl
	}
	text = {
		trigger = {
			check_variable = { ruler_titles_array^num > 5 }
			var:ruler_titles_array^5 = {
				has_idea = government_title_high_kingdom
				NOT = { check_variable = { ruler_sex = 2 } }
			}
		}
		localization_key = ruler_title_high_king
	}
	text = {
		trigger = {
			check_variable = { ruler_titles_array^num > 5 }
			var:ruler_titles_array^5 = {
				has_idea = government_title_high_kingdom
				check_variable = { ruler_sex = 2 }
			}
		}
		localization_key = ruler_title_high_queen
	}
	text = {
		trigger = {
			check_variable = { ruler_titles_array^num > 5 }
			var:ruler_titles_array^5 = {
				has_idea = government_title_duchy
				NOT = { check_variable = { ruler_sex = 2 } }
			}
		}
		localization_key = ruler_title_duke
	}
	text = {
		trigger = {
			check_variable = { ruler_titles_array^num > 5 }
			var:ruler_titles_array^5 = {
				has_idea = government_title_duchy
				check_variable = { ruler_sex = 2 }
			}
		}
		localization_key = ruler_title_duchess
	}
	text = {
		trigger = {
			check_variable = { ruler_titles_array^num > 5 }
			var:ruler_titles_array^5 = {
				has_idea = government_title_march
				NOT = { check_variable = { ruler_sex = 2 } }
			}
		}
		localization_key = ruler_title_marquess
	}
	text = {
		trigger = {
			check_variable = { ruler_titles_array^num > 5 }
			var:ruler_titles_array^5 = {
				has_idea = government_title_march
				check_variable = { ruler_sex = 2 }
			}
		}
		localization_key = ruler_title_marchioness
	}
	text = {
		trigger = {
			check_variable = { ruler_titles_array^num > 5 }
			var:ruler_titles_array^5 = {
				has_idea = government_title_county
				NOT = { check_variable = { ruler_sex = 2 } }
			}
		}
		localization_key = ruler_title_count
	}
	text = {
		trigger = {
			check_variable = { ruler_titles_array^num > 5 }
			var:ruler_titles_array^5 = {
				has_idea = government_title_county
				check_variable = { ruler_sex = 2 }
			}
		}
		localization_key = ruler_title_countess
	}
	text = {
		trigger = {
			check_variable = { ruler_titles_array^num > 5 }
			var:ruler_titles_array^5 = {
				has_idea = government_title_barony
				NOT = { check_variable = { ruler_sex = 2 } }
			}
		}
		localization_key = ruler_title_baron
	}
	text = {
		trigger = {
			check_variable = { ruler_titles_array^num > 5 }
			var:ruler_titles_array^5 = {
				has_idea = government_title_barony
				check_variable = { ruler_sex = 2 }
			}
		}
		localization_key = ruler_title_baroness
	}
	text = {
		trigger = {
			check_variable = { ruler_titles_array^num > 5 }
			var:ruler_titles_array^5 = {
				has_idea = government_title_fiefdom
				NOT = { check_variable = { ruler_sex = 2 } }
			}
		}
		localization_key = ruler_title_lord
	}
	text = {
		trigger = {
			check_variable = { ruler_titles_array^num > 5 }
			var:ruler_titles_array^5 = {
				has_idea = government_title_fiefdom
				check_variable = { ruler_sex = 2 }
			}
		}
		localization_key = ruler_title_lady
	}
	text = {
		localization_key = ruler_title_generic
	}
}

defined_text = {
	name = GetRulerTitleListTitle7
	text = {
		trigger = {
			check_variable = { ruler_titles_array^num > 6 }
		}
		localization_key = ruler_title_7
	}
	text = {
		localization_key = blank
	}
}

defined_text = {
	name = GetRulerTitleListTitle7Rank
	text = {
		trigger = {
			check_variable = { ruler_titles_array^num > 6 }
			var:ruler_titles_array^6 = {
				has_idea = government_title_empire
				NOT = { check_variable = { ruler_sex = 2 } }
			}
		}
		localization_key = ruler_title_emperor
	}
	text = {
		trigger = {
			check_variable = { ruler_titles_array^num > 6 }
			var:ruler_titles_array^6 = {
				has_idea = government_title_empire
				check_variable = { ruler_sex = 2 }
			}
		}
		localization_key = ruler_title_empress
	}
	text = {
		trigger = {
			check_variable = { ruler_titles_array^num > 6 }
			var:ruler_titles_array^6 = {
				has_idea = government_title_kingdom
				NOT = { check_variable = { ruler_sex = 2 } }
			}
		}
		localization_key = ruler_title_king
	}
	text = {
		trigger = {
			check_variable = { ruler_titles_array^num > 6 }
			var:ruler_titles_array^6 = {
				has_idea = government_title_kingdom
				check_variable = { ruler_sex = 2 }
			}
		}
		localization_key = ruler_title_queen
	}
	text = {
		trigger = {
			check_variable = { ruler_titles_array^num > 6 }
			var:ruler_titles_array^6 = {
				has_idea = government_title_jarldom
			}
		}
		localization_key = ruler_title_jarl
	}
	text = {
		trigger = {
			check_variable = { ruler_titles_array^num > 6 }
			var:ruler_titles_array^6 = {
				has_idea = government_title_high_kingdom
				NOT = { check_variable = { ruler_sex = 2 } }
			}
		}
		localization_key = ruler_title_high_king
	}
	text = {
		trigger = {
			check_variable = { ruler_titles_array^num > 6 }
			var:ruler_titles_array^6 = {
				has_idea = government_title_high_kingdom
				check_variable = { ruler_sex = 2 }
			}
		}
		localization_key = ruler_title_high_queen
	}
	text = {
		trigger = {
			check_variable = { ruler_titles_array^num > 6 }
			var:ruler_titles_array^6 = {
				has_idea = government_title_duchy
				NOT = { check_variable = { ruler_sex = 2 } }
			}
		}
		localization_key = ruler_title_duke
	}
	text = {
		trigger = {
			check_variable = { ruler_titles_array^num > 6 }
			var:ruler_titles_array^6 = {
				has_idea = government_title_duchy
				check_variable = { ruler_sex = 2 }
			}
		}
		localization_key = ruler_title_duchess
	}
	text = {
		trigger = {
			check_variable = { ruler_titles_array^num > 6 }
			var:ruler_titles_array^6 = {
				has_idea = government_title_march
				NOT = { check_variable = { ruler_sex = 2 } }
			}
		}
		localization_key = ruler_title_marquess
	}
	text = {
		trigger = {
			check_variable = { ruler_titles_array^num > 6 }
			var:ruler_titles_array^6 = {
				has_idea = government_title_march
				check_variable = { ruler_sex = 2 }
			}
		}
		localization_key = ruler_title_marchioness
	}
	text = {
		trigger = {
			check_variable = { ruler_titles_array^num > 6 }
			var:ruler_titles_array^6 = {
				has_idea = government_title_county
				NOT = { check_variable = { ruler_sex = 2 } }
			}
		}
		localization_key = ruler_title_count
	}
	text = {
		trigger = {
			check_variable = { ruler_titles_array^num > 6 }
			var:ruler_titles_array^6 = {
				has_idea = government_title_county
				check_variable = { ruler_sex = 2 }
			}
		}
		localization_key = ruler_title_countess
	}
	text = {
		trigger = {
			check_variable = { ruler_titles_array^num > 6 }
			var:ruler_titles_array^6 = {
				has_idea = government_title_barony
				NOT = { check_variable = { ruler_sex = 2 } }
			}
		}
		localization_key = ruler_title_baron
	}
	text = {
		trigger = {
			check_variable = { ruler_titles_array^num > 6 }
			var:ruler_titles_array^6 = {
				has_idea = government_title_barony
				check_variable = { ruler_sex = 2 }
			}
		}
		localization_key = ruler_title_baroness
	}
	text = {
		trigger = {
			check_variable = { ruler_titles_array^num > 6 }
			var:ruler_titles_array^6 = {
				has_idea = government_title_fiefdom
				NOT = { check_variable = { ruler_sex = 2 } }
			}
		}
		localization_key = ruler_title_lord
	}
	text = {
		trigger = {
			check_variable = { ruler_titles_array^num > 6 }
			var:ruler_titles_array^6 = {
				has_idea = government_title_fiefdom
				check_variable = { ruler_sex = 2 }
			}
		}
		localization_key = ruler_title_lady
	}
	text = {
		localization_key = ruler_title_generic
	}
}

defined_text = {
	name = GetRulerTitleListTitle8
	text = {
		trigger = {
			check_variable = { ruler_titles_array^num > 7 }
		}
		localization_key = ruler_title_8
	}
	text = {
		localization_key = blank
	}
}

defined_text = {
	name = GetRulerTitleListTitle8Rank
	text = {
		trigger = {
			check_variable = { ruler_titles_array^num > 7 }
			var:ruler_titles_array^7 = {
				has_idea = government_title_empire
				NOT = { check_variable = { ruler_sex = 2 } }
			}
		}
		localization_key = ruler_title_emperor
	}
	text = {
		trigger = {
			check_variable = { ruler_titles_array^num > 7 }
			var:ruler_titles_array^7 = {
				has_idea = government_title_empire
				check_variable = { ruler_sex = 2 }
			}
		}
		localization_key = ruler_title_empress
	}
	text = {
		trigger = {
			check_variable = { ruler_titles_array^num > 7 }
			var:ruler_titles_array^7 = {
				has_idea = government_title_kingdom
				NOT = { check_variable = { ruler_sex = 2 } }
			}
		}
		localization_key = ruler_title_king
	}
	text = {
		trigger = {
			check_variable = { ruler_titles_array^num > 7 }
			var:ruler_titles_array^7 = {
				has_idea = government_title_kingdom
				check_variable = { ruler_sex = 2 }
			}
		}
		localization_key = ruler_title_queen
	}
	text = {
		trigger = {
			check_variable = { ruler_titles_array^num > 7 }
			var:ruler_titles_array^7 = {
				has_idea = government_title_jarldom
			}
		}
		localization_key = ruler_title_jarl
	}
	text = {
		trigger = {
			check_variable = { ruler_titles_array^num > 7 }
			var:ruler_titles_array^7 = {
				has_idea = government_title_high_kingdom
				NOT = { check_variable = { ruler_sex = 2 } }
			}
		}
		localization_key = ruler_title_high_king
	}
	text = {
		trigger = {
			check_variable = { ruler_titles_array^num > 7 }
			var:ruler_titles_array^7 = {
				has_idea = government_title_high_kingdom
				check_variable = { ruler_sex = 2 }
			}
		}
		localization_key = ruler_title_high_queen
	}
	text = {
		trigger = {
			check_variable = { ruler_titles_array^num > 7 }
			var:ruler_titles_array^7 = {
				has_idea = government_title_duchy
				NOT = { check_variable = { ruler_sex = 2 } }
			}
		}
		localization_key = ruler_title_duke
	}
	text = {
		trigger = {
			check_variable = { ruler_titles_array^num > 7 }
			var:ruler_titles_array^7 = {
				has_idea = government_title_duchy
				check_variable = { ruler_sex = 2 }
			}
		}
		localization_key = ruler_title_duchess
	}
	text = {
		trigger = {
			check_variable = { ruler_titles_array^num > 7 }
			var:ruler_titles_array^7 = {
				has_idea = government_title_march
				NOT = { check_variable = { ruler_sex = 2 } }
			}
		}
		localization_key = ruler_title_marquess
	}
	text = {
		trigger = {
			check_variable = { ruler_titles_array^num > 7 }
			var:ruler_titles_array^7 = {
				has_idea = government_title_march
				check_variable = { ruler_sex = 2 }
			}
		}
		localization_key = ruler_title_marchioness
	}
	text = {
		trigger = {
			check_variable = { ruler_titles_array^num > 7 }
			var:ruler_titles_array^7 = {
				has_idea = government_title_county
				NOT = { check_variable = { ruler_sex = 2 } }
			}
		}
		localization_key = ruler_title_count
	}
	text = {
		trigger = {
			check_variable = { ruler_titles_array^num > 7 }
			var:ruler_titles_array^7 = {
				has_idea = government_title_county
				check_variable = { ruler_sex = 2 }
			}
		}
		localization_key = ruler_title_countess
	}
	text = {
		trigger = {
			check_variable = { ruler_titles_array^num > 7 }
			var:ruler_titles_array^7 = {
				has_idea = government_title_barony
				NOT = { check_variable = { ruler_sex = 2 } }
			}
		}
		localization_key = ruler_title_baron
	}
	text = {
		trigger = {
			check_variable = { ruler_titles_array^num > 7 }
			var:ruler_titles_array^7 = {
				has_idea = government_title_barony
				check_variable = { ruler_sex = 2 }
			}
		}
		localization_key = ruler_title_baroness
	}
	text = {
		trigger = {
			check_variable = { ruler_titles_array^num > 7 }
			var:ruler_titles_array^7 = {
				has_idea = government_title_fiefdom
				NOT = { check_variable = { ruler_sex = 2 } }
			}
		}
		localization_key = ruler_title_lord
	}
	text = {
		trigger = {
			check_variable = { ruler_titles_array^num > 7 }
			var:ruler_titles_array^7 = {
				has_idea = government_title_fiefdom
				check_variable = { ruler_sex = 2 }
			}
		}
		localization_key = ruler_title_lady
	}
	text = {
		localization_key = ruler_title_generic
	}
}

defined_text = {
	name = GetRulerTitleListTitle9
	text = {
		trigger = {
			check_variable = { ruler_titles_array^num > 8 }
		}
		localization_key = ruler_title_9
	}
	text = {
		localization_key = blank
	}
}

defined_text = {
	name = GetRulerTitleListTitle9Rank
	text = {
		trigger = {
			check_variable = { ruler_titles_array^num > 8 }
			var:ruler_titles_array^8 = {
				has_idea = government_title_empire
				NOT = { check_variable = { ruler_sex = 2 } }
			}
		}
		localization_key = ruler_title_emperor
	}
	text = {
		trigger = {
			check_variable = { ruler_titles_array^num > 8 }
			var:ruler_titles_array^8 = {
				has_idea = government_title_empire
				check_variable = { ruler_sex = 2 }
			}
		}
		localization_key = ruler_title_empress
	}
	text = {
		trigger = {
			check_variable = { ruler_titles_array^num > 8 }
			var:ruler_titles_array^8 = {
				has_idea = government_title_kingdom
				NOT = { check_variable = { ruler_sex = 2 } }
			}
		}
		localization_key = ruler_title_king
	}
	text = {
		trigger = {
			check_variable = { ruler_titles_array^num > 8 }
			var:ruler_titles_array^8 = {
				has_idea = government_title_kingdom
				check_variable = { ruler_sex = 2 }
			}
		}
		localization_key = ruler_title_queen
	}
	text = {
		trigger = {
			check_variable = { ruler_titles_array^num > 8 }
			var:ruler_titles_array^8 = {
				has_idea = government_title_jarldom
			}
		}
		localization_key = ruler_title_jarl
	}
	text = {
		trigger = {
			check_variable = { ruler_titles_array^num > 8 }
			var:ruler_titles_array^8 = {
				has_idea = government_title_high_kingdom
				NOT = { check_variable = { ruler_sex = 2 } }
			}
		}
		localization_key = ruler_title_high_king
	}
	text = {
		trigger = {
			check_variable = { ruler_titles_array^num > 8 }
			var:ruler_titles_array^8 = {
				has_idea = government_title_high_kingdom
				check_variable = { ruler_sex = 2 }
			}
		}
		localization_key = ruler_title_high_queen
	}
	text = {
		trigger = {
			check_variable = { ruler_titles_array^num > 8 }
			var:ruler_titles_array^8 = {
				has_idea = government_title_duchy
				NOT = { check_variable = { ruler_sex = 2 } }
			}
		}
		localization_key = ruler_title_duke
	}
	text = {
		trigger = {
			check_variable = { ruler_titles_array^num > 8 }
			var:ruler_titles_array^8 = {
				has_idea = government_title_duchy
				check_variable = { ruler_sex = 2 }
			}
		}
		localization_key = ruler_title_duchess
	}
	text = {
		trigger = {
			check_variable = { ruler_titles_array^num > 8 }
			var:ruler_titles_array^8 = {
				has_idea = government_title_march
				NOT = { check_variable = { ruler_sex = 2 } }
			}
		}
		localization_key = ruler_title_marquess
	}
	text = {
		trigger = {
			check_variable = { ruler_titles_array^num > 8 }
			var:ruler_titles_array^8 = {
				has_idea = government_title_march
				check_variable = { ruler_sex = 2 }
			}
		}
		localization_key = ruler_title_marchioness
	}
	text = {
		trigger = {
			check_variable = { ruler_titles_array^num > 8 }
			var:ruler_titles_array^8 = {
				has_idea = government_title_county
				NOT = { check_variable = { ruler_sex = 2 } }
			}
		}
		localization_key = ruler_title_count
	}
	text = {
		trigger = {
			check_variable = { ruler_titles_array^num > 8 }
			var:ruler_titles_array^8 = {
				has_idea = government_title_county
				check_variable = { ruler_sex = 2 }
			}
		}
		localization_key = ruler_title_countess
	}
	text = {
		trigger = {
			check_variable = { ruler_titles_array^num > 8 }
			var:ruler_titles_array^8 = {
				has_idea = government_title_barony
				NOT = { check_variable = { ruler_sex = 2 } }
			}
		}
		localization_key = ruler_title_baron
	}
	text = {
		trigger = {
			check_variable = { ruler_titles_array^num > 8 }
			var:ruler_titles_array^8 = {
				has_idea = government_title_barony
				check_variable = { ruler_sex = 2 }
			}
		}
		localization_key = ruler_title_baroness
	}
	text = {
		trigger = {
			check_variable = { ruler_titles_array^num > 8 }
			var:ruler_titles_array^8 = {
				has_idea = government_title_fiefdom
				NOT = { check_variable = { ruler_sex = 2 } }
			}
		}
		localization_key = ruler_title_lord
	}
	text = {
		trigger = {
			check_variable = { ruler_titles_array^num > 8 }
			var:ruler_titles_array^8 = {
				has_idea = government_title_fiefdom
				check_variable = { ruler_sex = 2 }
			}
		}
		localization_key = ruler_title_lady
	}
	text = {
		localization_key = ruler_title_generic
	}
}