([0-9]*) - (.*)
\ttext = { #\2\n\t\ttrigger = {\n\t\t\tAND = {\n\t\t\t\tcheck_variable = { ruler_sex = 1 }\n\t\t\t\tcheck_variable = { ruler_name_group = [X] }\n\t\t\t\tcheck_variable = { ruler_name = \1 }\n\t\t\t}\n\t\t}\n\t\tlocalization_key = \2\n\t}
\ttext = { #\2\n\t\ttrigger = {\n\t\t\tAND = {\n\t\t\t\tcheck_variable = { ruler_lastname_group = [X] }\n\t\t\t\tcheck_variable = { ruler_lastname = \1 }\n\t\t\t}\n\t\t}\n\t\tlocalization_key = \2\n\t}


Ruler names are assigned by 6* variables: sex, first name group, first name, last name group, and last name. Setting the last name to 0 in any name group will result in the ruler having no last name, and -1 will result in the last name being "of *COUNTRYNAME*"
Name group values that are whole numbers are the racial name groups, corresponding to the race's place in the ideology list.
Name group values that are not whole numbers are special name groups, generally as a subset of a racial namegroup, for example, the Volkihar name group is 13.1, the 13th race being vampire.
*The variable ruler_lastname_sex is used only for Redguard and Orsimer names, since those names are derived from the name of an ancestor.

Male Imperial Names (Colovian and Nibenese) ( sex = 1, first name group = 1 )
	1 - Adamus
	2 - Adonato
	3 - Adrian
	4 - Adventus
	5 - Aebondeius
	6 - Aerin
	7 - Afer
	8 - Agrius
	9 - Albecius
	10 - Alethius
	11 - Allian
	12 - Aloys
	13 - Amantius
	14 - Amiel
	15 - Amminus
	16 - Ancus
	17 - Andreas
	18 - Antiochus
	19 - Antonius
	20 - Antus
	21 - Apelles
	22 - Aquillius
	23 - Arcturus
	24 - Arentus
	25 - Ariulcabor
	26 - Arius
	27 - Arlowe
	28 - Arrinis
	29 - Ashtus
	30 - Astius
	31 - Attelivupis
	32 - Attrebus
	33 - Audenian
	34 - Audens
	35 - Augurius
	36 - Aunius
	37 - Aventus
	38 - Bacola
	39 - Baro
	40 - Bassianus
	41 - Baszone
	42 - Belisarius
	43 - Bendu
	44 - Benunius
	45 - Berich
	46 - Betto
	47 - Bremman
	48 - Brielus
	49 - Brotch
	50 - Bruccius
	51 - Bruscius
	52 - Bruscus
	53 - Burcanius
	54 - Caccian
	55 - Caius
	56 - Calaxes
	57 - Calixto
	58 - Calvario
	59 - Calvus
	60 - Canctunian
	61 - Capiton
	62 - Carius
	63 - Carmalo
	64 - Carnius
	65 - Carodus
	66 - Cartrus
	67 - Cassius
	68 - Cassynder
	69 - Casta
	70 - Cavortius
	71 - Cephorus
	72 - Cicero
	73 - Cidius
	74 - Cimber
	75 - Clagius
	76 - Clasomo
	77 - Claudius
	78 - Clecentor
	79 - Clibergus
	80 - Cocistian
	81 - Codus
	82 - Coirtene
	83 - Collatinus
	84 - Constans
	85 - Constantius
	86 - Contumeliorus
	87 - Corpulus
	88 - Corrudus
	89 - Corvus
	90 - Cosmus
	91 - Crassius
	92 - Crescius
	93 - Crito
	94 - Crottus
	95 - Crulius
	96 - Cunius
	97 - Cyronin
	98 - Danus
	99 - Darius
	100 - Decentius
	101 - Denel
	102 - Depusanis
	103 - Desideratus
	104 - Dexion
	105 - Dion
	106 - Draninus
	107 - Drusus
	108 - Dunius
	109 - Durus
	110 - Duvianus
	111 - Dyus
	112 - Ebel
	113 - Eduard
	114 - Enman
	115 - Ennodius
	116 - Ertius
	117 - Esdrufus
	118 - Fadus
	119 - Fagus
	120 - Falco
	121 - Falx
	122 - Fandus
	123 - Florentius
	124 - Fortis
	125 - Fralav
	126 - Frinnius
	127 - Furius
	128 - Gaius
	129 - Gallus
	130 - Galtus
	131 - Ganciele
	132 - Garrus
	133 - Gavros
	134 - Geldall
	135 - Gellius
	136 - Gemellus
	137 - Gergio
	138 - Gerich
	139 - Gian
	140 - Giovanni
	141 - Glallian
	142 - Glenroy
	143 - Granius
	144 - Gratian
	145 - Gregory
	146 - Gualtierus
	147 - Haderus
	148 - Hasphat
	149 - Helvius
	150 - Helvo
	151 - Herdir
	152 - Hieronymus
	153 - Hirrus
	154 - Humilis
	155 - Ignatius
	156 - Ilav
	157 - Ildogesto
	158 - Ilend
	159 - Ilnori
	160 - Imus
	161 - Iniel
	162 - Inius
	163 - Iratian
	164 - Irlav
	165 - Itius
	166 - Iulus
	167 - Jagar
	168 - Jak
	169 - Januarius
	170 - Janus
	171 - Jaras
	172 - Jesan
	173 - Jirolin
	174 - Jiv
	175 - John
	176 - Jonus
	177 - Joofy
	178 - Kantav
	179 - Kaslowyn
	180 - Kastav
	181 - Langley
	182 - Larisus
	183 - Larrius
	184 - Laythe
	185 - Leontius
	186 - Lerexus
	187 - Letreius
	188 - Levus
	189 - Ley
	190 - Linus
	191 - Lorgren
	192 - Lucan
	193 - Lucien
	194 - Lucretinaus
	195 - Lurio
	196 - Lurius
	197 - Luspinian
	198 - Luther
	199 - Luven
	200 - Magnus
	201 - Malintus
	202 - Mallus
	203 - Malpenix
	204 - Manilian
	205 - Marcurio
	206 - Marinus
	207 - Marius
	208 - Maro
	209 - Marsus
	210 - Martin
	211 - Masque
	212 - Mattius
	213 - Matus
	214 - Mecilvus
	215 - Melus
	216 - Menien
	217 - Mercator
	218 - Metilius
	219 - Miles
	220 - Molvirian
	221 - Moris
	222 - Murberius
	223 - Murudius
	224 - Mus
	225 - Namanian
	226 - Naspis
	227 - Natalinus
	228 - Natch
	229 - Nermus
	230 - Nigidius
	231 - Nirtunus
	232 - Nitterius
	233 - Nolus
	234 - Noster
	235 - Olvus
	236 - Ontus
	237 - Oritius
	238 - Ormellius
	239 - Orthus
	240 - Otius
	241 - Paratus
	242 - Pavo
	243 - Pelagius
	244 - Pelinal
	245 - Pennus
	246 - Percius
	247 - Pilper
	248 - Pilus
	249 - Pinarus
	250 - Piner
	251 - Plautis
	252 - Plitinius
	253 - Primo
	254 - Processus
	255 - Procyon
	256 - Proventus
	257 - Pustula
	258 - Quentin
	259 - Quintus
	260 - Rallus
	261 - Raminus
	262 - Raxle
	263 - Reberio
	264 - Reburrus
	265 - Regulus
	266 - Reman
	267 - Rexus
	268 - Rielus
	269 - Rimalus
	270 - Ris
	271 - Roderic
	272 - Rogatus
	273 - Roliand
	274 - Rufinus
	275 - Rufrius
	276 - Sabinus
	277 - Saenus
	278 - Salvianus
	279 - Samuel
	280 - Saprius
	281 - Sauleius
	282 - Savlian
	283 - Scelian
	284 - Segunivus
	285 - Seliulus
	286 - Sellus
	287 - Senilias
	288 - Septimus
	289 - Sergius
	290 - Servatius
	291 - Severio
	292 - Severius
	293 - Silius
	294 - Silus
	295 - Sirollus
	296 - Sitialius
	297 - Somutis
	298 - Sorex
	299 - Stantus
	300 - Steffan
	301 - Stentus
	302 - Stlubo
	303 - Strillian
	304 - Sulinus
	305 - Sulla
	306 - Surius
	307 - Surus
	308 - Synnolian
	309 - Tacitus
	310 - Tahm
	311 - Tappius
	312 - Tasellis
	313 - Taurinus
	314 - Telrav
	315 - Terek
	316 - Tertius
	317 - Tertullian
	318 - Ticemius
	319 - Tienius
	320 - Tininnus
	321 - Titus
	322 - Toutius
	323 - Trebonius
	324 - Trenus
	325 - Turedus
	326 - Tyranus
	327 - Tyrellius
	328 - Tyronius
	329 - Uriel
	330 - Vala
	331 - Valandrus
	332 - Valgus
	333 - Valus
	334 - Valvius
	335 - Vandorallen
	336 - Vantus
	337 - Vantustius
	338 - Varian
	339 - Varnius
	340 - Varus
	341 - Vasesius
	342 - Velan
	343 - Velus
	344 - Velwyn
	345 - Venarus
	346 - Vertilvius
	347 - Verulus
	348 - Viator
	349 - Vinnus
	350 - Viranus
	351 - Vlanarus
	352 - Vlanhonder
	353 - Vlarimil
	354 - Vodunius
	355 - Vontan
	356 - Vontus
	357 - Wulf
	358 - Xander
	359 - Zedrick
	360 - Zeno
	
Female Imperial Names (Colovian and Nibenese) ( sex = 2, first name group = 1 )
	1 - Adelaisa
	2 - Adraria
	3 - Adrianne
	4 - Agrippina
	5 - Ahetotis
	6 - Aia
	7 - Alcedonia
	8 - Alessandra
	9 - Alessia
	10 - Alexia
	11 - Apronia
	12 - Arcadia
	13 - Arenara
	14 - Ariela
	15 - Arnora
	16 - Arriana
	17 - Astia
	18 - Astinia
	19 - Audania
	20 - Augusta
	21 - Aviera
	22 - Avita
	23 - Avresa
	24 - Blatta
	25 - Britta
	26 - Bronsila
	27 - Buntara
	28 - Caelia
	29 - Caldana
	30 - Camilla
	31 - Cania
	32 - Canodia
	33 - Cargas
	34 - Carlotta
	35 - Carmana
	36 - Casta
	37 - Catia
	38 - Caula
	39 - Ciirta
	40 - Cinda
	41 - Cinia
	42 - Clilias
	43 - Constance
	44 - Coventina
	45 - Craetia
	46 - Dumania
	47 - Dynari
	48 - Edda
	49 - Eloe
	50 - Eloisa
	51 - Emelia
	52 - Eponis
	53 - Erina
	54 - Etira
	55 - Ettiene
	56 - Fallaise
	57 - Fammana
	58 - Faustina
	59 - Fentula
	60 - Flacassia
	61 - Flaenia
	62 - Fralvia
	63 - Fruscia
	64 - Gaea
	65 - Ganna
	66 - Gemma
	67 - Germia
	68 - Gianna
	69 - Gilfre
	70 - Gruiand
	71 - Herminia
	72 - Horulia
	73 - Ida
	74 - Idonea
	75 - Illia
	76 - Indara
	77 - Isa
	78 - Isobel
	79 - Ita
	80 - Janonia
	81 - Jantus
	82 - Jastia
	83 - Jastira
	84 - Javolia
	85 - Jena
	86 - Julitta
	87 - Kintyra
	88 - Ladia
	89 - Lalaine
	90 - Lalatia
	91 - Larienna
	92 - Larina
	93 - Lassinia
	94 - Laurina
	95 - Lenka
	96 - Leonara
	97 - Leone
	98 - Livia
	99 - Lucia
	100 - Lucina
	101 - Lunia
	102 - Lyra
	103 - Maesa
	104 - Marana
	105 - Marara
	106 - Mariana
	107 - Marlena
	108 - Martina
	109 - Mila
	110 - Millona
	111 - Moria
	112 - Morihatha
	113 - Narina
	114 - Naspia
	115 - Nebia
	116 - Pallia
	117 - Pania
	118 - Pantea
	119 - Pelena
	120 - Pellecia
	121 - Peregrina
	122 - Perennia
	123 - Pista
	124 - Praxedes
	125 - Pritia
	126 - Raen
	127 - Raesa
	128 - Rena
	129 - Renee
	130 - Restita
	131 - Ria
	132 - Romana
	133 - Rona
	134 - Rosentia
	135 - Ruccia
	136 - Rusia
	137 - Sabrina
	138 - Safia
	139 - Salonia
	140 - Sarmosia
	141 - Schlera
	142 - Selena
	143 - Selene
	144 - Selvia
	145 - Severa
	146 - Severia
	147 - Sibylla
	148 - Silana
	149 - Silvia
	150 - Simplicia
	151 - Solea
	152 - Sosia
	153 - Syloria
	154 - Tertia
	155 - Thraccenia
	156 - Una
	157 - Vala
	158 - Valga
	159 - Vianis
	160 - Viatrix
	161 - Viccia
	162 - Viera
	163 - Vigdis
	164 - Vilbia
	165 - Vilena
	166 - Vinicia
	167 - Viola
	168 - Vittoria
	169 - Volrina
	170 - Ysabel
	
Imperial Last Names (Colovian and Nibenese) ( last name group = 1 )
	1 - Abitius
	2 - Abor
	3 - Accius
	4 - Acicius
	5 - Acilius
	6 - Aeresius
	7 - Aerius
	8 - Afranius
	9 - Afronia
	10 - Agrudilius
	11 - Albarnian
	12 - Albuttian
	13 - Alfena
	14 - Allectus
	15 - Alleius
	16 - Amatius
	17 - Amiulusus
	18 - Amnis
	19 - Amphia
	20 - Ancharia
	21 - Ancrus
	22 - Andronicus
	23 - Andus
	24 - Angius
	25 - Annius
	26 - Antabolis
	27 - Antonius
	28 - Apinia
	29 - Arcadia
	30 - Aretino
	31 - Arius
	32 - Armina
	33 - Arria
	34 - Artellian
	35 - Artoria
	36 - Artorius
	37 - Ateia
	38 - Atius
	39 - Atrius
	40 - Attius
	41 - Auria
	42 - Aurrus
	43 - Aurunceia
	44 - Autrus
	45 - Avenicci
	46 - Avidius
	47 - Axius
	48 - Baenius
	49 - Benirus
	50 - Berne
	51 - Bincal
	52 - Blackwell
	53 - Blandia
	54 - Blonia
	55 - Bradus
	56 - Broad
	57 - Broder
	58 - Brolus
	59 - Bruiant
	60 - Brussiner
	61 - Burtilius
	62 - Cadiusus
	63 - Caelia
	64 - Caerellia
	65 - Caerellius
	66 - Caesennius
	67 - Calidia
	68 - Calidius
	69 - Callidus
	70 - Callonus
	71 - Calus
	72 - Carbo
	73 - Carius
	74 - Caro
	75 - Cartia
	76 - Carvain
	77 - Cassiana
	78 - Catanius
	79 - Catiotus
	80 - Catius
	81 - Catraso
	82 - Cecia
	83 - Cedus
	84 - Celata
	85 - Ceno
	86 - Cerunia
	87 - Chenius
	88 - Cheynoslin
	89 - Cines
	90 - Cinna
	91 - Cipius
	92 - Civello
	93 - Claevius
	94 - Clanler
	95 - Closcius
	96 - Clutumnus
	97 - Cnisia
	98 - Colollius
	99 - Colus
	100 - Conciatius
	101 - Conician
	102 - Corrium
	103 - Cosades
	104 - Cosma
	105 - Crunus
	106 - Cullian
	107 - Curio
	108 - Dannus
	109 - Darelliun
	110 - Decanius
	111 - Decimius
	112 - Delitian
	113 - Denian
	114 - Dergius
	115 - Desidenius
	116 - Donton
	117 - Doran
	118 - Douar
	119 - Draconis
	120 - Dralgoner
	121 - Duilis
	122 - Duronia
	123 - Duronius
	124 - Egnatius
	125 - Endario
	126 - Entius
	127 - Esdrecus
	128 - Essagan
	129 - Evicus
	130 - Facian
	131 - Faleria
	132 - Falvius
	133 - Famalius
	134 - Fauseius
	135 - Faustus
	136 - Favonius
	137 - Felannus
	138 - Flaccus
	139 - Flaeus
	140 - Flarugrius
	141 - Flavonius
	142 - Flavus
	143 - Flonius
	144 - Floria
	145 - Florius
	146 - Fralmoton
	147 - Fulbenus
	148 - Fulcinius
	149 - Furotis
	150 - Gabenagus
	151 - Gabinia
	152 - Galenus
	153 - Gallenus
	154 - Garrana
	155 - Gavinius
	156 - Gawey
	157 - Geonette
	158 - Giordano
	159 - Gloriosus
	160 - Goldwine
	161 - Goneld
	162 - Gratius
	163 - Gratus
	164 - Gravius
	165 - Green
	166 - Gregori
	167 - Hanotepelus
	168 - Hanus
	169 - Harmevus
	170 - Harsinia
	171 - Hassildor
	172 - Hateria
	173 - Hayn
	174 - Herennia
	175 - Herennius
	176 - Hers
	177 - Hertarian
	178 - Hiriel
	179 - Hodge
	180 - Hoff
	181 - Horatius
	182 - Hosidius
	183 - Hosidus
	184 - Idolus
	185 - Inian
	186 - Invel
	187 - Inventius
	188 - Iulus
	189 - Jannus
	190 - Jarol
	191 - Jeranus
	192 - Jirich
	193 - Jucanis
	194 - Jullalian
	195 - Junius
	196 - Kvinchal
	197 - Lachance
	198 - Laecinnius
	199 - Laenius
	200 - Laftrius
	201 - Lalelius
	202 - Lannus
	203 - Leontiulonus
	204 - Leotelli
	205 - Lerus
	206 - Lex
	207 - Liore
	208 - Logellus
	209 - Lollia
	210 - Longus
	211 - Loran
	212 - Loreius
	213 - Lovidicus
	214 - Lusius
	215 - Maborel
	216 - Maccius
	217 - Macrina
	218 - Macro
	219 - Maenius
	220 - Magia
	221 - Magius
	222 - Mallius
	223 - Mantedius
	224 - Maraennius
	225 - Maria
	226 - Marillin
	227 - Marius
	228 - Maro
	229 - Matius
	230 - Maximus
	231 - Mede
	232 - Melissaeia
	233 - Menanius
	234 - Mercius
	235 - Mero
	236 - Mevureius
	237 - Mico
	238 - Mido
	239 - Monrius
	240 - Moslin
	241 - Muco
	242 - Munia
	243 - Musilchiotus
	244 - Muspidius
	245 - Mussillius
	246 - Nanus
	247 - Navale
	248 - Nigilius
	249 - Nirol
	250 - Nonius
	251 - Nuccius
	252 - Nuccusius
	253 - Nuncius
	254 - Odiil
	255 - Oholin
	256 - Olcinius
	257 - Olo
	258 - Opsius
	259 - Orania
	260 - Oranius
	261 - Orius
	262 - Ostorius
	263 - Otiustiris
	264 - Ottus
	265 - Palenix
	266 - Papius
	267 - Patneim
	268 - Pelagia
	269 - Pelelius
	270 - Petilia
	271 - Petilius
	272 - Petreia
	273 - Pevengius
	274 - Phillida
	275 - Pinder
	276 - Plalocius
	277 - Platorius
	278 - Plebo
	279 - Plinius
	280 - Plotius
	281 - Polus
	282 - Ponius
	283 - Pontanian
	284 - Popillius
	285 - Posuceius
	286 - Prelius
	287 - Prentus
	288 - Previa
	289 - Pullia
	290 - Pundus
	291 - Puruseius
	292 - Quarra
	293 - Quaspus
	294 - Quintilius
	295 - Raman
	296 - Rato
	297 - Rian
	298 - Richton
	299 - Rienus
	300 - Rilian
	301 - Roscius
	302 - Rosentia
	303 - Rufus
	304 - Rulician
	305 - Runellius
	306 - Rusonius
	307 - Saccus
	308 - Sallustius
	309 - Salvarus
	310 - Salvius
	311 - Scerius
	312 - Scinia
	313 - Scribonia
	314 - Secunia
	315 - Senarel
	316 - Senyan
	317 - Septim
	318 - Sestius
	319 - Sextius
	320 - Sialius
	321 - Sibassius
	322 - Signus
	323 - Silver
	324 - Sintav
	325 - Siruliulus
	326 - Sorenshield
	327 - Sosia
	328 - Spurius
	329 - Statlilia
	330 - Statlilius
	331 - Talanian
	332 - Terentius
	333 - Tharn
	334 - Tiragrius
	335 - Tituleius
	336 - Tragus
	337 - Trebatius
	338 - Tremellia
	339 - Truiand
	340 - Truptor
	341 - Tullius
	342 - Tunifus
	343 - Turrianus
	344 - Umbranox
	345 - Urgelian
	346 - Urgusiso
	347 - Uriel
	348 - Urtius
	349 - Uulentanus
	350 - Valentia
	351 - Valerius
	352 - Valga
	353 - Valius
	354 - Valodius
	355 - Valus
	356 - Vandacia
	357 - Vanin
	358 - Vant
	359 - Vantinius
	360 - Varian
	361 - Varo
	362 - Varrid
	363 - Varro
	364 - Vassinus
	365 - Vedius
	366 - Velvus
	367 - Vendicci
	368 - Verus
	369 - Vesnia
	370 - Vesuius
	371 - Vici
	372 - Viciulus
	373 - Viducia
	374 - Vinicia
	375 - Vinicius
	376 - Vinipter
	377 - Vinius
	378 - Viria
	379 - Vitellia
	380 - Vitellius
	381 - Vlindrel
	382 - Vlinorman
	383 - Vonius
	384 - Voria
	385 - Vulpin
	386 - Vunnis
	387 - Wavrick
	388 - Whitestrake
	389 - Wotrus

Male Nord Names ( sex = 1, first name group = 3 )
	1 - Abbard
	2 -  Adalvald
	3 - Adding
	4 - Addvar
	5 - Addvild
	6 - Aenar
	7 - Agarmir
	8 - Agmaer
	9 - Agnar
	10 - Agning
	11 - Akar
	12 - Alding
	13 - Aldis
	14 - Alfarinn
	15 - Alfbrand
	16 - Alfhedil
	17 - Algot
	18 - Allding
	19 - Alof
	20 - Alvor
	21 - Alvring
	22 - Andrelheim
	23 - Andurs
	24 - Angrenor
	25 - Angvid
	26 - Arctus
	27 - Areas
	28 - Argis
	29 - Arkming
	30 - Arnbjorn
	31 - Arngeir
	32 - Arnskar
	33 - Arrald
	34 - Asbjorn
	35 - Asgeir
	36 - Aslfur
	37 - Assur
	38 - Atar
	39 - Audmund
	40 - Aventus
	41 - Avulstein
	42 - Badnir
	43 - Balbus
	44 - Baldor
	45 - Balfring
	46 - Balgruuf
	47 - Balimund
	48 - Barirrid
	49 - Barknar
	50 - Baslod
	51 - Bassianus
	52 - Bathmar
	53 - Bato
	54 - Batou
	55 - Bedraflod
	56 - Bedrir
	57 - Beirand
	58 - Beirir
	59 - Belrand
	60 - Benkum
	61 - Benor
	62 - Bersi
	63 - Bittneld
	64 - Bjadmund
	65 - Bjalfi
	66 - Bjorlam
	67 - Bjornolfr
	68 - Bolgeir
	69 - Bolli
	70 - Bolund
	71 - Borgny
	72 - Bormir
	73 - Borri
	74 - Borvir
	75 - Botrir
	76 - Bottar
	77 - Brandr
	78 - Briehl
	79 - Brill
	80 - Briring
	81 - Brond
	82 - Bronrod
	83 - Brunwulf
	84 - Brurid
	85 - Bryngrim
	86 - Brynjolf
	87 - Brynjolfr
	88 - Bulfrek
	89 - Burd
	90 - Calder
	91 - Carsten
	92 - Christer
	93 - Cristus
	94 - Daglin
	95 - Dagur
	96 - Dathman
	97 - Dengeir
	98 - Deor
	99 - Drahff
	100 - Drennen
	101 - Dryngheid
	102 - Eifid
	103 - Eimar
	104 - Einarth
	105 - Eitar
	106 - Elgrim
	107 - Elmus
	108 - Embry
	109 - Engar
	110 - Ennbjof
	111 - Eorlund
	112 - Ergnir
	113 - Erich
	114 - Erik
	115 - Erikur
	116 - Erlendr
	117 - Esbern
	118 - Fafnir
	119 - Falk
	120 - Fanar
	121 - Farengar
	122 - Farkas
	123 - Felldir
	124 - Fenrig
	125 - Filnjar
	126 - Fjol
	127 - Fjorgeir
	128 - Fjori
	129 - Fjorrod
	130 - Fjotreid
	131 - Fjrokvar
	132 - Forstaag
	133 - Fraki
	134 - Frald
	135 - Frik
	136 - Frodnar
	137 - Frofnir
	138 - Froki
	139 - Frorkmar
	140 - Frothar
	141 - Fultheim
	142 - Galmar
	143 - Garding
	144 - Garthar
	145 - Garuk
	146 - Geilir
	147 - Geimund
	148 - Geirlund
	149 - Gestur
	150 - Gissur
	151 - Gjak
	152 - Gjalund
	153 - Gjuk
	154 - Gloth
	155 - Godrod
	156 - Gogrek
	157 - Golldir
	158 - Gonnar
	159 - Gorm
	160 - Gort
	161 - Gralnach
	162 - Graring
	163 - Gregor
	164 - Grimvar
	165 - Grisvar
	166 - Gromm
	167 - Gudling
	168 - Gukimir
	169 - Gunder
	170 - Gunding
	171 - Gundlar
	172 - Gunjar
	173 - Gunmar
	174 - Gunnar
	175 - Guthrum
	176 - Haakon
	177 - Hadring
	178 - Hadvar
	179 - Haening
	180 - Haesmar
	181 - Hafid
	182 - Hafnar
	183 - Hagrad
	184 - Hajvarr
	185 - Hakar
	186 - Haki
	187 - Haknir
	188 - Hakon
	189 - Halbarn
	190 - Hallvaror
	191 - Halof
	192 - Halvar
	193 - Haming
	194 - Hamlof
	195 - Hamvir
	196 - Hans
	197 - Hargar
	198 - Harlaug
	199 - Harrald
	200 - Havilstein
	201 - Heddic
	202 - Hefadmir
	203 - Heidmir
	204 - Heifnir
	205 - Heimskr
	206 - Heimvar
	207 - Heinrich
	208 - Helvard
	209 - Hemming
	210 - Henrik
	211 - Heratar
	212 - Herd
	213 - Hern
	214 - Hewnon
	215 - Higil
	216 - Hil
	217 - Hirnir
	218 - Hisin
	219 - Hjalfar
	220 - Hjar
	221 - Hjoldir
	222 - Hjornskar
	223 - Hjorunn
	224 - Hjrondir
	225 - Hlar
	226 - Hlofgar
	227 - Hloggar
	228 - Hlora
	229 - Hlormar
	230 - Hod
	231 - Hodlismod
	232 - Hofgrir
	233 - Hogni
	234 - Hoki
	235 - Holgeir
	236 - Holger
	237 - Holmar
	238 - Honmund
	239 - Honthjolf
	240 - Horgeir
	241 - Horik
	242 - Horkvir
	243 - Horm
	244 - Horstar
	245 - Hrargal
	246 - Hreinn
	247 - Hridi
	248 - Hrisskar
	249 - Hroar
	250 - Hrodulf
	251 - Hroggar
	252 - Hrol
	253 - Hroldar
	254 - Hrollod
	255 - Hrolmir
	256 - Hrondar
	257 - Hrongar
	258 - Hrothmund
	259 - Hrundi
	260 - Hugin
	261 - Hulgarth
	262 - Hunroor
	263 - Hurg
	264 - Hurnfing
	265 - Hurolf
	266 - Hylf
	267 - Idlami
	268 - Idolaf
	269 - Igmund
	270 - Ingmar
	271 - Irlof
	272 - Irnskar
	273 - Irroke
	274 - Istar
	275 - Itar
	276 - Iver
	277 - Jayred
	278 - Jenssen
	279 - Jervar
	280 - Jesper
	281 - Jod
	282 - Jofnhild
	283 - Jofthor
	284 - Jolf
	285 - Jolgeir
	286 - Jollring
	287 - Jon
	288 - Jorck
	289 - Jorgen
	290 - Joric
	291 - Jorleif
	292 - Jorn
	293 - Jorundr
	294 - Jurgen
	295 - Kai
	296 - Kalthar
	297 - Karl
	298 - Keld
	299 - Kibell
	300 - Kjar
	301 - Kjeld
	302 - Kleppr
	303 - Klimmek
	304 - Knjakr
	305 - Knud
	306 - Knurguri
	307 - Kodlak
	308 - Kodrir
	309 - Korir
	310 - Korst
	311 - Kottir
	312 - Kraldar
	313 - Kunthar
	314 - Kust
	315 - Kuvar
	316 - Kvenel
	317 - Kyr
	318 - Lars
	319 - Larthjar
	320 - Lassnr
	321 - Leifur
	322 - Leigelf
	323 - Lemkil
	324 - Llewellyn
	325 - Lod
	326 - Lodi
	327 - Lodvar
	328 - Logrolf
	329 - Logvaar
	330 - Lokil
	331 - Lokir
	332 - Lond
	333 - Lorenz
	334 - Lorkmir
	335 - Lorod
	336 - Lortheim
	337 - Lund
	338 - Lygrleid
	339 - Lynch
	340 - Lynoit
	341 - Maering
	342 - Majni
	343 - Manheim
	344 - Markus
	345 - Mathies
	346 - Maul
	347 - Mendel
	348 - Metilius
	349 - Mikael
	350 - Miraak
	351 - Mogens
	352 - Molgrom
	353 - Mralki
	354 - Msirae
	355 - Narfi
	356 - Nelkir
	357 - Nels
	358 - Newheim
	359 - Niels
	360 - Nikulas
	361 - Nils
	362 - Norring
	363 - Odar
	364 - Odfel
	365 - Odmi
	366 - Oengul
	367 - Ogmund
	368 - Olaf
	369 - Olav
	370 - Olfand
	371 - Olfrid
	372 - Ollrod
	373 - Ongar
	374 - Onmi
	375 - Onmund
	376 - Orgnar
	377 - Orgnolf
	378 - Ormvard
	379 - Orthjolf
	380 - Ortis
	381 - Oslaf
	382 - Pactur
	383 - Pelf
	384 - Radd
	385 - Raerek
	386 - Raflod
	387 - Ragnar
	388 - Rakoslod
	389 - Ralof
	390 - Ranmir
	391 - Rargal
	392 - Regner
	393 - Reinhardt
	394 - Reistr
	395 - Reves
	396 - Rhorlak
	397 - Rigel
	398 - Rigmor
	399 - Rissing
	400 - Rogen
	401 - Roggi
	402 - Roggvar
	403 - Roggvir
	404 - Rolf
	405 - Rolff
	406 - Rolgarel
	407 - Roliand
	408 - Rorik
	409 - Rorlund
	410 - Rundi
	411 - Rustleif
	412 - Sabjorn
	413 - Saerlund
	414 - Saetring
	415 - Sarnir
	416 - Sattir
	417 - Savard
	418 - Sibbi
	419 - Siddgeir
	420 - Sifknir
	421 - Sifnar
	422 - Sigaar
	423 - Sigar
	424 - Sigurd
	425 - Sigvatr
	426 - Sild
	427 - Sinding
	428 - Sinmir
	429 - Sirgar
	430 - Sirkjorg
	431 - Sittar
	432 - Sjarnfid
	433 - Sjoring
	434 - Sjorvar
	435 - Skaggi
	436 - Skald
	437 - Skeggr
	438 - Skjoldr
	439 - Skjor
	440 - Skuli
	441 - Skulnar
	442 - Skulvar
	443 - Snadir
	444 - Snar
	445 - Snedbrir
	446 - Snilf
	447 - Snilling
	448 - Snorreid
	449 - Snorri
	450 - Sogrlaf
	451 - Solaf
	452 - Sold
	453 - Sond
	454 - Sor
	455 - Sorkvild
	456 - Stalf
	457 - Star
	458 - Steirod
	459 - Sten
	460 - Stenvar
	461 - Stig
	462 - Storn
	463 - Styrbjorn
	464 - Styrr
	465 - Sulvar
	466 - Svaknir
	467 - Sven
	468 - Svog
	469 - Talsgar
	470 - Thadgeir
	471 - Thaer
	472 - Thalin
	473 - Tharsten
	474 - Thelen
	475 - Thian
	476 - Thjollod
	477 - Thonar
	478 - Thongar
	479 - Thongvor
	480 - Thonjolf
	481 - Thonnir
	482 - Thorald
	483 - Thorek
	484 - Thorgar
	485 - Thoring
	486 - Thormoor
	487 - Thorygg
	488 - Throknolf
	489 - Thrud
	490 - Thrynn
	491 - Thurek
	492 - Tolan
	493 - Tolfdir
	494 - Tolgan
	495 - Toralf
	496 - Torbal
	497 - Torbjorn
	498 - Torkild
	499 - Torolf
	500 - Torsten
	501 - Torvar
	502 - Torygg
	503 - Tove
	504 - Trilf
	505 - Tsun
	506 - Tulvur
	507 - Tymvaul
	508 - Ulfberth
	509 - Ulfgar
	510 - Ulfr
	511 - Ulfric
	512 - Unmid
	513 - Urfing
	514 - Urik
	515 - Vald
	516 - Valdar
	517 - Valdemar
	518 - Valdimar
	519 - Valdr
	520 - Valgeir
	521 - Valund
	522 - Vanik
	523 - Vekel
	524 - Velfred
	525 - Verner
	526 - Vidgrod
	527 - Viding
	528 - Vidkun
	529 - Vidrald
	530 - Vigge
	531 - Vignar
	532 - Vigunn
	533 - Vilkas
	534 - Vilod
	535 - Vipir
	536 - Virgerd
	537 - Virkmund
	538 - Volk
	539 - Vongvild
	540 - Vorstag
	541 - Vulwulf
	542 - Wilhelm
	543 - Wilmuth
	544 - Wrath
	545 - Wulf
	546 - Wulfgar
	547 - Wuunferth
	548 - Yngling
	549 - Yngvar
	550 - Yrsarald

Female Nord Names ( sex = 2, first name group = 3 )
	1 -  Abelone
	2 -  Adisla
	3 -  Aela
	4 -  Aeri
	5 - Aeta
	6 - Agata
	7 - Agna
	8 - Agnete
	9 - Agni
	10 - Agnis
	11 - Aldi
	12 - Alea
	13 - Alfhild
	14 - Alga
	15 - Alva
	16 - Alvide
	17 - Angi
	18 - Anise
	19 - Anja
	20 - Annekke
	21 - Anska
	22 - Argi
	23 - Ari
	24 - Asta
	25 - Astrid
	26 - Aumsi
	27 - Barri
	28 - Beitild
	29 - Bergljot
	30 - Bergritte
	31 - Betrid
	32 - Birna
	33 - Bjartur
	34 - Bodil
	35 - Bolfrida
	36 - Boti
	37 - Brasteir
	38 - Breya
	39 - Brina
	40 - Britte
	41 - Bryling
	42 - Bujold
	43 - Dagny
	44 - Danica
	45 - Dorthe
	46 - Drifa
	47 - Edith
	48 - Edla
	49 - Eigma
	50 - Eirid
	51 - Eiruki
	52 - Eisa
	53 - Ekkhi
	54 - Elda
	55 - Elisif
	56 - Else
	57 - Emfrid
	58 - Erdi
	59 - Eris
	60 - Erna
	61 - Evette
	62 - Eydis
	63 - Eyja
	64 - Faida
	65 - Fanari
	66 - Fastred
	67 - Finna
	68 - Fjola
	69 - Fjori
	70 - Fjotra
	71 - Frabbi
	72 - Fralia
	73 - Frea
	74 - Freir
	75 - Frida
	76 - Fridrika
	77 - Fruki
	78 - Fryfnhild
	79 - Fryssa
	80 - Fura
	81 - Gerda
	82 - Gerdur
	83 - Gisli
	84 - Gormlaith
	85 - Greidil
	86 - Grelka
	87 - Grelod
	88 - Grerid
	89 - Greta
	90 - Grete
	91 - Gretta
	92 - Grosta
	93 - Gwendolyn
	94 - Haelga
	95 - Haema
	96 - Hafjorg
	97 - Hamal
	98 - Haran
	99 - Heddvild
	100 - Hefid
	101 - Helga
	102 - Helgi
	103 - Helgird
	104 - Herkja
	105 - Hermir
	106 - Hert
	107 - Hestla
	108 - Hidar
	109 - Hilde
	110 - Hillevi
	111 - Hilund
	112 - Hjolfrodi
	113 - Hjordis
	114 - Hjotra
	115 - Hoddreid
	116 - Holmgeira
	117 - Horski
	118 - Hrefna
	119 - Hreirek
	120 - Hroa
	121 - Hroki
	122 - Hrordis
	123 - Huki
	124 - Hulda
	125 - Hyring
	126 - Iddra
	127 - Idgrod
	128 - Igna
	129 - Ilfhild
	130 - Illdi
	131 - Imsin
	132 - Inge
	133 - Ingjard
	134 - Ingokning
	135 - Ingrid
	136 - Ingun
	137 - Iona
	138 - Irgnir
	139 - Jala
	140 - Jensine
	141 - Jolding
	142 - Jora
	143 - Jordis
	144 - Jsashe
	145 - Kar
	146 - Karita
	147 - Katla
	148 - Katria
	149 - Kili
	150 - Kirsten
	151 - Kjolver
	152 - Kolfinna
	153 - Laila
	154 - Lami
	155 - Liesl
	156 - Lillith
	157 - Lisaa
	158 - Lisbet
	159 - Lydia
	160 - Lynly
	161 - Macalla
	162 - Maeva
	163 - Malene
	164 - Maren
	165 - Margarte
	166 - Margret
	167 - Matlara
	168 - Maven
	169 - Merete
	170 - Merta
	171 - Mette
	172 - Minette
	173 - Mjoll
	174 - Morwen
	175 - Narri
	176 - Nille
	177 - Nilsine
	178 - Njada
	179 - Nura
	180 - Olava
	181 - Olda
	182 - Olfeigr
	183 - Olfina
	184 - Ondi
	185 - Oriella
	186 - Orla
	187 - Petrine
	188 - Rakel
	189 - Rangela
	190 - Rigel
	191 - Rigmor
	192 - Rikke
	193 - Ringvild
	194 - Risi
	195 - Rona
	196 - Rostlogi
	197 - Ruki
	198 - Runa
	199 - Signy
	200 - Sigrid
	201 - Silda
	202 - Siri
	203 - Sissel
	204 - Skjorta
	205 - Sofie
	206 - Sonir
	207 - Sonje
	208 - Sorli
	209 - Sottilde
	210 - Susanna
	211 - Svana
	212 - Svari
	213 - Svenja
	214 - Swanhvir
	215 - Sylgja
	216 - Tekla
	217 - Temba
	218 - Thaena
	219 - Thalestris
	220 - Threki
	221 - Thunmund
	222 - Tilde
	223 - Tilma
	224 - Tormir
	225 - Tova
	226 - Ulfrun
	227 - Ulrika
	228 - Una
	229 - Ursine
	230 - Uthgerd
	231 - Val
	232 - Valerica
	233 - Vigdis
	234 - Vori
	235 - Ygfa
	236 - Yrsa
	237 - Ysolda

Nord Last Names ( last name group = 3 )
	1 - Banner-Torn
	2 - Battle-Born
	3 - Bear-Arm
	4 - Bearclaw
	5 - Black-Briar
	6 - Black-Nail
	7 - Black-Skeever
	8 - Blackthorn
	9 - Bloodmouth
	10 - Blue-Tooth
	11 - Bog-Trotter
	12 - Bold-Lute
	13 - Brandy-Mug
	14 - Cairn-Breaker
	15 - Crag-Jumper
	16 - Crag-Strider
	17 - Cruel-Sea
	18 - Dark-Heart
	19 - Death-Brand
	20 - Deep-Raed
	21 - Doom-Sayer
	22 - Early-Dawn
	23 - Ebonhand
	24 - Elf-Hewer
	25 - Ember-Master
	26 - Fair-Shield
	27 - Far-Shield
	28 - Farseer
	29 - Fine-Hair
	30 - Fire-Eye
	31 - Fire-Tamer
	32 - Firebeard
	33 - Flat-Foot
	34 - Fog-Eye
	35 - Fork-Beard
	36 - Free-Winter
	37 - Frozen-Heart
	38 - God-Hater
	39 - Golden-Hilt
	40 - Gray-Mane
	41 - Gray-Wave
	42 - Hairy-Breeks
	43 - Hairy-Legs
	44 - Half-Troll
	45 - Halfhand
	46 - Hard-Heart
	47 - Hard-Mouth
	48 - Head-Smasher
	49 - Heart-Fang
	50 - Hearth-Healer
	51 - Highlander
	52 - Hoar-Blood
	53 - Hollowleg
	54 - Home-Wrecker
	55 - Honey-Hand
	56 - Horse-Crusher
	57 - Horse-Mouth
	58 - Ice-Fist
	59 - Ice-Mane
	60 - Ice-Shaper
	61 - Ice-Veins
	62 - Iron-Fur
	63 - Iron-Hand
	64 - Iron-Shaper
	65 - Ironhand
	66 - Ironkettle
	67 - Kaarn
	68 - Knot-Beard
	69 - Law-Giver
	70 - Lonely-Gale
	71 - Long-Leg
	72 - Long-Tooth
	73 - Maiden-Loom
	74 - Maulhand
	75 - Oaken-Hull
	76 - Oath-Giver
	77 - Once-Honored
	78 - Pure-Spring
	79 - Ravencrone
	80 - Red-Arm
	81 - Red-Shoal
	82 - Red-Spear
	83 - Red-Tooth
	84 - Rock-Chucker
	85 - Rockbreaker
	86 - Sable-Hilt
	87 - Salt-Plank
	88 - Salt-Sage
	89 - Scar-Face
	90 - Secret-Fire
	91 - Seven-Swords
	92 - Shatter-Shield
	93 - Silver-Blood
	94 - Six-Fingers
	95 - Snow-Shod
	96 - Snow-Song
	97 - Star-Sung
	98 - Stone-Eye
	99 - Stone-Fist
	100 - Stonearm
	101 - Stormcloak
	102 - Strong-Arm
	103 - Strong-Heart
	104 - Strong-Voice
	105 - Sun-Killer
	106 - Swift-Sailer
	107 - Tallowhand
	108 - Thrallmaster
	109 - Thrice-Pierced
	110 - Trollsbane
	111 - Twice-Killed
	112 - War-Anvil
	113 - War-Bear
	114 - Wave-Breaker
	115 - Wet-Pommel
	116 - Whetted-Blade
	117 - Whitebeard
	118 - Whitemane
	119 - Wide-Arm
	120 - Wild-Blood
	121 - Wind-Eye
	122 - Wind-Shifter
	123 - Windrime
	124 - Wine-Sot
	125 - Wolf-Runner
	126 - Woodcutter

Male Redguard Names ( sex = 1, first name group = 4 )
	1 - A'tor
	2 - Achel
	3 - Ahtar
	4 - Alesan
	5 - Alonzo
	6 - Alusaron
	7 - Amir
	8 - Amren
	9 - Armand
	10 - Ataf
	11 - Athon
	12 - Avidius
	13 - Avik
	14 - Azani
	15 - Azzada
	16 - Azzadal
	17 - Azzan
	18 - Baral
	19 - Basil
	20 - Baurus
	21 - Bodean
	22 - Boldon
	23 - Borissean
	24 - Brennan
	25 - Brenuin
	26 - Camaron
	27 - Camas
	28 - Casimir
	29 - Casnar
	30 - Chark
	31 - Chrelm
	32 - Cirroc
	33 - Cluson
	34 - Coyle
	35 - Curtis
	36 - Cyrus
	37 - Daracy
	38 - Daron
	39 - Delmar
	40 - Demetrius
	41 - Din
	42 - Dinok
	43 - Domalen
	44 - Dorian
	45 - Dortodd
	46 - Duadeen
	47 - Dudley
	48 - Endon
	49 - Ennah
	50 - Ennis
	51 - Ernest
	52 - Falion
	53 - Farmin
	54 - Favis
	55 - Fihada
	56 - Firir
	57 - Frink
	58 - Gancolm
	59 - Garry
	60 - Glannison
	61 - Gogan
	62 - Gor
	63 - Greklith
	64 - Haekwon
	65 - Hakan
	66 - Haldyn
	67 - Hasell
	68 - Hayle
	69 - Hickim
	70 - Hillod
	71 - Hinald
	72 - Ian
	73 - Ilden
	74 - Iminda
	75 - Isleif
	76 - Isran
	77 - Jaganvir
	78 - Jair
	79 - Jalbert
	80 - Jart
	81 - Jathlanie
	82 - Jawanan
	83 - Jeleen
	84 - Jelin
	85 - Jim
	86 - Jine
	87 - Jon
	88 - Jonis
	89 - Juncan
	90 - K'avar
	91 - Kalorter
	92 - Karrod
	93 - Kayd
	94 - Kaye
	95 - Kellen
	96 - Kelvyn
	97 - Kematu
	98 - Kewan
	99 - Khafiz
	100 - Kinther
	101 - Kithlan
	102 - Kotaro
	103 - Lakene
	104 - Lanald
	105 - Lathon
	106 - Lesley
	107 - Lhotun
	108 - Lidebras
	109 - Limark
	110 - Maiko
	111 - Majid
	112 - Mani
	113 - Maramal
	114 - Nachael
	115 - Namasur
	116 - Nannithon
	117 - Nazeem
	118 - Nazir
	119 - Neville
	120 - Nistacey
	121 - Orinthal
	122 - Orrin
	123 - Owyn
	124 - Penald
	125 - Phintias
	126 - Pranal
	127 - Prnell
	128 - Provlith
	129 - Pyke
	130 - Raccan
	131 - Raig
	132 - Razelan
	133 - Relan
	134 - Rellian
	135 - Rhano
	136 - Rinina
	137 - Rissinia
	138 - Roderick
	139 - Ruslan
	140 - Sader
	141 - Sason
	142 - Shadr
	143 - Shamar
	144 - Shameer
	145 - Shelden
	146 - Shenk
	147 - Silasson
	148 - Sorian
	149 - Soscean
	150 - Stanet
	151 - Stargel
	152 - Stenet
	153 - Sterdecan
	154 - Sticey
	155 - Talan
	156 - Talib
	157 - Thaik
	158 - Thedret
	159 - Therdon
	160 - Torline
	161 - Tralan
	162 - Trasteve
	163 - Trayvond
	164 - Trithik
	165 - Vander
	166 - Varnado
	167 - Vhosek
	168 - Vilamon
	169 - Voa
	170 - Wallace
	171 - Waylas
	172 - Wayn
	173 - Wilbur
	174 - Willet
	175 - Winson

Female Redguard Names ( sex = 2, first name group = 4 )
	1 - Adara
	2 - Ahlam
	3 - Akorithi
	4 - Alusannah
	5 - Ancola
	6 - Angelie
	7 - Anora
	8 - Anwen
	9 - Ashanta
	10 - Atmah
	11 - Aubk-i
	12 - Balan
	13 - Blubamka
	14 - Braith
	15 - Branwen
	16 - Caminda
	17 - Carmen
	18 - Chalone
	19 - Chanel
	20 - Charvek-si
	21 - Clavilla
	22 - Clesa
	23 - Dahlia
	24 - Dandsa
	25 - Davina
	26 - Dh'emka
	27 - Dhola
	28 - Domba
	29 - Dulian
	30 - Eletta
	31 - Elone
	32 - Ena
	33 - Enjine
	34 - Eriana
	35 - Erla
	36 - Ery
	37 - Faleen
	38 - Gwen
	39 - Hussonia
	40 - Iman
	41 - Isolde
	42 - Iszara
	43 - Jaline
	44 - Jamie
	45 - Jayri
	46 - Jeanne
	47 - Jearl
	48 - Jolda
	49 - Jonna
	50 - Kanet
	51 - Karlirah
	52 - Kati
	53 - Katie
	54 - Kerah
	55 - Kiara
	56 - Kirginia
	57 - Krisandra
	58 - Laire
	59 - Landa
	60 - Lashana
	61 - Lette
	62 - Lu'ah
	63 - Maelona
	64 - Malexa
	65 - Manicky
	66 - Margonet
	67 - Mariah
	68 - Minerva
	69 - Miniel
	70 - Mirisa
	71 - Monsey
	72 - Nanine
	73 - Neesha
	74 - Neminda
	75 - Niyya
	76 - Oleta
	77 - Pemenie
	78 - Ramati
	79 - Rasheda
	80 - Rayya
	81 - Relinda
	82 - Rhiannon
	83 - Rienna
	84 - Rithleen
	85 - Rochelle
	86 - Rohssan
	87 - Rona
	88 - Saadia
	89 - Saban
	90 - Saffir
	91 - Saliah
	92 - Salma
	93 - Sayma
	94 - Senyndie
	95 - Seren
	96 - Shafaye
	97 - Shardie
	98 - Shelley
	99 - Sherina
	100 - Sinia
	101 - Siona
	102 - Sudi
	103 - Sulesa
	104 - Tamika
	105 - Tanyin
	106 - Tavia
	107 - Tenville
	108 - Tiela
	109 - Tierra
	110 - Todwendy
	111 - Tonilia
	112 - Trevaia
	113 - Umana
	114 - Whitka
	115 - Yaeli
	116 - Yisra
	117 - Zaria

###Redguard Last Names ( last name group = 4 )
Male Breton Names ( sex = 1, first name group = 5 )
	1 - Achille
	2 - Aelwin
	3 - Alain
	4 - Alberic
	5 - Aleron
	6 - Alix
	7 - Alodie
	8 - Amaund
	9 - Ambroise
	10 - Amiable
	11 - Ancus
	12 - Andorak
	13 - Andre
	14 - Antoine
	15 - Anton
	16 - Arnand
	17 - Arniel
	18 - Arslan
	19 - Astav
	20 - Astien
	21 - Auberon
	22 - Baltham
	23 - Baragon
	24 - Barnand
	25 - Barthel
	26 - Baurion
	27 - Bedyctor
	28 - Belethor
	29 - Bendt
	30 - Beran
	31 - Bereditte
	32 - Bertram
	33 - Birard
	34 - Blaise
	35 - Bradon
	36 - Brandish
	37 - Brucetus
	38 - Celann
	39 - Christophe
	40 - Ciel
	41 - Cirges
	42 - Claude
	43 - Clinton
	44 - Colin
	45 - Corrick
	46 - Crendal
	47 - Cynric
	48 - Dalan
	49 - Damian
	50 - Danders
	51 - Daric
	52 - Davide
	53 - Debentien
	54 - Delacourt
	55 - Delvin
	56 - Detritus
	57 - Didier
	58 - Dilborn
	59 - Dorian
	60 - Eadwyre
	61 - Eamond
	62 - Edgar
	63 - Eduard
	64 - Edward
	65 - Elbert
	66 - Emmanuel
	67 - Ernand
	68 - Ernard
	69 - Ernest
	70 - Esmond
	71 - Etienne
	72 - Eugal
	73 - Faric
	74 - Farrington
	75 - Fenas
	76 - Ferarilie
	77 - Ferrum
	78 - Floyd
	79 - Francois
	80 - Frizkav
	81 - Frostien
	82 - Gaban
	83 - Gan
	84 - Gaspar
	85 - Gaston
	86 - Geon
	87 - Geor
	88 - Gepard
	89 - Gerard
	90 - Giraud
	91 - Glover
	92 - Gothryd
	93 - Grantham
	94 - Gregory
	95 - Guilbert
	96 - Hannibal
	97 - Hastrel
	98 - Herluin
	99 - Heseph
	100 - Idhdean
	101 - Inwold
	102 - Irbran
	103 - Istirus
	104 - Jadier
	105 - Jakben
	106 - Jauffre
	107 - Jean
	108 - Jeanciele
	109 - Jerian
	110 - Jhared
	111 - Jim
	112 - Jocien
	113 - Joncis
	114 - Jouane
	115 - Juillen
	116 - Kastus
	117 - Lanie
	118 - Lazare
	119 - Lewin
	120 - Listien
	121 - Louis
	122 - Lysandus
	123 - Malkoran
	124 - Manis
	125 - Marc
	126 - Marcel
	127 - Mathieu
	128 - Matthias
	129 - Maurice
	130 - Mebestien
	131 - Merard
	132 - Mercer
	133 - Merthierry
	134 - Moric
	135 - Myn
	136 - Noleon
	137 - Norbert
	138 - Octieve
	139 - Ogier
	140 - Ormax
	141 - Orrent
	142 - Paur
	143 - Perien
	144 - Phane
	145 - Philip
	146 - Phinis
	147 - Pierre
	148 - Relien
	149 - Renald
	150 - Rerlas
	151 - Reynald
	152 - Roberto
	153 - Roderic
	154 - Rodore
	155 - Roland
	156 - Rowley
	157 - Ruran
	158 - Salomon
	159 - Sam
	160 - Samuel
	161 - Sebastian
	162 - Senhyn
	163 - Simine
	164 - Socucius
	165 - Theranis
	166 - Thetrard
	167 - Thomas
	168 - Thorley
	169 - Thyr
	170 - Timothee
	171 - Traelius
	172 - Tristynak
	173 - Ulrich
	174 - Varnis
	175 - Verick
	176 - Vicente
	177 - Vincent
	178 - Willem
	179 - Ylbert

Female Breton Names ( sex = 2, first name group = 5 )
	1 - Abelle
	2 - Aditte
	3 - Adrienne
	4 - Ales
	5 - Alyssa
	6 - Ama
	7 - Amarie
	8 - Angeline
	9 - Annabelle
	10 - Antoinetta
	11 - Anya
	12 - Arbene
	13 - Arielle
	14 - Arzhela
	15 - Asciene
	16 - Aurane
	17 - Aurnie
	18 - Beatrice
	19 - Belene
	20 - Bernadette
	21 - Bernice
	22 - Biene
	23 - Blanche
	24 - Bothela
	25 - Bovkinna
	26 - Cairine
	27 - Callia
	28 - Candice
	29 - Carcette
	30 - Caroline
	31 - Chana
	32 - Cienne
	33 - Claudette
	34 - Colette
	35 - Cyndassa
	36 - Dabienne
	37 - Darene
	38 - Delphine
	39 - Derelle
	40 - Edre
	41 - Edwinna
	42 - Elisa
	43 - Elona
	44 - Elysana
	45 - Emusette
	46 - Eola
	47 - Erith
	48 - Erline
	49 - Estelle
	50 - Evangeline
	51 - Fasele
	52 - Fasile
	53 - Fianna
	54 - Francine
	55 - Frelene
	56 - Gulitte
	57 - Helviane
	58 - Heniele
	59 - Ildene
	60 - Irene
	61 - Isabeau
	62 - Isabelle
	63 - Janand
	64 - Jeanne
	65 - Jeberilie
	66 - Jolie
	67 - Joslin
	68 - Julienne
	69 - Kaie
	70 - Kelmena
	71 - Laelette
	72 - Leles
	73 - Lielle
	74 - Lirielle
	75 - Lisette
	76 - Luciana
	77 - Mabrelle
	78 - Madena
	79 - Malielle
	80 - Maline
	81 - Maranique
	82 - Marelle
	83 - Marguerite
	84 - Marie
	85 - Marielle
	86 - Mariette
	87 - Marthe
	88 - Masalinie
	89 - Matilde
	90 - Maurrie
	91 - Melie
	92 - Melisande
	93 - Mena
	94 - Michel
	95 - Milie
	96 - Mirabelle
	97 - Mitanne
	98 - Modhna
	99 - Muiri
	100 - Muriel
	101 - Mynisera
	102 - Nanette
	103 - Phebe
	104 - Pierlette
	105 - Piernette
	106 - Raelynn
	107 - Relie
	108 - Rhiada
	109 - Rianciene
	110 - Rochelle
	111 - Ronerelie
	112 - Roxanne
	113 - Roxy
	114 - Sabine
	115 - Senna
	116 - Sorine
	117 - Sosia
	118 - Surane
	119 - Sybille
	120 - Synette
	121 - Ursanne
	122 - Vienne
	123 - Virene
	124 - Vivienne
	125 - Yvara
	126 - Zoe

Breton Last Names ( last name group = 5 )
	1 - Acques
	2 - Admand
	3 - Adrard
	4 - Adrognese
	5 - Aethelred
	6 - Afranius
	7 - Alouette
	8 - Amedee
	9 - Amelion
	10 - Ancois
	11 - Andre
	12 - Aric
	13 - Arne
	14 - Arthe
	15 - Auline
	16 - Aumilie
	17 - Aurelie
	18 - Aurilie
	19 - Aurmine
	20 - Bantien
	21 - Beanique
	22 - Beauchamp
	23 - Beaufort
	24 - Belette
	25 - Bellamont
	26 - Beluelle
	27 - Berene
	28 - Bielle
	29 - Bienne
	30 - Bierles
	31 - Bincal
	32 - Birian
	33 - Blakeley
	34 - Bracques
	35 - Branck
	36 - Brigette
	37 - Broles
	38 - Brolus
	39 - Brutya
	40 - Canne
	41 - Caria
	42 - Caristiana
	43 - Channitte
	44 - Charascel
	45 - Charien
	46 - Chriditte
	47 - Cienne
	48 - Corgine
	49 - Dalomax
	50 - Denile
	51 - Desele
	52 - Diel
	53 - Dolbanitte
	54 - Don
	55 - Dorell
	56 - Draconis
	57 - Dufont
	58 - Eardwulf
	59 - Elbert
	60 - Ence
	61 - Endell
	62 - Endre
	63 - Ephine
	64 - Erelie
	65 - Ergalla
	66 - Ernarde
	67 - Ervine
	68 - Fanis
	69 - Fanriene
	70 - Farr
	71 - Festinius
	72 - Flyte
	73 - Fralinie
	74 - Franc
	75 - Frasoric
	76 - Frenck
	77 - Frernis
	78 - Frey
	79 - Galena
	80 - Galien
	81 - Gane
	82 - Geles
	83 - Gemain
	84 - Gemane
	85 - Gene
	86 - Genis
	87 - Geonette
	88 - Geontene
	89 - Georick
	90 - Gernand
	91 - Gernis
	92 - Gestor
	93 - Geves
	94 - Gilelle
	95 - Guevenne
	96 - Guimard
	97 - Gulitte
	98 - Hastien
	99 - Herrick
	100 - Imbel
	101 - Jastal
	102 - Jeanard
	103 - Jeannie
	104 - Jeline
	105 - Jemane
	106 - Jend
	107 - Jenseric
	108 - Jes
	109 - Jodoin
	110 - Jolvanne
	111 - Jondrelle
	112 - Julalanie
	113 - Jurard
	114 - Kirbatha
	115 - Labouche
	116 - Laelippe
	117 - Lariat
	118 - LaRouche
	119 - Laul
	120 - Leland
	121 - Lelles
	122 - Lemonds
	123 - Lencolia
	124 - Leoriane
	125 - Letrush
	126 - Limax
	127 - Liric
	128 - Lirrian
	129 - Litte
	130 - Loche
	131 - Lort
	132 - Lothaire
	133 - Luseph
	134 - Lylvieve
	135 - Maborel
	136 - Macile
	137 - Madach
	138 - Magius
	139 - Malene
	140 - Mallory
	141 - Manette
	142 - Manis
	143 - Mannick
	144 - Marane
	145 - Marence
	146 - Maric
	147 - Marie
	148 - Marquardt
	149 - Masolaude
	150 - Masoriane
	151 - Mastien
	152 - Maston
	153 - Matreinace
	154 - Maul
	155 - Maulinie
	156 - Maurard
	157 - Melie
	158 - Mene
	159 - Merchad
	160 - Merian
	161 - Meric
	162 - Merowald
	163 - Metrick
	164 - Milielle
	165 - Milvan
	166 - Moile
	167 - Mon
	168 - Mona
	169 - Monet
	170 - Moniel
	171 - Montrose
	172 - Mornardl
	173 - Morrard
	174 - Motierre
	175 - Nathans
	176 - Nermarc
	177 - Nestal
	178 - Nin
	179 - Northwode
	180 - Nytte
	181 - Oges
	182 - Onis
	183 - Ottus
	184 - Palielle
	185 - Panoit
	186 - Peneles
	187 - Perrick
	188 - Petit
	189 - Phiencel
	190 - Philulanie
	191 - Phirrienele
	192 - Pierrane
	193 - Rane
	194 - Rarnis
	195 - Renault
	196 - Renoit
	197 - Retene
	198 - Retiene
	199 - Rielle
	200 - Rirne
	201 - Riscel
	202 - Rolaine
	203 - Rolston
	204 - Rostorard
	205 - San
	206 - Sele
	207 - Selone
	208 - Sette
	209 - Sidrey
	210 - Sintieve
	211 - Spode
	212 - Stedrine
	213 - Stegine
	214 - Stentor
	215 - Stieve
	216 - Stoine
	217 - Stroud
	218 - Surilie
	219 - Sylbenitte
	220 - Tailas
	221 - Thierry
	222 - Tilwald
	223 - Traven
	224 - Tussaud
	225 - Tyne
	226 - Valtieri
	227 - Vanne
	228 - Vautrine
	229 - Velain
	230 - Vette
	231 - Viernis
	232 - Viralaine
	233 - Virane
	234 - Virmaulese
	235 - Wirich
	236 - Ysciele
	237 - Yvienne

Male Reachman Names ( sex = 1, first name group = 6 )
	1 - Ainethach
	2 - Angof
	3 - Banning
	4 - Belchimac
	5 - Braig
	6 - Brinarch
	7 - Caoiss
	8 - Cedran
	9 - Corintthac
	10 - Cosnach
	11 - Degaine
	12 - Donnel
	13 - Dryston
	14 - Duach
	15 - Duraeg
	16 - Durcorach
	17 - Eltrys
	18 - Enmon
	19 - Ennoc
	20 - Garvey
	21 - Grivier
	22 - Hathrasil
	23 - Imedhnain
	24 - Kaenach
	25 - Kyrtos
	26 - Labhraidh
	27 - Leovic
	28 - Lesuin
	29 - Madanach
	30 - Moricar
	31 - Morven
	32 - Nak'tah
	33 - Nepos
	34 - Odvan
	35 - Omluag
	36 - Perth
	37 - Rahd
	38 - Rondach
	39 - Strastnoc
	40 - Tuthul
	41 - Tynan
	42 - Uraccen
	43 - Urfon
	44 - Weylin
	45 - Wuhkusto

Female Reachman Names ( sex = 2, first name group = 6 )
	1 - Alona
	2 - Bothela
	3 - Brunna
	4 - Celarion
	5 - Daighre
	6 - Drascua
	7 - Janavynn
	8 - Konia
	9 - Lessa
	10 - Linele
	11 - Lydi
	12 - Melka
	13 - Mena
	14 - Mercedene
	15 - Morrigh
	16 - Petra
	17 - Shilia
	18 - Shillin
	19 - Uaile
	20 - Voada

###Reachman Last Names ( last name group = 6 )
Male Altmer Names ( sex = 1, first name group = 7 )
	1 - Aicantar
	2 - Aldaril
	3 - Anarenen
	4 - Ancano
	5 - Ancarion
	6 - Ancotar
	7 - Andil
	8 - Angalmo
	9 - Angoril
	10 - Aranath
	11 - Areldil
	12 - Areldur
	13 - Aringoth
	14 - Arkved
	15 - Armion
	16 - Arondil
	17 - Aronil
	18 - Arrille
	19 - Arterion
	20 - Athellor
	21 - Calcelmo
	22 - Calindil
	23 - Carandial
	24 - Carecalmo
	25 - Caryarel
	26 - Celarus
	27 - Celedaen
	28 - Cirion
	29 - Corelas
	30 - Coreriil
	31 - Corridalf
	32 - Cyreriil
	33 - Earil
	34 - Earmil
	35 - Eldamil
	36 - Elidor
	37 - Enrion
	38 - Eraamion
	39 - Errandil
	40 - Erundil
	41 - Estormo
	42 - Faelian
	43 - Fainertil
	44 - Falanaamo
	45 - Falcar
	46 - Fanildil
	47 - Fasendil
	48 - Fiiriel
	49 - Gilgondorin
	50 - Gladroon
	51 - Halion
	52 - Hecerinde
	53 - Henantier
	54 - Hindaril
	55 - Hirtel
	56 - Honditar
	57 - Hyarnarenquar
	58 - Ilmiril
	59 - Inganar
	60 - Iroroon
	61 - Itermerel
	62 - Kalalian
	63 - Kalallon
	64 - Kardryn
	65 - Kelkemmenar
	66 - Kornalus
	67 - Landorume
	68 - Linwe
	69 - Lithnilian
	70 - Lorcalin
	71 - Mankar
	72 - Mannimarco
	73 - Meanen
	74 - Melaran
	75 - Merandil
	76 - Merildor
	77 - Meryaran
	78 - Mithra
	79 - Mollimo
	80 - Moranarg
	81 - Mororurg
	82 - Mossanon
	83 - Muril
	84 - Nande
	85 - Naris
	86 - Nelacar
	87 - Nerien
	88 - Norionil
	89 - Nurelion
	90 - Ocato
	91 - Ohtimbar
	92 - Olquar
	93 - Ondolemar
	94 - Orintur
	95 - Ormil
	96 - Orthorn
	97 - Qorwynn
	98 - Quaranir
	99 - Raven
	100 - Rimintil
	101 - Rulindil
	102 - Rumare
	103 - Runil
	104 - Salmo
	105 - Sanyon
	106 - Saruril
	107 - Saura
	108 - Sauriil
	109 - Seanwen
	110 - Seridur
	111 - Sinderion
	112 - Sinyaramen
	113 - Solimon
	114 - Sorcalin
	115 - Suurootan
	116 - Tandil
	117 - Tauryon
	118 - Telinturco
	119 - Tilmo
	120 - Tragrim
	121 - Tumindil
	122 - Tunengore
	123 - Tusamircil
	124 - Tyermaillin
	125 - Ulundil
	126 - Umbacano
	127 - Undil
	128 - Ungarion
	129 - Uulernil
	130 - Valmir
	131 - Viarmo
	132 - Vingalmo
	133 - Volanaro
	134 - Voranil
	135 - Yakov
	136 - Yanniss
	137 - Yarnar

Female Altmer Names ( sex = 2, first name group = 7 )
	1 - Alwaen
	2 - Angalsama
	3 - Anirne
	4 - Aranalda
	5 - Ardaline
	6 - Ardarume
	7 - Ariente
	8 - Arivanya
	9 - Arquen
	10 - Aryarie
	11 - Astante
	12 - Atraena
	13 - Aurelinwae
	14 - Calina
	15 - Calmaninde
	16 - Camandil
	17 - Caminalda
	18 - Carahil
	19 - Caranya
	20 - Celria
	21 - Cindanwe
	22 - Ciralinde
	23 - Culumaire
	24 - Cumanya
	25 - Curwe
	26 - Dhaunayne
	27 - Earana
	28 - Eilonwy
	29 - Elanande
	30 - Elante
	31 - Eldafire
	32 - Elenwen
	33 - Endarie
	34 - Erissare
	35 - Erranil
	36 - Estalenya
	37 - Estirdalin
	38 - Estoril
	39 - Faire
	40 - Faralda
	41 - Fistelle
	42 - Goranthir
	43 - Helende
	44 - Hession
	45 - Hlidara
	46 - Iirenoore
	47 - Imare
	48 - Iniel
	49 - Irinwe
	50 - Karinnarre
	51 - Lorurmend
	52 - Medora
	53 - Minorne
	54 - Mirie
	55 - Mirkrand
	56 - Muurine
	57 - Nalcarya
	58 - Nenya
	59 - Nerussa
	60 - Niranye
	61 - Nirya
	62 - Ohtesse
	63 - Palonirya
	64 - Ranaline
	65 - Reldith
	66 - Rinnala
	67 - Ruma
	68 - Saursha
	69 - Shashara
	70 - Siltalaure
	71 - Sirilonwe
	72 - Sondaale
	73 - Sontaire
	74 - Taarie
	75 - Tandilwe
	76 - Tarerane
	77 - Tenyeminwe
	78 - Termanwe
	79 - Valie
	80 - Varulae
	81 - Viraninde

Altmer Last Names ( last name group = 7 )
	1 - Aliaria
	2 - Areleth
	3 - Ateldil
	4 - Auralus
	5 - Corelanya
	6 - Culanarin
	7 - Duure
	8 - Egun
	9 - Elsinor
	10 - Errinorne
	11 - Firlamil
	12 - Galerion
	13 - Hilnore
	14 - Inecil
	15 - Itelnoril
	16 - Lloderion
	17 - Mothril
	18 - Nivulirel
	19 - Numralion
	20 - Piryaden
	21 - Ravenwatch
	22 - Rilis
	23 - Rumilion
	24 - Salolinwe
	25 - Ternerben
	26 - Urayel
	27 - Wethrin

Male Bosmer Names ( sex = 1, first name group = 8 )
	1 - Aengoth
	2 - Aengvir
	3 - Agarond
	4 - Alendis
	5 - Allimir
	6 - Alveleg
	7 - Amragor
	8 - Amring
	9 - Anglalos
	10 - Anglor
	11 - Anguilon
	12 - Anoriath
	13 - Anruin
	14 - Arannir
	15 - Arathor
	16 - Argorn
	17 - Athragar
	18 - Athrelor
	19 - Baenlin
	20 - Baeralorn
	21 - Baradras
	22 - Basth
	23 - Berengeval
	24 - Bolrin
	25 - Bolwing
	26 - Bragor
	27 - Brallion
	28 - Brellin
	29 - Brithaur
	30 - Brithroth
	31 - Brodras
	32 - Brolmir
	33 - Caenlin
	34 - Caenlorn
	35 - Celegorn
	36 - Cingaer
	37 - Cingor
	38 - Clendil
	39 - Colas
	40 - Coman
	41 - Cun
	42 - Daenlin
	43 - Dangor
	44 - Denegor
	45 - Dervenin
	46 - Dirding
	47 - Dondir
	48 - Draeg
	49 - Edorfin
	50 - Elberoth
	51 - Elegal
	52 - Eliras
	53 - Elisgorn
	54 - Eloroth
	55 - Elrindir
	56 - Endrast
	57 - Endring
	58 - Engaer
	59 - Engorm
	60 - Enilroth
	61 - Enthir
	62 - Eradan
	63 - Erasmo
	64 - Eridor
	65 - Erradan
	66 - Erthor
	67 - Erval
	68 - Faendal
	69 - Faldan
	70 - Fargoth
	71 - Faulgor
	72 - Fenton
	73 - Fillin
	74 - Fimmion
	75 - Findulain
	76 - Fithragaer
	77 - Foroch
	78 - Foronir
	79 - Gadnor
	80 - Gaeldol
	81 - Gaenor
	82 - Galmir
	83 - Galthragoth
	84 - Gazalem
	85 - Gelebros
	86 - Gelephor
	87 - Gerrilgor
	88 - Girduin
	89 - Glarthir
	90 - Glaum
	91 - Glonagoth
	92 - Gloorolros
	93 - Godros
	94 - Gorchalas
	95 - Gundalas
	96 - Gwilin
	97 - Gwinas
	98 - Hagaer
	99 - Haymon
	100 - Hingor
	101 - Hundolin
	102 - Karocher
	103 - Litan
	104 - Maenlorn
	105 - Maglir
	106 - Malborn
	107 - Mankar
	108 - Meldor
	109 - Menelras
	110 - Minedhel
	111 - Minglos
	112 - Monthadan
	113 - Morth
	114 - Nalion
	115 - Nedhelas
	116 - Nedhelfin
	117 - Nedhelorn
	118 - Niraegaer
	119 - Niruin
	120 - Nordinor
	121 - Orben
	122 - Orchendor
	123 - Paligorn
	124 - Pegasai
	125 - Peragon
	126 - Rindir
	127 - Rithrannir
	128 - Ronthil
	129 - Silrim
	130 - Sylch
	131 - Syndus
	132 - Tacher
	133 - Tarhiel
	134 - Thadon
	135 - Thaer
	136 - Thaurron
	137 - Thoromlallor
	138 - Thorongil
	139 - Thoronir
	140 - Thoronor
	141 - Thrangirfin
	142 - Thurindil
	143 - Tuundir
	144 - Ulwaen
	145 - Ungeleb
	146 - Ungolim
	147 - Ungrien
	148 - Urunil
	149 - Uungor
	150 - Uuras
	151 - Valindor
	152 - Vanirion

Female Bosmer Names ( sex = 2, first name group = 8 )
	1 - Adanrel
	2 - Aerin
	3 - Aglaril
	4 - Alawen
	5 - Allena
	6 - Althel
	7 - Andragil
	8 - Anedhel
	9 - Angrond
	10 - Anrel
	11 - Anuriel
	12 - Aradraen
	13 - Arangaer
	14 - Aranwen
	15 - Ardhil
	16 - Ardwen
	17 - Aredhel
	18 - Bauril
	19 - Baurin
	20 - Beleval
	21 - Belwen
	22 - Berwen
	23 - Boroneth
	24 - Borwen
	25 - Bothiel
	26 - Br'itsa
	27 - Brelas
	28 - Carwen
	29 - Celegil
	30 - Ciindil
	31 - Cirwedh
	32 - Cuunel
	33 - Dagail
	34 - Dairihill
	35 - Degil
	36 - Dennilwen
	37 - Desnia
	38 - Distel
	39 - Dondreth
	40 - Doryanna
	41 - Dothiel
	42 - Dothruviel
	43 - Dredhwen
	44 - Eindel
	45 - Elegnan
	46 - Elphiron
	47 - Elragail
	48 - Elsynia
	49 - Emelin
	50 - Eraldil
	51 - Estinan
	52 - Falicia
	53 - Falion
	54 - Faniriel
	55 - Fara
	56 - Faurinthil
	57 - Filbeneth
	58 - Galathil
	59 - Galbedir
	60 - Galdiir
	61 - Ganredhel
	62 - Gelduin
	63 - Gildan
	64 - Giningil
	65 - Githriian
	66 - Glathel
	67 - Gosellaneth
	68 - Hasathil
	69 - Huurwen
	70 - Hyna
	71 - Idrolian
	72 - Iingail
	73 - Indrel
	74 - Irwaen
	75 - Kaalys
	76 - Kirsty
	77 - Laenafil
	78 - Laralthir
	79 - Laredra
	80 - Liette
	81 - Lorchel
	82 - Lywen
	83 - Mandil
	84 - Mara
	85 - Menelin
	86 - Methredhel
	87 - Milbereth
	88 - Mindra
	89 - Naarifin
	90 - Nael
	91 - Natesse
	92 - Nathien
	93 - Nilawen
	94 - Nilioniel
	95 - Nimphaneth
	96 - Nimriel
	97 - Nivenor
	98 - Nona
	99 - Parwen
	100 - Penglithil
	101 - Physandra
	102 - Radras
	103 - Rillina
	104 - Samia
	105 - Selene
	106 - Serenarth
	107 - Sinia
	108 - Syl
	109 - Telaendril
	110 - Thaedil
	111 - Thaeril
	112 - Thalfin
	113 - Thamriel
	114 - Thiirchel
	115 - Ulandra
	116 - Uurwen
	117 - Wylandriah

Bosmer Last Names ( last name group = 8 )
	1 - Arrow-Catcher
	2 - Balfix
	3 - Beesinger
	4 - Benoch
	5 - Birdsong
	6 - Blood-Letter
	7 - Branchbreaker
	8 - Branck
	9 - Burr-Hair
	10 - Caerllin
	11 - Callushands
	12 - Chatterbeak
	13 - Daintyfoot
	14 - Doorwalker
	15 - Dorn'ke
	16 - Drurel
	17 - Elmlock
	18 - Ever-Festering
	19 - Farstrider
	20 - Flameheart
	21 - Food-Finder
	22 - Forestsmasher
	23 - Garnona
	24 - Green-Garters
	25 - Greenwood
	26 - Gristle-Eater
	27 - Grubnose
	28 - Hearteater
	29 - Iron-Minder
	30 - Ironbark
	31 - Ironhand
	32 - Ledure
	33 - Light-Tongued
	34 - Longshot
	35 - Many-Legs
	36 - Marvos
	37 - Ramothran
	38 - Salandas
	39 - Second-Skin
	40 - Sells-All
	41 - Sharp-Arrow
	42 - Skeever-Face
	43 - Spring-Fellow
	44 - Stickyfoot
	45 - Surefoot
	46 - Swollen-Foot
	47 - Thistlebreech
	48 - Tree-Killer
	49 - Twig-Fingers
	50 - Two-Looks
	51 - Two-Tongue
	52 - Undriel
	53 - Vayn
	54 - Verminhair
	55 - Windstrider
	56 - Woodwalker

Male Dunmer Names ( sex = 1, first name group = 9 )
	1 - Adaves
	2 - Adil
	3 - Adondasi
	4 - Adosi
	5 - Adren
	6 - Adril
	7 - Alam
	8 - Alanil
	9 - Aldam
	10 - Aldos
	11 - Alds
	12 - Alms
	13 - Alnas
	14 - Alval
	15 - Alvan
	16 - Alven
	17 - Alvis
	18 - Alvor
	19 - Alvos
	20 - Alvur
	21 - Ambarys
	22 - Anas
	23 - Andel
	24 - Anden
	25 - Andril
	26 - Anel
	27 - Anes
	28 - Angaredhel
	29 - Ano
	30 - Aras
	31 - Arelvam
	32 - Aren
	33 - Arethan
	34 - Arnas
	35 - Arns
	36 - Aroa
	37 - Aron
	38 - Arsyn
	39 - Arvel
	40 - Arven
	41 - Arver
	42 - Arvin
	43 - Arvs
	44 - Arvyn
	45 - Aryon
	46 - Athal
	47 - Athanden
	48 - Athelyn
	49 - Ather
	50 - Athis
	51 - Athyn
	52 - Aval
	53 - Avon
	54 - Avron
	55 - Avrus
	56 - Avus
	57 - Aymar
	58 - Baladas
	59 - Balen
	60 - Balis
	61 - Balver
	62 - Balyn
	63 - Banden
	64 - Banor
	65 - Banus
	66 - Baren
	67 - Barusi
	68 - Bedal
	69 - Belas
	70 - Beldrose
	71 - Belmyne
	72 - Belos
	73 - Bels
	74 - Belvis
	75 - Belyn
	76 - Benar
	77 - Beraren
	78 - Berel
	79 - Berela
	80 - Bertis
	81 - Bervaso
	82 - Bervyn
	83 - Bethes
	84 - Bevadar
	85 - Bildren
	86 - Bilen
	87 - Bilos
	88 - Birer
	89 - Bolayn
	90 - Boler
	91 - Bolnor
	92 - Bolor
	93 - Bols
	94 - Bolvus
	95 - Bolvyn
	96 - Bolyn
	97 - Bongond
	98 - Boryn
	99 - Bradil
	100 - Bradyn
	101 - Bralas
	102 - Bralen
	103 - Bralis
	104 - Bralyn
	105 - Brarayni
	106 - Bratheru
	107 - Brathus
	108 - Bravosi
	109 - Braynas
	110 - Brelar
	111 - Brelo
	112 - Brelyn
	113 - Brerama
	114 - Brethas
	115 - Breves
	116 - Breynis
	117 - Breyns
	118 - Briras
	119 - Broder
	120 - Broris
	121 - Brothes
	122 - Casimir
	123 - Cruethys
	124 - Cylben
	125 - Dalam
	126 - Daldur
	127 - Dalin
	128 - Dalmil
	129 - Dalos
	130 - Dals
	131 - Dalvus
	132 - Danar
	133 - Dandras
	134 - Danel
	135 - Daral
	136 - Daras
	137 - Daren
	138 - Daris
	139 - Darns
	140 - Daroder
	141 - Dartis
	142 - Darvam
	143 - Daryn
	144 - Dather
	145 - Dathus
	146 - Davas
	147 - Davis
	148 - Davur
	149 - Daynas
	150 - Daynes
	151 - Daynil
	152 - Dedaenc
	153 - Delmon
	154 - Delmus
	155 - Delos
	156 - Delvam
	157 - Deras
	158 - Deros
	159 - Dethresa
	160 - Deval
	161 - Devas
	162 - Dils
	163 - Dinor
	164 - Diram
	165 - Direr
	166 - Dirver
	167 - Divayth
	168 - Dolmyn
	169 - Dolyn
	170 - Dondos
	171 - Donus
	172 - Dovor
	173 - Dovres
	174 - Dovyn
	175 - Dralas
	176 - Drallin
	177 - Drals
	178 - Dralval
	179 - Dram
	180 - Dramis
	181 - Dranas
	182 - Drandryn
	183 - Dranos
	184 - Drarayne
	185 - Drarel
	186 - Draren
	187 - Draron
	188 - Drarus
	189 - Draryn
	190 - Drathas
	191 - Drathyn
	192 - Dravasa
	193 - Dravil
	194 - Dravin
	195 - Dredase
	196 - Drelas
	197 - Drelayn
	198 - Drelis
	199 - Drels
	200 - Drelse
	201 - Drerel
	202 - Drevis
	203 - Dreynis
	204 - Dreynos
	205 - Dreyns
	206 - Dridas
	207 - Dridyn
	208 - Drinar
	209 - Drodos
	210 - Dronos
	211 - Drores
	212 - Drovas
	213 - Drulvan
	214 - Duldrar
	215 - Dunel
	216 - Edd
	217 - Edras
	218 - Edril
	219 - Elam
	220 - Eldil
	221 - Eldrar
	222 - Elethus
	223 - Elms
	224 - Elo
	225 - Elvas
	226 - Elvil
	227 - Enar
	228 - Endar
	229 - Endris
	230 - Endryn
	231 - Endul
	232 - Eno
	233 - Erandur
	234 - Erene
	235 - Erer
	236 - Ereven
	237 - Eris
	238 - Ernil
	239 - Erns
	240 - Eronor
	241 - Ervas
	242 - Erver
	243 - Ervis
	244 - Ethes
	245 - Ethys
	246 - Evo
	247 - Evos
	248 - Evul
	249 - Fadren
	250 - Falam
	251 - Falas
	252 - Faldrus
	253 - Falso
	254 - Falvel
	255 - Falvis
	256 - Farvam
	257 - Farvyn
	258 - Farwil
	259 - Faryl
	260 - Fathis
	261 - Favas
	262 - Favel
	263 - Faven
	264 - Faver
	265 - Faves
	266 - Fedar
	267 - Fedris
	268 - Felas
	269 - Felayn
	270 - Felen
	271 - Felisi
	272 - Felsen
	273 - Felvan
	274 - Felvos
	275 - Femer
	276 - Fendel
	277 - Fendros
	278 - Fendryn
	279 - Feran
	280 - Feranos
	281 - Ferele
	282 - Feril
	283 - Ferul
	284 - Feruren
	285 - Fervas
	286 - Fethis
	287 - Fevris
	288 - Fevus
	289 - Fevyn
	290 - Folms
	291 - Folvys
	292 - Folyni
	293 - Fons
	294 - Fonus
	295 - Forven
	296 - Foryn
	297 - Fothas
	298 - Fothyna
	299 - Foves
	300 - Fovus
	301 - Frathen
	302 - Gadayn
	303 - Gaden
	304 - Gaelion
	305 - Galam
	306 - Galar
	307 - Galdres
	308 - Galdrus
	309 - Galen
	310 - Galis
	311 - Galmis
	312 - Galms
	313 - Galos
	314 - Gals
	315 - Galtis
	316 - Gamin
	317 - Ganalyn
	318 - Ganus
	319 - Garan
	320 - Garer
	321 - Garisa
	322 - Garnas
	323 - Garvs
	324 - Garyn
	325 - Gathal
	326 - Gavas
	327 - Gavesu
	328 - Gavis
	329 - Geldis
	330 - Gidar
	331 - Giden
	332 - Gilan
	333 - Gilas
	334 - Gilen
	335 - Gilmyn
	336 - Gils
	337 - Gilur
	338 - Gilvas
	339 - Gilyan
	340 - Gilyn
	341 - Gilyne
	342 - Gindas
	343 - Ginur
	344 - Giras
	345 - Giren
	346 - Giron
	347 - Giryn
	348 - Golar
	349 - Goldyn
	350 - Goler
	351 - Gols
	352 - Golven
	353 - Goras
	354 - Gordol
	355 - Goren
	356 - Goris
	357 - Goron
	358 - Gothren
	359 - Goval
	360 - Gragus
	361 - Grendis
	362 - Gulmon
	363 - Guls
	364 - Gureryne
	365 - Guril
	366 - Helseth
	367 - Hlanas
	368 - Hlaren
	369 - Hlaroi
	370 - Hlenil
	371 - Hleras
	372 - Hloris
	373 - Hloval
	374 - Hort
	375 - Idros
	376 - Ienas
	377 - Ildos
	378 - Ilen
	379 - Ilet
	380 - Ilvel
	381 - Ilver
	382 - Indaryn
	383 - Iner
	384 - Irarak
	385 - Irer
	386 - Irver
	387 - Ivulen
	388 - Jiub
	389 - Kiliban
	390 - Kovan
	391 - Kronin
	392 - Kylius
	393 - Llaalam
	394 - Llaals
	395 - Llanas
	396 - Llandras
	397 - Llandris
	398 - Llanel
	399 - Llarar
	400 - Llarel
	401 - Llaren
	402 - Llaro
	403 - Llavam
	404 - Lleran
	405 - Llerar
	406 - Lleras
	407 - Lleril
	408 - Lleris
	409 - Llero
	410 - Llether
	411 - Llevas
	412 - Llevel
	413 - Lliram
	414 - Lliros
	415 - Lliryn
	416 - Lloden
	417 - Llonas
	418 - Llondryn
	419 - Lloros
	420 - Llovyn
	421 - Lyrin
	422 - Lythelus
	423 - Madran
	424 - Madres
	425 - Madsu
	426 - Malar
	427 - Mallam
	428 - Mals
	429 - Malthyr
	430 - Malur
	431 - Maluril
	432 - Malyn
	433 - Manabi
	434 - Mandran
	435 - Mandur
	436 - Mandyn
	437 - Manel
	438 - Maner
	439 - Manolos
	440 - Manos
	441 - Marayn
	442 - Maros
	443 - Mastrius
	444 - Mathis
	445 - Mathyn
	446 - Mavis
	447 - Mavon
	448 - Mavus
	449 - Meden
	450 - Meder
	451 - Medyn
	452 - Melar
	453 - Mels
	454 - Melur
	455 - Menus
	456 - Meril
	457 - Mertis
	458 - Mertisi
	459 - Mervis
	460 - Mervs
	461 - Meryn
	462 - Methal
	463 - Methas
	464 - Mevel
	465 - Meven
	466 - Mevil
	467 - Midar
	468 - Milar
	469 - Mils
	470 - Milyn
	471 - Miner
	472 - Miron
	473 - Mirvon
	474 - Missun
	475 - Mithorpa
	476 - Mivul
	477 - Mjahlar
	478 - Modryn
	479 - Modyn
	480 - Mondrar
	481 - Mondros
	482 - Moraelyn
	483 - Movis
	484 - Muvis
	485 - Nads
	486 - Nalis
	487 - Nalmen
	488 - Nalosi
	489 - Nals
	490 - Nalur
	491 - Naral
	492 - Naris
	493 - Nathyn
	494 - Navam
	495 - Navil
	496 - Neldris
	497 - Nelmil
	498 - Nelos
	499 - Neloth
	500 - Nels
	501 - Nelvon
	502 - Nelyn
	503 - Nerer
	504 - Nethyn
	505 - Nevil
	506 - Nevon
	507 - Nevos
	508 - Nevosi
	509 - Niden
	510 - Nilas
	511 - Nilos
	512 - Nilphas
	513 - Niras
	514 - Nivan
	515 - Nivel
	516 - Nivos
	517 - Norus
	518 - Novor
	519 - Odral
	520 - Odron
	521 - Oisig
	522 - Olyn
	523 - Ondar
	524 - Ondre
	525 - Ondres
	526 - Orini
	527 - Orns
	528 - Orval
	529 - Orvas
	530 - Othrelos
	531 - Othreloth
	532 - Ovis
	533 - Ralam
	534 - Ralds
	535 - Ralen
	536 - Raleth
	537 - Ralis
	538 - Ralmyn
	539 - Ralos
	540 - Ralsa
	541 - Ralvas
	542 - Ralyn
	543 - Ranes
	544 - Ranor
	545 - Rararyn
	546 - Raril
	547 - Raryn
	548 - Rathal
	549 - Ravam
	550 - Raviso
	551 - Ravos
	552 - Ravyn
	553 - Raynil
	554 - Raynilie
	555 - Redas
	556 - Relam
	557 - Relas
	558 - Relen
	559 - Relms
	560 - Rels
	561 - Relur
	562 - Relyn
	563 - Remas
	564 - Rendil
	565 - Rernel
	566 - Reron
	567 - Rervam
	568 - Revus
	569 - Revyn
	570 - Reynis
	571 - Rilas
	572 - Rilos
	573 - Rilver
	574 - Rindral
	575 - Rirnas
	576 - Rirns
	577 - Rivame
	578 - Rolis
	579 - Rols
	580 - Romlyn
	581 - Roner
	582 - Rothis
	583 - Rovone
	584 - Rythe
	585 - S'ephen
	586 - Sadas
	587 - Saden
	588 - Sadryn
	589 - Salas
	590 - Saldus
	591 - Salen
	592 - Salvas
	593 - Salver
	594 - Salyn
	595 - Sanvyn
	596 - Saras
	597 - Sarayn
	598 - Sarthis
	599 - Sarvil
	600 - Sarvur
	601 - Saryn
	602 - Sathas
	603 - Savor
	604 - Savos
	605 - Savure
	606 - Sedam
	607 - Sedrane
	608 - Seldus
	609 - Seler
	610 - Selman
	611 - Selmen
	612 - Selvil
	613 - Sendel
	614 - Sendus
	615 - Seras
	616 - Serer
	617 - Serul
	618 - Servos
	619 - Seryn
	620 - Sevan
	621 - Sevilo
	622 - Shashev
	623 - Slitter
	624 - Slythe
	625 - Sodres
	626 - Sondas
	627 - Soris
	628 - Sortis
	629 - Sovor
	630 - Stlennius
	631 - Sulen
	632 - Sulis
	633 - Sunel
	634 - Sur
	635 - Suryn
	636 - Suvryn
	637 - Svadstar
	638 - Symmachus
	639 - Syndelius
	640 - Tadas
	641 - Talis
	642 - Talms
	643 - Talvas
	644 - Talvur
	645 - Tandram
	646 - Tanel
	647 - Tanur
	648 - Tarar
	649 - Taren
	650 - Tarer
	651 - Taron
	652 - Taros
	653 - Tarvus
	654 - Tarvyn
	655 - Taves
	656 - Tedril
	657 - Tedryn
	658 - Tedur
	659 - Teldryn
	660 - Telis
	661 - Tels
	662 - Telvon
	663 - Temis
	664 - Tendren
	665 - Tendris
	666 - Tens
	667 - Terer
	668 - Teres
	669 - Teris
	670 - Tervur
	671 - Tevyn
	672 - Thadar
	673 - Thaden
	674 - Thanelen
	675 - Tharer
	676 - Thauraver
	677 - Theldyn
	678 - Thervam
	679 - Tholer
	680 - Thoryn
	681 - Threvul
	682 - Tidras
	683 - Tidros
	684 - Tinos
	685 - Tiram
	686 - Tiras
	687 - Tirer
	688 - Tirnur
	689 - Tirvel
	690 - Tivam
	691 - Tolendos
	692 - Toris
	693 - Tovas
	694 - Tralas
	695 - Tralayn
	696 - Traven
	697 - Tredyn
	698 - Trelam
	699 - Trels
	700 - Trendrus
	701 - Treram
	702 - Treras
	703 - Trevyn
	704 - Trilam
	705 - Trivon
	706 - Tuls
	707 - Tythis
	708 - Ulen
	709 - Ulms
	710 - Ultis
	711 - Ulves
	712 - Ulvil
	713 - Ulvon
	714 - Ulvul
	715 - Ulyn
	716 - Unel
	717 - Uradras
	718 - Ureval
	719 - Urnel
	720 - Urvel
	721 - Urven
	722 - Uryn
	723 - Uthrel
	724 - Uvele
	725 - Uvren
	726 - Vaden
	727 - Valen
	728 - Valin
	729 - Vals
	730 - Vanel
	731 - Vanryth
	732 - Varel
	733 - Vares
	734 - Varis
	735 - Varon
	736 - Varvur
	737 - Vatollia
	738 - Vaval
	739 - Vaves
	740 - Vavran
	741 - Vedam
	742 - Vedran
	743 - Velis
	744 - Velms
	745 - Velyn
	746 - Vendil
	747 - Veren
	748 - Veros
	749 - Vevos
	750 - Vevul
	751 - Vilur
	752 - Vilval
	753 - Vilyn
	754 - Viras
	755 - Virvyn
	756 - Vobend
	757 - Vonden
	758 - Vonos
	759 - Vorar
	760 - Voruse
	761 - Vuvil
	762 - Wyndelius
	763 - Xiomara

Female Dunmer Names ( sex = 2, first name group = 9 )
	1 - Adosi
	2 - Adrusu
	3 - Aduri
	4 - Alarvyne
	5 - Alavesa
	6 - Aldyne
	7 - Alenus
	8 - Aleri
	9 - Almse
	10 - Almsi
	11 - Aloie
	12 - Alonisea
	13 - Alurue
	14 - Alvela
	15 - Alveno
	16 - Alves
	17 - Alvura
	18 - Alynu
	19 - Amili
	20 - Anara
	21 - Andalin
	22 - Andilo
	23 - Andilu
	24 - Ane
	25 - Angahran
	26 - Anis
	27 - Anise
	28 - Aphia
	29 - Aralosea
	30 - Aramea
	31 - Aranea
	32 - Arara
	33 - Arns
	34 - Arnsa
	35 - Arnsi
	36 - Artisa
	37 - Arvama
	38 - Arvamea
	39 - Arvela
	40 - Arvena
	41 - Arvso
	42 - Aryne
	43 - Aryni
	44 - Athesie
	45 - Avoni
	46 - Avrusa
	47 - Badala
	48 - Badama
	49 - Balen
	50 - Baleni
	51 - Balsa
	52 - Balynu
	53 - Barenziah
	54 - Bathrone
	55 - Bedenea
	56 - Bedynea
	57 - Belderi
	58 - Beleru
	59 - Bevene
	60 - Bidsi
	61 - Bilsa
	62 - Birama
	63 - Bivale
	64 - Boderi
	65 - Bodsa
	66 - Boldrisa
	67 - Bralsa
	68 - Bralsea
	69 - Brara
	70 - Bravora
	71 - Bredasu
	72 - Brelayne
	73 - Brelda
	74 - Brelyna
	75 - Brerayne
	76 - Brevasu
	77 - Brevosi
	78 - Brildraso
	79 - Brilnosu
	80 - Bronosa
	81 - Cindiri
	82 - Dalami
	83 - Dalnorea
	84 - Dalse
	85 - Dalyne
	86 - Danaronea
	87 - Danasi
	88 - Dandera
	89 - Dandynea
	90 - Danoso
	91 - Danso
	92 - Darane
	93 - Dareru
	94 - Daroso
	95 - Darvala
	96 - Darvame
	97 - Darvasa
	98 - Darvynea
	99 - Davela
	100 - Daynali
	101 - Daynas
	102 - Daynasa
	103 - Daynila
	104 - Daynillo
	105 - Deldasa
	106 - Deldrise
	107 - Delmene
	108 - Delyna
	109 - Derar
	110 - Derayna
	111 - Dervera
	112 - Dilami
	113 - Dileno
	114 - Dilvene
	115 - Dinara
	116 - Dinere
	117 - Dinuro
	118 - Dinya
	119 - Diradeni
	120 - Dirara
	121 - Diren
	122 - Dolmesa
	123 - Dolsa
	124 - Dolvasie
	125 - Domesea
	126 - Dorisa
	127 - Dorynu
	128 - Dothasi
	129 - Dovesi
	130 - Dovrosi
	131 - Dralasa
	132 - Dralcea
	133 - Dralisi
	134 - Dralora
	135 - Dralosa
	136 - Dralsea
	137 - Draramu
	138 - Drarana
	139 - Drarayne
	140 - Dratha
	141 - Dravynea
	142 - Dredena
	143 - Dredyni
	144 - Drelasa
	145 - Drelliane
	146 - Drelyne
	147 - Drendrisa
	148 - Dreveni
	149 - Dreyla
	150 - Drilame
	151 - Driloru
	152 - Drireri
	153 - Drolora
	154 - Drorayni
	155 - Drulene
	156 - Drurile
	157 - Duldresi
	158 - Dulnea
	159 - Edryno
	160 - Eldrasea
	161 - Eldrilu
	162 - Elmera
	163 - Elmussa
	164 - Elvali
	165 - Elvasea
	166 - Elynea
	167 - Elynu
	168 - Endase
	169 - Endroni
	170 - Eralane
	171 - Erirvase
	172 - Ernse
	173 - Ervesa
	174 - Ervona
	175 - Ervyna
	176 - Ethal
	177 - Ethasi
	178 - Evesa
	179 - Evilu
	180 - Fadase
	181 - Fadile
	182 - Falanu
	183 - Falena
	184 - Falura
	185 - Fanasa
	186 - Fanisea
	187 - Fanuse
	188 - Faral
	189 - Faralenu
	190 - Farare
	191 - Faras
	192 - Farena
	193 - Farusea
	194 - Fathasa
	195 - Fathusa
	196 - Favani
	197 - Favela
	198 - Favilea
	199 - Favise
	200 - Favona
	201 - Fedura
	202 - Felara
	203 - Feldrelo
	204 - Felisa
	205 - Felmena
	206 - Felsa
	207 - Felsu
	208 - Feralea
	209 - Ferise
	210 - Ferone
	211 - Fervsea
	212 - Ferynu
	213 - Fevasa
	214 - Fevila
	215 - Fieryra
	216 - Folsi
	217 - Folvalie
	218 - Fomesa
	219 - Fonari
	220 - Fonas
	221 - Forvse
	222 - Gabriella
	223 - Gadasu
	224 - Gadela
	225 - Gadeneri
	226 - Gadyni
	227 - Galas
	228 - Galasa
	229 - Galdal
	230 - Galeri
	231 - Galero
	232 - Galore
	233 - Galsa
	234 - Galsu
	235 - Galuro
	236 - Galvene
	237 - Galviso
	238 - Galyn
	239 - Gandela
	240 - Gandosa
	241 - Garalo
	242 - Garas
	243 - Garila
	244 - Garyne
	245 - Gilse
	246 - Ginadura
	247 - Gindrala
	248 - Girara
	249 - Girvani
	250 - Girynu
	251 - Glistel
	252 - Golana
	253 - Golena
	254 - Golmerea
	255 - Golveso
	256 - Golvyni
	257 - Gomeso
	258 - Gorenea
	259 - Gorven
	260 - Guldrise
	261 - Gulena
	262 - Gulvilie
	263 - Gureryne
	264 - Haleneri
	265 - Hlavora
	266 - Hlendrisa
	267 - Hlevala
	268 - Hlireni
	269 - Hlodala
	270 - Iachilla
	271 - Idesa
	272 - Idrenie
	273 - Idronea
	274 - Idroso
	275 - Idula
	276 - Ienasa
	277 - Ienase
	278 - Ienaso
	279 - Ildari
	280 - Ilmeni
	281 - Ilmyna
	282 - Indrele
	283 - Inera
	284 - Inzoliah
	285 - Irileth
	286 - Irna
	287 - Irvama
	288 - Irvsie
	289 - Ivela
	290 - Iveri
	291 - Ivramie
	292 - Ivrosa
	293 - Jenassa
	294 - Karethys
	295 - Karliah
	296 - Katariah
	297 - Laaneth
	298 - Lauravenya
	299 - Llaalamu
	300 - Llaalsa
	301 - Llandrale
	302 - Llandreri
	303 - Llarara
	304 - Llaros
	305 - Llarusea
	306 - Llathasa
	307 - Llathise
	308 - Llathyno
	309 - Llavane
	310 - Llavelea
	311 - Llavesa
	312 - Llaynasa
	313 - Lledsa
	314 - Lledsea
	315 - Llemisa
	316 - Llensi
	317 - Llerusa
	318 - Llevana
	319 - Llirala
	320 - Llivas
	321 - Llondresa
	322 - Llorayna
	323 - Llunela
	324 - Luaffyn
	325 - Madayna
	326 - Madaynu
	327 - Madrale
	328 - Madura
	329 - Malsa
	330 - Malven
	331 - Malyani
	332 - Manara
	333 - Manse
	334 - Manwe
	335 - Maralie
	336 - Marasa
	337 - Maren
	338 - Marena
	339 - Marilia
	340 - Marise
	341 - Mathesa
	342 - Medila
	343 - Medresi
	344 - Mehra
	345 - Melisi
	346 - Melsu
	347 - Meluria
	348 - Melvona
	349 - Melvuli
	350 - Melvure
	351 - Mensa
	352 - Meralyn
	353 - Merilar
	354 - Methulu
	355 - Mevrenea
	356 - Mevure
	357 - Miara
	358 - Milara
	359 - Milore
	360 - Miluru
	361 - Milvela
	362 - Milvonu
	363 - Minasi
	364 - Mindeli
	365 - Miraso
	366 - Mireli
	367 - Mirili
	368 - Mirnelea
	369 - Mirri
	370 - Mivanu
	371 - Mivryna
	372 - Morgiah
	373 - Mornsu
	374 - Moroni
	375 - Morusu
	376 - Movisa
	377 - Muldroni
	378 - Mulvisie
	379 - Mundrila
	380 - Muvrulea
	381 - Myvryna
	382 - Nadene
	383 - Nalami
	384 - Nalasa
	385 - Nalmila
	386 - Nalsie
	387 - Nalvilie
	388 - Nalvyna
	389 - Nardhil
	390 - Narese
	391 - Narile
	392 - Narisa
	393 - Nartise
	394 - Nathala
	395 - Nathyne
	396 - Nedeni
	397 - Nelmyne
	398 - Nelso
	399 - Neria
	400 - Nerile
	401 - Nervana
	402 - Nevama
	403 - Nevena
	404 - Nevrasa
	405 - Nevrila
	406 - Nevusa
	407 - Nidara
	408 - Nidryne
	409 - Nileno
	410 - Nilera
	411 - Niluva
	412 - Nilvyn
	413 - Nina
	414 - Nirai
	415 - Nirasa
	416 - Nireli
	417 - Noldrasi
	418 - Norasa
	419 - Nothasea
	420 - Noveni
	421 - Novrynea
	422 - Nuleno
	423 - Nurisea
	424 - Olvyne
	425 - Omesu
	426 - Orero
	427 - Orvona
	428 - Peliah
	429 - Radene
	430 - Raldenu
	431 - Ralsa
	432 - Ranis
	433 - Ranosa
	434 - Rarusu
	435 - Rarvela
	436 - Rathyne
	437 - Ravani
	438 - Raven
	439 - Ravoso
	440 - Rayna
	441 - Raynasa
	442 - Raynila
	443 - Relamu
	444 - Relmerea
	445 - Relmyna
	446 - Relosa
	447 - Relvese
	448 - Remasa
	449 - Rerilie
	450 - Rerynea
	451 - Reynel
	452 - Ridena
	453 - Rilasi
	454 - Rilvase
	455 - Rinori
	456 - Riraynea
	457 - Rolasa
	458 - Runethyne
	459 - Ruthrisu
	460 - Ruvene
	461 - Sadal
	462 - Sadela
	463 - Salama
	464 - Salora
	465 - Salyni
	466 - Sanaso
	467 - Saruse
	468 - Satha
	469 - Sathasa
	470 - Satheri
	471 - Satyana
	472 - Saveri
	473 - Savesea
	474 - Savile
	475 - Sedris
	476 - Sedyni
	477 - Selveni
	478 - Selvura
	479 - Sendrasa
	480 - Senise
	481 - Serila
	482 - Sernsi
	483 - Seryne
	484 - Sethesi
	485 - Sevame
	486 - Sevisa
	487 - Sevyni
	488 - Sodrara
	489 - Sondryn
	490 - Sorosi
	491 - Sovali
	492 - Sovisa
	493 - Suldreni
	494 - Suvaris
	495 - Synda
	496 - Tadara
	497 - Tadera
	498 - Tadrose
	499 - Talamu
	500 - Talare
	501 - Talmeni
	502 - Talmsa
	503 - Talsi
	504 - Taluri
	505 - Taluro
	506 - Tamira
	507 - Tanar
	508 - Tanasa
	509 - Tandasea
	510 - Tanisie
	511 - Tanusea
	512 - Tarani
	513 - Tavilu
	514 - Tavynu
	515 - Tedysa
	516 - Teleri
	517 - Telura
	518 - Tenaru
	519 - Tenisi
	520 - Terenu
	521 - Tereri
	522 - Teril
	523 - Teruise
	524 - Teryne
	525 - Thalurea
	526 - Thavere
	527 - Thelama
	528 - Thelsa
	529 - Thelvamu
	530 - Therana
	531 - Thilse
	532 - Thovasi
	533 - Thurisea
	534 - Tilena
	535 - Tilisu
	536 - Tilore
	537 - Tilse
	538 - Tinaso
	539 - Tirasie
	540 - Tirele
	541 - Tivela
	542 - Tolisi
	543 - Tolmera
	544 - Tolvasa
	545 - Tolvise
	546 - Tolvone
	547 - Tonas
	548 - Tonasi
	549 - Toranu
	550 - Torasa
	551 - Torosi
	552 - Traldrisa
	553 - Traynili
	554 - Tredere
	555 - Tremona
	556 - Trerayna
	557 - Trivura
	558 - Tumsa
	559 - Tunila
	560 - Turala
	561 - Tuvene
	562 - Tuvenie
	563 - Tuveso
	564 - Ulene
	565 - Ulenea
	566 - Uleni
	567 - Ulmesi
	568 - Ulmiso
	569 - Ulvena
	570 - Ulveni
	571 - Ulyne
	572 - Ulyno
	573 - Undena
	574 - Unila
	575 - Urandile
	576 - Uravasa
	577 - Urene
	578 - Uresa
	579 - Ureso
	580 - Urili
	581 - Urnsi
	582 - Urtisa
	583 - Urtiso
	584 - Uryne
	585 - Uvisea
	586 - Uvoo
	587 - Vadeni
	588 - Vadramea
	589 - Vadusa
	590 - Valveli
	591 - Valvesu
	592 - Valvosa
	593 - Valyne
	594 - Varasa
	595 - Varenu
	596 - Varona
	597 - Varvsa
	598 - Vaveli
	599 - Vedelea
	600 - Velanda
	601 - Velsa
	602 - Velyna
	603 - Venasa
	604 - Vendrela
	605 - Verara
	606 - Veresa
	607 - Vevrana
	608 - Vilvyni
	609 - Vindamea
	610 - Vindyne
	611 - Vireveri
	612 - Vivyne
	613 - Voldsea
	614 - Volene
	615 - Volmyni
	616 - Voneri
	617 - Vuldronu
	618 - Vulyne

Dunmer Last Names ( last name group = 9 )
	1 - Adas
	2 - Adram
	3 - Adren
	4 - Adryn
	5 - Adus
	6 - Akin
	7 - Alam
	8 - Alan
	9 - Alari
	10 - Alas
	11 - Alen
	12 - Alor
	13 - Alver
	14 - Alvor
	15 - Amori
	16 - Andalas
	17 - Andalen
	18 - Andalor
	19 - Andaram
	20 - Andaren
	21 - Andarys
	22 - Andas
	23 - Andavel
	24 - Andoren
	25 - Andoril
	26 - Andothan
	27 - Andral
	28 - Andrani
	29 - Andrano
	30 - Andrelo
	31 - Andrethi
	32 - Andrilo
	33 - Androm
	34 - Andromo
	35 - Androthi
	36 - Andules
	37 - Andus
	38 - Apo
	39 - Aradil
	40 - Aralas
	41 - Aralen
	42 - Aram
	43 - Aran
	44 - Arano
	45 - Aravel
	46 - Arelas
	47 - Arelet
	48 - Areloth
	49 - Aren
	50 - Arenim
	51 - Ares
	52 - Areth
	53 - Arethan
	54 - Arethi
	55 - Arinith
	56 - Arns
	57 - Arobar
	58 - Arothan
	59 - Arval
	60 - Arvel
	61 - Aryon
	62 - Arys
	63 - Athelvis
	64 - Atheron
	65 - Athin
	66 - Athones
	67 - Athram
	68 - Athren
	69 - Athrys
	70 - Avani
	71 - Avel
	72 - Avilo
	73 - Balen
	74 - Balu
	75 - Balur
	76 - Balvel
	77 - Bandas
	78 - Baram
	79 - Barelo
	80 - Baren
	81 - Baro
	82 - Barus
	83 - Baryon
	84 - Barys
	85 - Bavani
	86 - Bedas
	87 - Belaal
	88 - Belan
	89 - Belaram
	90 - Belas
	91 - Belden
	92 - Beleth
	93 - Beloren
	94 - Bels
	95 - Belvani
	96 - Belvayn
	97 - Belvilo
	98 - Bemis
	99 - Benelas
	100 - Beneran
	101 - Benethran
	102 - Beni
	103 - Beran
	104 - Berano
	105 - Bereloth
	106 - Beren
	107 - Berendas
	108 - Berendus
	109 - Berer
	110 - Berethi
	111 - Bero
	112 - Bethrano
	113 - Bethrimo
	114 - Bradyn
	115 - Braryn
	116 - Braven
	117 - Brenos
	118 - Brenur
	119 - Brilyn
	120 - Carvaren
	121 - Dalas
	122 - Dalen
	123 - Dalis
	124 - Dalobar
	125 - Dalomo
	126 - Dals
	127 - Dalvani
	128 - Dalvilu
	129 - Damori
	130 - Danoran
	131 - Daram
	132 - Darano
	133 - Dareleth
	134 - Daren
	135 - Darethi
	136 - Darethran
	137 - Darothril
	138 - Darvel
	139 - Daryon
	140 - Darys
	141 - Dathren
	142 - Davor
	143 - Davus
	144 - Daynes
	145 - Delms
	146 - Deltis
	147 - Delvi
	148 - Demnevanni
	149 - Deras
	150 - Devani
	151 - Dilmyn
	152 - Dobar
	153 - Dolovas
	154 - Doran
	155 - Doren
	156 - Dorvayn
	157 - Douar
	158 - Doves
	159 - Drad
	160 - Dradas
	161 - Dral
	162 - Dralas
	163 - Dralayn
	164 - Dralen
	165 - Dralno
	166 - Dralor
	167 - Drals
	168 - Dran
	169 - Drarara
	170 - Drath
	171 - Drathen
	172 - Dredayn
	173 - Dredil
	174 - Drel
	175 - Drelas
	176 - Dreleth
	177 - Dreloth
	178 - Dren
	179 - Drenim
	180 - Dres
	181 - Dreth
	182 - Drethan
	183 - Driler
	184 - Drilvi
	185 - Drin
	186 - Drinith
	187 - Drivam
	188 - Drobar
	189 - Drolan
	190 - Drolnor
	191 - Drom
	192 - Drora
	193 - Droryn
	194 - Droth
	195 - Drothan
	196 - Drurel
	197 - Duleri
	198 - Dulfass
	199 - Dulni
	200 - Dulo
	201 - Duro
	202 - Elarven
	203 - Eldri
	204 - Elenil
	205 - Elval
	206 - Elvul
	207 - Ertis
	208 - Evos
	209 - Fadathram
	210 - Falandas
	211 - Falas
	212 - Falavel
	213 - Falen
	214 - Falos
	215 - Fals
	216 - Falvani
	217 - Famori
	218 - Fandas
	219 - Faralen
	220 - Faram
	221 - Farandas
	222 - Farano
	223 - Faravel
	224 - Fareloth
	225 - Faren
	226 - Farethan
	227 - Farethi
	228 - Farothran
	229 - Faryon
	230 - Farys
	231 - Fatheran
	232 - Fathryon
	233 - Fathyron
	234 - Favani
	235 - Favel
	236 - Favelnim
	237 - Faveran
	238 - Fedos
	239 - Felas
	240 - Felder
	241 - Fels
	242 - Fendyn
	243 - Fererus
	244 - Fevur
	245 - Folvyn
	246 - Fyr
	247 - Gadar
	248 - Galen
	249 - Gals
	250 - Garer
	251 - Garil
	252 - Garvon
	253 - Gatharian
	254 - Gavos
	255 - Gavyn
	256 - Gidran
	257 - Gilaram
	258 - Gilnith
	259 - Gilvani
	260 - Gilvayn
	261 - Gilvilo
	262 - Gimalvel
	263 - Gimayn
	264 - Gimothran
	265 - Gindu
	266 - Ginith
	267 - Giral
	268 - Giralvel
	269 - Girando
	270 - Girano
	271 - Girendas
	272 - Girethi
	273 - Girith
	274 - Girothran
	275 - Girvayne
	276 - Giryon
	277 - Githendas
	278 - Githrano
	279 - Givyn
	280 - Gobor
	281 - Golathyn
	282 - Gols
	283 - Goran
	284 - Gorvas
	285 - Guls
	286 - Guvron
	287 - Hardil
	288 - Heladren
	289 - Helan
	290 - Helas
	291 - Heleran
	292 - Helni
	293 - Helothan
	294 - Helothran
	295 - Helothren
	296 - Helvi
	297 - Henim
	298 - Heran
	299 - Herandus
	300 - Herendas
	301 - Herothran
	302 - Hlaalo
	303 - Hlaalu
	304 - Hlaano
	305 - Hlan
	306 - Hlando
	307 - Hlarar
	308 - Hlaren
	309 - Hlarys
	310 - Hlas
	311 - Hlavel
	312 - Hledas
	313 - Hledri
	314 - Hlen
	315 - Hler
	316 - Hleran
	317 - Hlervi
	318 - Hlervu
	319 - Hloran
	320 - Idren
	321 - Ieneth
	322 - Ienith
	323 - Ienth
	324 - Ildram
	325 - Ilnith
	326 - Imayn
	327 - Imyan
	328 - Indalas
	329 - Indalen
	330 - Indaram
	331 - Indaren
	332 - Indarys
	333 - Indavel
	334 - Indobar
	335 - Indoran
	336 - Indoril
	337 - Indrano
	338 - Indules
	339 - Inlador
	340 - Irano
	341 - Irathi
	342 - Irethi
	343 - Kren
	344 - Ledd
	345 - Lerano
	346 - Lladri
	347 - Llando
	348 - Llandu
	349 - Llanith
	350 - Llaram
	351 - Llaren
	352 - Llarys
	353 - Llendo
	354 - Llendu
	355 - Llenim
	356 - Lleran
	357 - Llerayn
	358 - Llervi
	359 - Llervu
	360 - Lleryn
	361 - Llethan
	362 - Llethri
	363 - Llethro
	364 - Lloran
	365 - Lloryn
	366 - Llothas
	367 - Llothri
	368 - Lonavo
	369 - Lythandas
	370 - Madalas
	371 - Madalvel
	372 - Madryon
	373 - Malas
	374 - Maloren
	375 - Malvayn
	376 - Malvulis
	377 - Manas
	378 - Mandas
	379 - Manel
	380 - Mano
	381 - Maren
	382 - Marethi
	383 - Marvani
	384 - Marvayn
	385 - Marvel
	386 - Marvos
	387 - Maryon
	388 - Marys
	389 - Mathendis
	390 - Mavandes
	391 - Mavani
	392 - Mels
	393 - Menas
	394 - Mencele
	395 - Merys
	396 - Milar
	397 - Milo
	398 - Mirel
	399 - Molor
	400 - Moran
	401 - Moren
	402 - Morvayn
	403 - Mothren
	404 - Mothryon
	405 - Nadram
	406 - Nadus
	407 - Nalyn
	408 - Naros
	409 - Nasyal
	410 - Navur
	411 - Nedalor
	412 - Nedaren
	413 - Neladren
	414 - Nelaram
	415 - Nelas
	416 - Neleth
	417 - Neloren
	418 - Nelvani
	419 - Nelvayn
	420 - Nelvilo
	421 - Nerandas
	422 - Nerano
	423 - Nerethi
	424 - Nerothan
	425 - Nerothren
	426 - Nerus
	427 - Nervion
	428 - Nethalen
	429 - Nethan
	430 - Nethri
	431 - Nilem
	432 - Nilvon
	433 - Nirith
	434 - Nithryon
	435 - Nolar
	436 - Norvalo
	437 - Norvayn
	438 - Norvayne
	439 - Nothro
	440 - Nothryon
	441 - Nulen
	442 - Nyrandil
	443 - Ofemalen
	444 - Omalas
	445 - Omalen
	446 - Omalor
	447 - Omani
	448 - Omaren
	449 - Omathan
	450 - Omavel
	451 - Omayn
	452 - Omellian
	453 - Omoran
	454 - Omoril
	455 - Omothan
	456 - Ondyn
	457 - Onmar
	458 - Oran
	459 - Orelu
	460 - Oren
	461 - Ores
	462 - Orethi
	463 - Oreyn
	464 - Oril
	465 - Othan
	466 - Othralas
	467 - Othralen
	468 - Othran
	469 - Othravel
	470 - Othrelas
	471 - Othreleth
	472 - Othreloth
	473 - Othren
	474 - Othrenim
	475 - Othril
	476 - Othrobar
	477 - Quintella
	478 - R'enar
	479 - Ra'athim
	480 - Radarys
	481 - Radas
	482 - Radobar
	483 - Ralaal
	484 - Ralas
	485 - Raledran
	486 - Ralen
	487 - Raloran
	488 - Ralvani
	489 - Ralvas
	490 - Ralvayn
	491 - Ralvel
	492 - Ramarys
	493 - Ramoran
	494 - Ramori
	495 - Ramothran
	496 - Randas
	497 - Raram
	498 - Rathri
	499 - Rathryon
	500 - Ravel
	501 - Raviro
	502 - Redas
	503 - Redoran
	504 - Redothril
	505 - Reladren
	506 - Relarys
	507 - Relas
	508 - Relavel
	509 - Relenim
	510 - Releth
	511 - Relethyl
	512 - Relnim
	513 - Reloro
	514 - Reloth
	515 - Relvani
	516 - Relvi
	517 - Rend
	518 - Rendar
	519 - Rendas
	520 - Rendo
	521 - Reni
	522 - Renim
	523 - Reram
	524 - Rervam
	525 - Rethan
	526 - Rethandus
	527 - Rethelas
	528 - Retheran
	529 - Rethul
	530 - Reyas
	531 - Rilvayn
	532 - Rindo
	533 - Rindu
	534 - Rinith
	535 - Rivul
	536 - Rolovo
	537 - Rols
	538 - Romalen
	539 - Romandas
	540 - Romari
	541 - Romavel
	542 - Romayn
	543 - Romoran
	544 - Romoren
	545 - Romori
	546 - Romothran
	547 - Rothalen
	548 - Rothalnim
	549 - Rothalor
	550 - Rothan
	551 - Rothandus
	552 - Rothari
	553 - Rotheloth
	554 - Rotheran
	555 - Rothrano
	556 - Rothren
	557 - Rurvyn
	558 - Ryon
	559 - Sadalas
	560 - Sadalvel
	561 - Sadas
	562 - Sadoro
	563 - Sadralo
	564 - Sadrano
	565 - Sadras
	566 - Sadri
	567 - Sadryon
	568 - Sadrys
	569 - Sadus
	570 - Sala
	571 - Salam
	572 - Salandas
	573 - Salaren
	574 - Salaron
	575 - Salas
	576 - Salavel
	577 - Salen
	578 - Salenim
	579 - Salmyn
	580 - Salobar
	581 - Salor
	582 - Salothan
	583 - Salothran
	584 - Salvani
	585 - Salvel
	586 - Salvi
	587 - Samandas
	588 - Samarys
	589 - Samori
	590 - Sandas
	591 - Sandus
	592 - Saram
	593 - Sarandas
	594 - Sarandus
	595 - Sarano
	596 - Sarathram
	597 - Sareloth
	598 - Saren
	599 - Sarendas
	600 - Sarethan
	601 - Sarethi
	602 - Sari
	603 - Sarinith
	604 - Sarobar
	605 - Sarothran
	606 - Sarothren
	607 - Sarothril
	608 - Sarvani
	609 - Saryon
	610 - Saryoni
	611 - Sarys
	612 - Sathendas
	613 - Sathil
	614 - Sathis
	615 - Sathren
	616 - Sathryon
	617 - Savani
	618 - Savel
	619 - Savil
	620 - Sedarys
	621 - Sedas
	622 - Sedrethi
	623 - Sedri
	624 - Selandas
	625 - Selaren
	626 - Selaro
	627 - Selarys
	628 - Selas
	629 - Seles
	630 - Seleth
	631 - Seloth
	632 - Selothan
	633 - Selvani
	634 - Selvayn
	635 - Selvilo
	636 - Sendas
	637 - Sendu
	638 - Senim
	639 - Senoril
	640 - Seralas
	641 - Seran
	642 - Serano
	643 - Serethi
	644 - Seri
	645 - Seringi
	646 - Sero
	647 - Serothan
	648 - Serven
	649 - Sethan
	650 - Sethandas
	651 - Sethandus
	652 - Sethri
	653 - Severin
	654 - Surishpi
	655 - Talds
	656 - Tedalen
	657 - Tedas
	658 - Tedran
	659 - Telandas
	660 - Telas
	661 - Telendas
	662 - Telleno
	663 - Telmon
	664 - Telnim
	665 - Telvanni
	666 - Telvayn
	667 - Teneran
	668 - Tenim
	669 - Teran
	670 - Terandas
	671 - Terano
	672 - Teri
	673 - Teria
	674 - Terilu
	675 - Tervayn
	676 - Thalas
	677 - Thalor
	678 - Thando
	679 - Tharam
	680 - Tharen
	681 - Tharyon
	682 - Tharys
	683 - Thelas
	684 - Thelis
	685 - Theman
	686 - Thendas
	687 - Thenim
	688 - Theran
	689 - Therayn
	690 - Therethi
	691 - Thilandas
	692 - Thilarvel
	693 - Thimalvel
	694 - Thindo
	695 - Thiralas
	696 - Thirandus
	697 - Thirano
	698 - Thireloth
	699 - Thirith
	700 - Thirothan
	701 - Thirvayn
	702 - Tilvur
	703 - Tistar
	704 - Tobor
	705 - Trandel
	706 - Tunel
	707 - Tures
	708 - Tyravel
	709 - Ulen
	710 - Uleni
	711 - Ules
	712 - Ulessen
	713 - Ulom
	714 - Ulvel
	715 - Ulven
	716 - Ulver
	717 - Urns
	718 - Urvon
	719 - Urvyn
	720 - Uvalas
	721 - Uvalen
	722 - Uvalor
	723 - Uvani
	724 - Uvaram
	725 - Uvaren
	726 - Uvayn
	727 - Uvelas
	728 - Uveleth
	729 - Uvenim
	730 - Uveran
	731 - Uvirith
	732 - Uvulas
	733 - Vadryon
	734 - Valaai
	735 - Valas
	736 - Valen
	737 - Valno
	738 - Valor
	739 - Valos
	740 - Vamori
	741 - Vando
	742 - Vandram
	743 - Vandus
	744 - Varam
	745 - Varen
	746 - Vari
	747 - Varis
	748 - Varo
	749 - Varyon
	750 - Varys
	751 - Vavas
	752 - Vavyn
	753 - Vedaren
	754 - Vedas
	755 - Vedralu
	756 - Vedran
	757 - Vedrano
	758 - Velas
	759 - Velendas
	760 - Veleth
	761 - Velni
	762 - Veloren
	763 - Veloth
	764 - Velothi
	765 - Velothren
	766 - Velothril
	767 - Vendu
	768 - Venim
	769 - Veralor
	770 - Veran
	771 - Verano
	772 - Verelas
	773 - Verelnim
	774 - Veren
	775 - Verendas
	776 - Verenim
	777 - Verethi
	778 - Veri
	779 - Verilnith
	780 - Verothan
	781 - Vess
	782 - Viake
	783 - Vian
	784 - Vibato
	785 - Vidron
	786 - Vilas
	787 - Vinden
	788 - Virith
	789 - Volos
	790 - Vox
	791 - Vules

Male Orsimer Names ( sex = 1, first name group = 10 )
	1 - Agronak
	2 - Atulg
	3 - Azuk
	4 - Bagamul
	5 - Bakh
	6 - Balagog
	7 - Baronk
	8 - Bashag
	9 - Bashnag
	10 - Bat
	11 - Bazgulub
	12 - Bazur
	13 - Bogakh
	14 - Bogrum
	15 - Bologra
	16 - Borkul
	17 - Borug
	18 - Both
	19 - Brag
	20 - Brokil
	21 - Brugo
	22 - Bugak
	23 - Bugdul
	24 - Bugharz
	25 - Bugrash
	26 - Bugrol
	27 - Bumbub
	28 - Buramog
	29 - Burguk
	30 - Burul
	31 - Burz
	32 - Dubok
	33 - Dul
	34 - Dular
	35 - Dulfish
	36 - Dulphumph
	37 - Duluk
	38 - Duma
	39 - Dumag
	40 - Dumbuk
	41 - Dumburz
	42 - Dur
	43 - Durak
	44 - Durbul
	45 - Durgash
	46 - Durgob
	47 - Durz
	48 - Durzol
	49 - Durzub
	50 - Durzum
	51 - Dushnamub
	52 - Gadba
	53 - Garothmuk
	54 - Garzonk
	55 - Gashna
	56 - Gat
	57 - Gaturn
	58 - Ghamborz
	59 - Ghamonk
	60 - Ghamorz
	61 - Ghola
	62 - Ghoragdush
	63 - Ghorbash
	64 - Ghorlorz
	65 - Ghorub
	66 - Ghunzul
	67 - Glush
	68 - Godrun
	69 - Gogron
	70 - Gorgo
	71 - Gortwog
	72 - Graklak
	73 - Graman
	74 - Grat
	75 - Grogmar
	76 - Grommok
	77 - Grul
	78 - Grushnag
	79 - Gruzgob
	80 - Guarg
	81 - Gudrig
	82 - Gul
	83 - Gularzob
	84 - Gurak
	85 - Gushagub
	86 - Hanz
	87 - Joun
	88 - Khadba
	89 - Khagra
	90 - Kharag
	91 - Khargol
	92 - Koffutto
	93 - Krognak
	94 - Kurdan
	95 - Kurog
	96 - Kurz
	97 - Larak
	98 - Largakh
	99 - Lob
	100 - Loghorz
	101 - Lorbumol
	102 - Lorzub
	103 - Lugdum
	104 - Lugrub
	105 - Lum
	106 - Lumdum
	107 - Lurbuk
	108 - Lurog
	109 - Luronk
	110 - Magra
	111 - Magub
	112 - Mahk
	113 - Makhel
	114 - Maknok
	115 - Malkus
	116 - Mash
	117 - Matuk
	118 - Mauhul
	119 - Mauhulakh
	120 - Mazorn
	121 - Modig
	122 - Mog
	123 - Moghakh
	124 - Mogrul
	125 - Mol
	126 - Morbash
	127 - Moth
	128 - Mug
	129 - Mugdul
	130 - Muk
	131 - Mul
	132 - Mulush
	133 - Murag
	134 - Murkub
	135 - Murzol
	136 - Muzgonk
	137 - Nag
	138 - Nagorm
	139 - Nagrub
	140 - Nar
	141 - Nargi
	142 - Nash
	143 - Oglub
	144 - Ogol
	145 - Ogrul
	146 - Ogrumbu
	147 - Olfin
	148 - Olumba
	149 - Olur
	150 - Orakh
	151 - Orok
	152 - Othmash
	153 - Ramolg
	154 - Rogdul
	155 - Rugdumph
	156 - Shagol
	157 - Shagrol
	158 - Shakh
	159 - Shamar
	160 - Shamob
	161 - Shargam
	162 - Sharkub
	163 - Shat
	164 - Shazgob
	165 - Shelakh
	166 - Shobob
	167 - Shulong
	168 - Shum
	169 - Shura
	170 - Shurkul
	171 - Shuzug
	172 - Snaglak
	173 - Snakha
	174 - Snat
	175 - Ugdumph
	176 - Ughash
	177 - Ulag
	178 - Ulam
	179 - Ulmug
	180 - Umug
	181 - Umurn
	182 - Urag
	183 - Uram
	184 - Urbul
	185 - Urim
	186 - Urmuk
	187 - Urul
	188 - Urzog
	189 - Ushamph
	190 - Ushat
	191 - Ushnar
	192 - Uzgakh
	193 - Uzul
	194 - Yadba
	195 - Yagak
	196 - Yak
	197 - Yam
	198 - Yamarz
	199 - Yambagorn
	200 - Yambul
	201 - Yar
	202 - Yargol
	203 - Yashnarz
	204 - Yatur

Female Orsimer Names ( sex = 2, first name group = 10 )
	1 - Agrob
	2 - Arob
	3 - Atub
	4 - Badbog
	5 - Bagrak
	6 - Bashuk
	7 - Batul
	8 - Batum
	9 - Bogdub
	10 - Bolar
	11 - Bor
	12 - Borba
	13 - Borgakh
	14 - Bugdurash
	15 - Bula
	16 - Bulak
	17 - Bulfim
	18 - Bum
	19 - Bumph
	20 - Burub
	21 - Burzob
	22 - Dulug
	23 - Dura
	24 - Durgat
	25 - Durz
	26 - Garakh
	27 - Gashnakh
	28 - Ghak
	29 - Gharol
	30 - Ghob
	31 - Ghorza
	32 - Glasha
	33 - Glob
	34 - Gluronk
	35 - Gonk
	36 - Grat
	37 - Grazob
	38 - Gul
	39 - Gulfim
	40 - Homraz
	41 - Kharzug
	42 - Lagakh
	43 - Lambug
	44 - Lash
	45 - Lazgar
	46 - Lushak
	47 - Mazgar
	48 - Mazoga
	49 - Mog
	50 - Mogak
	51 - Mogdurz
	52 - Mor
	53 - Morn
	54 - Murbul
	55 - Murob
	56 - Murzush
	57 - Nargol
	58 - Oghash
	59 - Orag
	60 - Orbul
	61 - Ragash
	62 - Rogbut
	63 - Rogmesh
	64 - Rolfish
	65 - Rulfim
	66 - Shadbak
	67 - Shagar
	68 - Shagdub
	69 - Sharamph
	70 - Sharn
	71 - Sharog
	72 - Shel
	73 - Shelur
	74 - Shuftharz
	75 - Sloomalah
	76 - Snak
	77 - Ugak
	78 - Ugor
	79 - Uloth
	80 - Ulumpha
	81 - Umar
	82 - Umog
	83 - Urog
	84 - Urzoga
	85 - Urzoth
	86 - Urzul
	87 - Ushug
	88 - Voltha
	89 - Yag
	90 - Yatul
	91 - Yazgash

###Orsimer Last Names ( last name group = 10 )
Male Argonian Names ( sex = 1, first name group = 11 )
	1 - Ah-Malz
	2 - Ajum-Kajin
	3 - Amusei
	4 - An-Zaw
	5 - Asum
	6 - Beem-Ja
	7 - Beem-Kiurz
	8 - Binyaar
	9 - Brand-Shei
	10 - Bun-Teemeeta
	11 - Bunish
	12 - Busheeus
	13 - Chalureel
	14 - Chiwish
	15 - Chulz
	16 - Chuna
	17 - Dan-Ru
	18 - Danlai
	19 - Dar
	20 - Deeh
	21 - Deekus
	22 - Deerkaza
	23 - Deetum-Ja
	24 - Derkeethus
	25 - Drameencin
	26 - Dreekius
	27 - Dreet-Lai
	28 - Effe-Tei
	29 - Eleedal-Lei
	30 - Er-Teeus
	31 - Eutei
	32 - Gah
	33 - Gajul-Lei
	34 - Gam-Kur
	35 - Geel
	36 - Geel-Lah
	37 - Geem
	38 - Gin-Rajul
	39 - Gin-Wulm
	40 - Gulum-Ei
	41 - Haj-Ei
	42 - Han-Tulm
	43 - Haran
	44 - Hathei
	45 - Heedul
	46 - Heem-La
	47 - Heir-Zish
	48 - Hermit
	49 - Hleelieek
	50 - Huleeya
	51 - Huzei
	52 - Ilas-Tei
	53 - Im-Kilaya
	54 - Inee
	55 - Itan
	56 - Ixtah-Nasha
	57 - Jaraleet
	58 - Jaree-Ra
	59 - Jasaiin
	60 - Jaxa
	61 - Jee
	62 - Jee-Tah
	63 - Jeelius
	64 - Jeelus-Tei
	65 - Jeer-Maht
	66 - Jeetum-Ze
	67 - Julan
	68 - Junal-Lei
	69 - Juunei
	70 - Keerasa-Tan
	71 - Mach-Makka
	72 - Mach-Makka
	73 - Madesi
	74 - Mahei
	75 - Meeleeh-Een
	76 - Meer
	77 - Mere-Glim
	78 - Milos
	79 - Miun-Gei
	80 - Mush-Mere
	81 - Neetinei
	82 - Neetrenaza
	83 - Nomu
	84 - Okan-Shei
	85 - Okaw
	86 - Oleed-Ei
	87 - Oleen
	88 - Oleen-Gei
	89 - Olik-Jaa
	90 - Olink-Nur
	91 - Otumeel
	92 - Pad-Ei
	93 - Pajeen
	94 - Peeradeeh
	95 - Rasha
	96 - Reeh-Jah
	97 - Reek-Koos
	98 - Reemukeeus
	99 - Reenum
	100 - Reesa
	101 - Sakeepa
	102 - Saliith
	103 - Schiavas
	104 - Seewul
	105 - Shehs
	106 - Silm-Dar
	107 - Skeetul
	108 - Talen-Jei
	109 - Tanan
	110 - Tee-Lan
	111 - Tee-Wan
	112 - Teeba-Ei
	113 - Teegla
	114 - Teekeeus
	115 - Teinaava
	116 - the
	117 - Thumarz
	118 - Tim-Jush
	119 - Tsleeixth
	120 - Tul
	121 - Tun-Zeeus
	122 - Ukawei
	123 - Ula
	124 - Ullis
	125 - Usha
	126 - Usheeja
	127 - Utadeek
	128 - Veezara
	129 - Vistha-Kai
	130 - Wanan-Dum
	131 - Weebam-Na
	132 - Weeltul
	133 - Weer
	134 - Wih-Eius
	135 - Wud-Neeus
	136 - Wuleen-Shei
	137 - Wumeek
	138 - Wuthilul
	139 - Xhon-Mehl
	140 - Xucin
	141 - Yinz'r

Female Argonian Names ( sex = 2, first name group = 11 )
	1 - Ah-Meesei
	2 - Ahaht
	3 - Akish
	4 - Am-Ra
	5 - An-Deesei
	6 - Awas
	7 - Banalz
	8 - Beekatan
	9 - Beelei
	10 - Beewos
	11 - Bejeen
	12 - Bur-Meema
	13 - Chanil-Lee
	14 - Cheesh-Meeus
	15 - Dar-Ma
	16 - Deeja
	17 - Deesh-Meeus
	18 - Deetsan
	19 - Druja
	20 - El-Lurasha
	21 - Ereel-Lei
	22 - Eutei
	23 - Gih-Ja
	24 - Gilm
	25 - Gish
	26 - Hal-Liurz
	27 - Hul
	28 - Jaxa-Kel
	29 - Jeed-Ei
	30 - Kal-Ma
	31 - Kasa
	32 - Keel-Raniur
	33 - Keerava
	34 - Kud-Ei
	35 - Mach-Na
	36 - Marz
	37 - Meeh-Mei
	38 - Meen-Sa
	39 - Milah
	40 - Mim-Jeen
	41 - Muz-Ra
	42 - Nakuma
	43 - Nam-La
	44 - Neesha
	45 - Numeen
	46 - Nuralg
	47 - Nush
	48 - Ocheeva
	49 - Okur
	50 - Olank-Neeus
	51 - On-Wan
	52 - On-Wazei
	53 - Onasha
	54 - Pasha
	55 - Peek-Ereel
	56 - Rana
	57 - Reelus
	58 - Sanax
	59 - Seed-Neeus
	60 - Seen-Rei
	61 - Seif-ij-Hidja
	62 - Shahvee
	63 - Shaleez
	64 - Shatalg
	65 - Sheer-Meedish
	66 - Shei-Halu
	67 - Shusaja
	68 - Sigerthe
	69 - Skaleel
	70 - Tar-Meena
	71 - Tasha
	72 - Teewajsi
	73 - Vos-Huruk
	74 - Weedum-Ja
	75 - Witseidutsei
	76 - Wujeeta
	77 - Wusha
	78 - Xil-Go
	79 - Zollassa

###Argonian Last Names ( last name group = 11 )
Male Khajiit Names ( sex = 1, first name group = 12 )
	1 - Azarrid
	2 - Azelit-ra
	3 - Baadargo
	4 - Bhisha
	5 - Cherim
	6 - Dahlima
	7 - Dro'barri
	8 - Dro'farahn
	9 - Dro'marash
	10 - Dro'qanar
	11 - Dro'sakhar
	12 - Dro'shanji
	13 - Dro'shavir
	14 - Dro'tasarr
	15 - Dro'zah
	16 - Dro'zaymar
	17 - Dro'zel
	18 - Dro'zharim
	19 - Dro'zhirr
	20 - Dro'zira
	21 - Ezudash
	22 - Felari-ko
	23 - Hassiri
	24 - Helnor
	25 - Hunal
	26 - Iffech
	27 - J'baana
	28 - J'baasha
	29 - J'bari
	30 - J'darr
	31 - J'datharr
	32 - J'dato
	33 - J'dhannar
	34 - J'ffer
	35 - J'ghasta
	36 - J'hanir
	37 - J'jarsha
	38 - J'jazha
	39 - J'kara
	40 - J'kier
	41 - J'lasha
	42 - J'mhad
	43 - J'raksa
	44 - J'rasha
	45 - J'riska
	46 - J'saddha
	47 - J'skar
	48 - J'zamha
	49 - J'zargo
	50 - J'zhar
	51 - J'zhirr
	52 - J'zidzo
	53 - J'zin-dar
	54 - Ja'fazir
	55 - Jo'ren-dar
	56 - Jo'thri-dar
	57 - Jobasha
	58 - Jobasha-do
	59 - Jodhur
	60 - Joshur
	61 - Joto
	62 - K'sharr
	63 - K'sharra
	64 - K'sirr
	65 - Kazagh
	66 - Keem
	67 - Kesh
	68 - Kharjo
	69 - Khasha
	70 - Khunzar-ri
	71 - Lwef-dim
	72 - M'aiq
	73 - M'dasha
	74 - M'desi
	75 - M'dirr
	76 - M'nashi
	77 - M'raaj-dar
	78 - M'shan
	79 - Ma'dara
	80 - Ma'dran
	81 - Ma'jhad
	82 - Ma'jidarr
	83 - Ma'khar
	84 - Ma'randru-jo
	85 - Ma'rashirr
	86 - Ma'raska
	87 - Ma'tasarr
	88 - Ma'zaddha
	89 - Ma'zahn
	90 - Ma'zaka
	91 - Mazaram
	92 - Mojhad
	93 - Nagh
	94 - Nizun-ja
	95 - Qa-dar
	96 - Qa'dar
	97 - R'vanni
	98 - Ra'dirsha
	99 - Ra'jahirr
	100 - Ra'jhan
	101 - Ra'jhera
	102 - Ra'jiradh
	103 - Ra'jirr
	104 - Ra'karim
	105 - Ra'kheran
	106 - Ra'kothre
	107 - Ra'mhirr
	108 - Ra'sava
	109 - Ra'tassa
	110 - Ra'tesh
	111 - Ra'virr
	112 - Ra'zahr
	113 - Ra'zhid
	114 - Rajhin
	115 - Ranarr-jo
	116 - Ri'bassa
	117 - Ri'darsha
	118 - Ri'dumiwa
	119 - Ri'jrr
	120 - Ri'saad
	121 - Ri'shajirr
	122 - Ri'vassa
	123 - Ri'zaadha
	124 - Ri'zakar
	125 - S'bakha
	126 - S'drassa
	127 - S'radirr
	128 - S'rathad
	129 - S'rathra
	130 - S'rava
	131 - S'raverr
	132 - S'razirr
	133 - S'renji
	134 - S'riizh
	135 - S'shani
	136 - S'vandra
	137 - S'vanir
	138 - S'virr
	139 - Sha'jal
	140 - Sholani
	141 - Thengil
	142 - Therris
	143 - Urjabhi
	144 - Urjorad
	145 - Vasha
	146 - Wadarkhu
	147 - Zadabal-ra
	148 - Zagun-ra
	149 - Zhanar
	150 - Zizar-dar
	151 - Zoaraym
	152 - Zukki-dar

Female Khajiit Names ( sex = 2, first name group = 12 )	
	1 - Abanji
	2 - Abhuki
	3 - Adanja
	4 - Addhiranirr
	5 - Adharanji
	6 - Affri
	7 - Ahdahni
	8 - Ahdarji
	9 - Ahdni
	10 - Ahdri
	11 - Ahjara
	12 - Ahjazda
	13 - Ahjisi
	14 - Ahkari
	15 - Ahnarra
	16 - Ahnassi
	17 - Ahndahra
	18 - Ahnia
	19 - Ahnisa
	20 - Ahnissi
	21 - Ahzini
	22 - Aina
	23 - Aishah
	24 - Ajira
	25 - Anahbi
	26 - Anequina
	27 - Anjari
	28 - Anurassa
	29 - Arabhi
	30 - Aravi
	31 - Ashidasha
	32 - Ashni
	33 - Atahba
	34 - Atahbah
	35 - Atrabhi
	36 - Ayisha
	37 - Bahdahna
	38 - Bahdrashi
	39 - Baissa
	40 - Bezumi
	41 - Bhisha
	42 - Bhusari
	43 - Chirranirr
	44 - Dahleena
	45 - Dahnara
	46 - Dro'nahrahe
	47 - Ekapi
	48 - Habasi
	49 - Harassa
	50 - Hasaama
	51 - Idhassi
	52 - Inerri
	53 - Inorra
	54 - Jazadi
	55 - Kaasha
	56 - Khamuzi
	57 - Khayla
	58 - Khazura
	59 - Khinjarsi
	60 - Kiseena
	61 - Kish'na
	62 - Kishashi
	63 - Kishni
	64 - Kishra-do
	65 - Kisimba
	66 - Kisisa
	67 - Lesspa
	68 - M'kai
	69 - Mizaba-ko
	70 - Mizzi
	71 - Munilli
	72 - Naamah
	73 - Nahsi
	74 - Nisaba
	75 - Ra'zhinda
	76 - Rabinna
	77 - Rathuni-la
	78 - S'fara
	79 - S'jirra
	80 - S'kasha
	81 - S'krivva
	82 - S'mirra
	83 - S'thasa
	84 - Shaba
	85 - Shamada
	86 - Sharwa
	87 - Shavari
	88 - Shivani
	89 - Shizahi-jo
	90 - Shomara
	91 - Shotherra
	92 - Shunari
	93 - Shuravi
	94 - Sirahai-daro
	95 - Talasma
	96 - Tazzie
	97 - Thazahrr
	98 - Thazahrr-ra
	99 - Tsabhi
	100 - Tsajadhi
	101 - Tsalajma
	102 - Tsalani
	103 - Tsani
	104 - Tsarrina
	105 - Tsavani
	106 - Tsavi
	107 - Tsiya
	108 - Tsramla
	109 - Tsrasuna
	110 - Tsrava
	111 - Tsrazami
	112 - Ubaasi
	113 - Udarra
	114 - Unjara
	115 - Vajhira
	116 - Vanjirra
	117 - Vazshara
	118 - Yushi
	119 - Zabhila
	120 - Zahraji
	121 - Zahrasha
	122 - Zara
	123 - Zaynabi

###Khajiit Last Names ( last name group = 12 )
Male Volkihar Names ( sex = 1, first name group = 13.1 )
	1 - Harkon

Female Volkihar Names ( sex = 2, first name group = 13.1 )
	1 - Serana
	2 - Valerica

Volkihar Last Names ( last name group = 13.1 )
	1 - Volkihar